<?xml version="1.0" encoding="UTF-8"?>
<glyph name="afii10029" format="1">
  <advance width="820"/>
  <unicode hex="041B"/>
  <outline>
    <contour>
      <point x="139" y="93" type="curve" smooth="yes"/>
      <point x="196" y="93"/>
      <point x="239" y="321"/>
      <point x="239" y="487" type="curve" smooth="yes"/>
      <point x="239" y="562"/>
      <point x="227" y="591"/>
      <point x="175" y="597" type="curve" smooth="yes"/>
      <point x="150" y="600" type="line"/>
      <point x="150" y="681" type="line"/>
      <point x="788" y="681" type="line"/>
      <point x="788" y="601" type="line"/>
      <point x="763" y="598" type="line" smooth="yes"/>
      <point x="711" y="592"/>
      <point x="698" y="570"/>
      <point x="698" y="488" type="curve" smooth="yes"/>
      <point x="698" y="193" type="line" smooth="yes"/>
      <point x="698" y="111"/>
      <point x="711" y="89"/>
      <point x="763" y="83" type="curve" smooth="yes"/>
      <point x="788" y="80" type="line"/>
      <point x="788" y="0" type="line"/>
      <point x="439" y="0" type="line"/>
      <point x="439" y="81" type="line"/>
      <point x="464" y="84" type="line" smooth="yes"/>
      <point x="516" y="90"/>
      <point x="529" y="112"/>
      <point x="529" y="194" type="curve" smooth="yes"/>
      <point x="529" y="483" type="line" smooth="yes"/>
      <point x="529" y="569"/>
      <point x="523" y="585"/>
      <point x="490" y="585" type="curve" smooth="yes"/>
      <point x="411" y="585" type="line"/>
      <point x="370" y="584"/>
      <point x="376" y="565"/>
      <point x="372" y="525" type="curve" smooth="yes"/>
      <point x="357" y="332"/>
      <point x="350" y="257"/>
      <point x="298" y="93" type="curve" smooth="yes"/>
      <point x="276" y="24"/>
      <point x="234" y="-14"/>
      <point x="126" y="-14" type="curve" smooth="yes"/>
      <point x="24" y="-14"/>
      <point x="-25" y="21"/>
      <point x="-25" y="87" type="curve" smooth="yes"/>
      <point x="-25" y="129"/>
      <point x="1" y="161"/>
      <point x="40" y="161" type="curve" smooth="yes"/>
      <point x="74" y="161"/>
      <point x="97" y="149"/>
      <point x="105" y="131" type="curve" smooth="yes"/>
      <point x="115" y="109"/>
      <point x="112" y="93"/>
    </contour>
  </outline>
  <lib>
    <dict>
      <key>com.fontlab.hintData</key>
      <dict>
	<key>hhints</key>
	<array>
	  <dict>
	    <key>position</key>	    <integer>-14</integer>
	    <key>width</key>	    <integer>107</integer>
	  </dict>
	  <dict>
	    <key>position</key>	    <integer>585</integer>
	    <key>width</key>	    <integer>96</integer>
	  </dict>
	</array>
	<key>vhints</key>
	<array>
	  <dict>
	    <key>position</key>
	    <integer>529</integer>
	    <key>width</key>
	    <integer>169</integer>
	  </dict>
	</array>
      </dict>
    </dict>
  </lib>
</glyph>
