<?xml version="1.0" encoding="UTF-8"?>
<glyph name="Dcaron" format="1">
  <advance width="780"/>
  <unicode hex="010E"/>
  <outline>
    <contour>
      <point x="108" y="168" type="curve" smooth="yes"/>
      <point x="108" y="513" type="line" smooth="yes"/>
      <point x="108" y="577"/>
      <point x="96" y="591"/>
      <point x="40" y="597" type="curve" smooth="yes"/>
      <point x="20" y="599" type="line"/>
      <point x="20" y="681" type="line"/>
      <point x="338" y="681" type="line" smooth="yes"/>
      <point x="507" y="681"/>
      <point x="562" y="666"/>
      <point x="636" y="602" type="curve" smooth="yes"/>
      <point x="709" y="539"/>
      <point x="748" y="447"/>
      <point x="748" y="338" type="curve" smooth="yes"/>
      <point x="748" y="248"/>
      <point x="721" y="168"/>
      <point x="669" y="108" type="curve" smooth="yes"/>
      <point x="601" y="28"/>
      <point x="522" y="0"/>
      <point x="361" y="0" type="curve" smooth="yes"/>
      <point x="20" y="0" type="line"/>
      <point x="20" y="82" type="line"/>
      <point x="40" y="84" type="line" smooth="yes"/>
      <point x="96" y="90"/>
      <point x="108" y="104"/>
    </contour>
    <contour>
      <point x="283" y="538" type="curve" smooth="yes"/>
      <point x="283" y="162" type="line" smooth="yes"/>
      <point x="283" y="113"/>
      <point x="283" y="110"/>
      <point x="292" y="103" type="curve" smooth="yes"/>
      <point x="302" y="95"/>
      <point x="324" y="90"/>
      <point x="350" y="90" type="curve" smooth="yes"/>
      <point x="475" y="90"/>
      <point x="556" y="190"/>
      <point x="556" y="345" type="curve" smooth="yes"/>
      <point x="556" y="498"/>
      <point x="480" y="591"/>
      <point x="355" y="591" type="curve" smooth="yes"/>
      <point x="298" y="591"/>
      <point x="283" y="580"/>
    </contour>
    <contour>
      <point x="208" y="837" type="line"/>
      <point x="246" y="904" type="line"/>
      <point x="390" y="850" type="line"/>
      <point x="532" y="904" type="line"/>
      <point x="570" y="837" type="line"/>
      <point x="388" y="727" type="line"/>
    </contour>
  </outline>
  <lib>
    <dict>
      <key>com.fontlab.hintData</key>
      <dict>
	<key>hhints</key>
	<array>
	  <dict>
	    <key>position</key>	    <integer>0</integer>
	    <key>width</key>	    <integer>82</integer>
	  </dict>
	  <dict>
	    <key>position</key>	    <integer>0</integer>
	    <key>width</key>	    <integer>90</integer>
	  </dict>
	  <dict>
	    <key>position</key>	    <integer>599</integer>
	    <key>width</key>	    <integer>82</integer>
	  </dict>
	</array>
	<key>vhints</key>
	<array>
	  <dict>
	    <key>position</key>
	    <integer>108</integer>
	    <key>width</key>
	    <integer>175</integer>
	  </dict>
	  <dict>
	    <key>position</key>
	    <integer>556</integer>
	    <key>width</key>
	    <integer>192</integer>
	  </dict>
	</array>
      </dict>
    </dict>
  </lib>
</glyph>
