<?xml version="1.0" encoding="UTF-8"?>
<glyph name="Gcommaaccent" format="1">
  <advance width="780"/>
  <unicode hex="0122"/>
  <outline>
    <contour>
      <point x="448" y="268" type="curve"/>
      <point x="448" y="350" type="line"/>
      <point x="773" y="350" type="line"/>
      <point x="773" y="268" type="line"/>
      <point x="757" y="266" type="line" smooth="yes"/>
      <point x="705" y="260"/>
      <point x="694" y="246"/>
      <point x="694" y="182" type="curve" smooth="yes"/>
      <point x="694" y="-9" type="line"/>
      <point x="585" y="-9" type="line"/>
      <point x="562" y="49" type="line"/>
      <point x="522" y="27"/>
      <point x="507" y="19"/>
      <point x="494" y="13" type="curve" smooth="yes"/>
      <point x="455" y="-3"/>
      <point x="402" y="-13"/>
      <point x="356" y="-13" type="curve" smooth="yes"/>
      <point x="274" y="-13"/>
      <point x="195" y="16"/>
      <point x="141" y="67" type="curve" smooth="yes"/>
      <point x="75" y="128"/>
      <point x="35" y="232"/>
      <point x="35" y="340" type="curve" smooth="yes"/>
      <point x="35" y="547"/>
      <point x="175" y="694"/>
      <point x="373" y="694" type="curve" smooth="yes"/>
      <point x="431" y="694"/>
      <point x="506" y="676"/>
      <point x="547" y="652" type="curve"/>
      <point x="562" y="681" type="line"/>
      <point x="626" y="681" type="line"/>
      <point x="687" y="452" type="line"/>
      <point x="615" y="427" type="line"/>
      <point x="586" y="479"/>
      <point x="569" y="504"/>
      <point x="546" y="527" type="curve" smooth="yes"/>
      <point x="503" y="571"/>
      <point x="447" y="597"/>
      <point x="392" y="597" type="curve" smooth="yes"/>
      <point x="293" y="597"/>
      <point x="227" y="489"/>
      <point x="227" y="327" type="curve" smooth="yes"/>
      <point x="227" y="184"/>
      <point x="298" y="84"/>
      <point x="400" y="84" type="curve" smooth="yes"/>
      <point x="472" y="84"/>
      <point x="536" y="140"/>
      <point x="536" y="203" type="curve" smooth="yes"/>
      <point x="536" y="246"/>
      <point x="507" y="267"/>
    </contour>
    <contour>
      <point x="369" y="-306" type="curve"/>
      <point x="326" y="-261" type="line"/>
      <point x="350" y="-240"/>
      <point x="364" y="-223"/>
      <point x="375" y="-202" type="curve"/>
      <point x="332" y="-194"/>
      <point x="310" y="-168"/>
      <point x="310" y="-129" type="curve" smooth="yes"/>
      <point x="310" y="-84"/>
      <point x="344" y="-50"/>
      <point x="388" y="-50" type="curve" smooth="yes"/>
      <point x="437" y="-50"/>
      <point x="470" y="-89"/>
      <point x="470" y="-145" type="curve" smooth="yes"/>
      <point x="470" y="-204"/>
      <point x="432" y="-265"/>
    </contour>
  </outline>
  <lib>
    <dict>
      <key>com.fontlab.hintData</key>
      <dict>
	<key>hhints</key>
	<array>
	  <dict>
	    <key>position</key>	    <integer>-13</integer>
	    <key>width</key>	    <integer>97</integer>
	  </dict>
	  <dict>
	    <key>position</key>	    <integer>597</integer>
	    <key>width</key>	    <integer>97</integer>
	  </dict>
	</array>
	<key>vhints</key>
	<array>
	  <dict>
	    <key>position</key>
	    <integer>35</integer>
	    <key>width</key>
	    <integer>192</integer>
	  </dict>
	</array>
      </dict>
    </dict>
  </lib>
</glyph>
