<?xml version="1.0" encoding="UTF-8"?>
<glyph name="Ugrave" format="1">
  <advance width="740"/>
  <unicode hex="00D9"/>
  <outline>
    <contour>
      <point x="636" y="513" type="curve" smooth="yes"/>
      <point x="636" y="251" type="line" smooth="yes"/>
      <point x="636" y="138"/>
      <point x="622" y="92"/>
      <point x="575" y="50" type="curve" smooth="yes"/>
      <point x="531" y="11"/>
      <point x="453" y="-13"/>
      <point x="371" y="-13" type="curve" smooth="yes"/>
      <point x="284" y="-13"/>
      <point x="201" y="15"/>
      <point x="155" y="59" type="curve" smooth="yes"/>
      <point x="115" y="98"/>
      <point x="103" y="138"/>
      <point x="103" y="230" type="curve" smooth="yes"/>
      <point x="103" y="513" type="line" smooth="yes"/>
      <point x="103" y="577"/>
      <point x="91" y="591"/>
      <point x="35" y="597" type="curve" smooth="yes"/>
      <point x="15" y="599" type="line"/>
      <point x="15" y="681" type="line"/>
      <point x="366" y="681" type="line"/>
      <point x="366" y="599" type="line"/>
      <point x="346" y="597" type="line" smooth="yes"/>
      <point x="290" y="591"/>
      <point x="278" y="577"/>
      <point x="278" y="513" type="curve" smooth="yes"/>
      <point x="278" y="249" type="line" smooth="yes"/>
      <point x="278" y="188"/>
      <point x="285" y="160"/>
      <point x="308" y="132" type="curve" smooth="yes"/>
      <point x="330" y="105"/>
      <point x="362" y="92"/>
      <point x="404" y="92" type="curve" smooth="yes"/>
      <point x="441" y="92"/>
      <point x="474" y="102"/>
      <point x="497" y="120" type="curve" smooth="yes"/>
      <point x="527" y="144"/>
      <point x="538" y="178"/>
      <point x="538" y="246" type="curve" smooth="yes"/>
      <point x="538" y="513" type="line" smooth="yes"/>
      <point x="538" y="577"/>
      <point x="526" y="591"/>
      <point x="470" y="597" type="curve" smooth="yes"/>
      <point x="450" y="599" type="line"/>
      <point x="450" y="681" type="line"/>
      <point x="724" y="681" type="line"/>
      <point x="724" y="599" type="line"/>
      <point x="704" y="597" type="line" smooth="yes"/>
      <point x="648" y="591"/>
      <point x="636" y="577"/>
    </contour>
    <contour>
      <point x="452" y="726" type="line"/>
      <point x="293" y="761" type="line" smooth="yes"/>
      <point x="241" y="772"/>
      <point x="213" y="799"/>
      <point x="213" y="837" type="curve" smooth="yes"/>
      <point x="213" y="876"/>
      <point x="246" y="910"/>
      <point x="283" y="910" type="curve" smooth="yes"/>
      <point x="307" y="910"/>
      <point x="338" y="895"/>
      <point x="367" y="870" type="curve" smooth="yes"/>
      <point x="472" y="776" type="line"/>
    </contour>
  </outline>
  <lib>
    <dict>
      <key>com.fontlab.hintData</key>
      <dict>
	<key>hhints</key>
	<array>
	  <dict>
	    <key>position</key>	    <integer>-13</integer>
	    <key>width</key>	    <integer>105</integer>
	  </dict>
	  <dict>
	    <key>position</key>	    <integer>599</integer>
	    <key>width</key>	    <integer>82</integer>
	  </dict>
	</array>
	<key>vhints</key>
	<array>
	  <dict>
	    <key>position</key>
	    <integer>103</integer>
	    <key>width</key>
	    <integer>175</integer>
	  </dict>
	  <dict>
	    <key>position</key>
	    <integer>538</integer>
	    <key>width</key>
	    <integer>98</integer>
	  </dict>
	</array>
      </dict>
    </dict>
  </lib>
</glyph>
