<?xml version="1.0" encoding="UTF-8"?>
<glyph name="afii10090" format="1">
  <advance width="676"/>
  <unicode hex="0448"/>
  <outline>
    <contour>
      <point x="395" y="114" type="line"/>
      <point x="509" y="114" type="line"/>
      <point x="509" y="532" type="line"/>
      <point x="623" y="532" type="line"/>
      <point x="623" y="0" type="line"/>
      <point x="53" y="0" type="line"/>
      <point x="53" y="532" type="line"/>
      <point x="167" y="532" type="line"/>
      <point x="167" y="114" type="line"/>
      <point x="281" y="114" type="line"/>
      <point x="281" y="532" type="line"/>
      <point x="395" y="532" type="line"/>
    </contour>
  </outline>
  <lib>
    <dict>
      <key>com.fontlab.hintData</key>
      <dict>
	<key>hhints</key>
	<array>
	  <dict>
	    <key>position</key>	    <integer>0</integer>
	    <key>width</key>	    <integer>114</integer>
	  </dict>
	  <dict>
	    <key>position</key>	    <integer>512</integer>
	    <key>width</key>	    <integer>20</integer>
	  </dict>
	</array>
	<key>vhints</key>
	<array>
	  <dict>
	    <key>position</key>
	    <integer>53</integer>
	    <key>width</key>
	    <integer>114</integer>
	  </dict>
	  <dict>
	    <key>position</key>
	    <integer>281</integer>
	    <key>width</key>
	    <integer>114</integer>
	  </dict>
	  <dict>
	    <key>position</key>
	    <integer>509</integer>
	    <key>width</key>
	    <integer>114</integer>
	  </dict>
	</array>
      </dict>
    </dict>
  </lib>
</glyph>
