<?xml version="1.0" encoding="UTF-8"?>
<glyph name="afii10024" format="1">
  <advance width="878"/>
  <unicode hex="0416"/>
  <outline>
    <contour>
      <point x="378" y="718" type="line"/>
      <point x="500" y="718" type="line"/>
      <point x="500" y="460" type="line"/>
      <point x="705" y="718" type="line"/>
      <point x="864" y="718" type="line"/>
      <point x="586" y="374" type="line"/>
      <point x="878" y="0" type="line"/>
      <point x="720" y="0" type="line"/>
      <point x="500" y="284" type="line"/>
      <point x="500" y="0" type="line"/>
      <point x="378" y="0" type="line"/>
      <point x="378" y="284" type="line"/>
      <point x="158" y="0" type="line"/>
      <point x="0" y="0" type="line"/>
      <point x="292" y="374" type="line"/>
      <point x="14" y="718" type="line"/>
      <point x="173" y="718" type="line"/>
      <point x="378" y="460" type="line"/>
    </contour>
  </outline>
  <lib>
    <dict>
      <key>com.fontlab.hintData</key>
      <dict>
	<key>hhints</key>
	<array>
	  <dict>
	    <key>position</key>	    <integer>0</integer>
	    <key>width</key>	    <integer>21</integer>
	  </dict>
	  <dict>
	    <key>position</key>	    <integer>698</integer>
	    <key>width</key>	    <integer>20</integer>
	  </dict>
	</array>
	<key>vhints</key>
	<array>
	  <dict>
	    <key>position</key>
	    <integer>378</integer>
	    <key>width</key>
	    <integer>122</integer>
	  </dict>
	</array>
      </dict>
    </dict>
  </lib>
</glyph>
