<?xml version="1.0" encoding="UTF-8"?>
<glyph name="igrave" format="1">
  <advance width="228"/>
  <unicode hex="00EC"/>
  <outline>
    <contour>
      <point x="57" y="532" type="line"/>
      <point x="171" y="532" type="line"/>
      <point x="171" y="0" type="line"/>
      <point x="57" y="0" type="line"/>
    </contour>
    <contour>
      <point x="79" y="604" type="line"/>
      <point x="-41" y="750" type="line"/>
      <point x="85" y="750" type="line"/>
      <point x="162" y="604" type="line"/>
    </contour>
  </outline>
  <lib>
    <dict>
      <key>com.fontlab.hintData</key>
      <dict>
	<key>hhints</key>
	<array>
	  <dict>
	    <key>position</key>	    <integer>0</integer>
	    <key>width</key>	    <integer>20</integer>
	  </dict>
	  <dict>
	    <key>position</key>	    <integer>512</integer>
	    <key>width</key>	    <integer>20</integer>
	  </dict>
	</array>
	<key>vhints</key>
	<array>
	  <dict>
	    <key>position</key>
	    <integer>57</integer>
	    <key>width</key>
	    <integer>114</integer>
	  </dict>
	</array>
      </dict>
    </dict>
  </lib>
</glyph>
