<?xml version="1.0" encoding="UTF-8"?>
<glyph name="X" format="1">
  <advance width="547"/>
  <unicode hex="0058"/>
  <outline>
    <contour>
      <point x="343" y="373" type="line"/>
      <point x="535" y="0" type="line"/>
      <point x="385" y="0" type="line"/>
      <point x="273" y="245" type="line"/>
      <point x="155" y="0" type="line"/>
      <point x="11" y="0" type="line"/>
      <point x="201" y="367" type="line"/>
      <point x="22" y="718" type="line"/>
      <point x="168" y="718" type="line"/>
      <point x="273" y="486" type="line"/>
      <point x="381" y="718" type="line"/>
      <point x="523" y="718" type="line"/>
    </contour>
  </outline>
  <lib>
    <dict>
      <key>com.fontlab.hintData</key>
      <dict>
	<key>hhints</key>
	<array>
	  <dict>
	    <key>position</key>	    <integer>0</integer>
	    <key>width</key>	    <integer>20</integer>
	  </dict>
	  <dict>
	    <key>position</key>	    <integer>698</integer>
	    <key>width</key>	    <integer>20</integer>
	  </dict>
	</array>
      </dict>
    </dict>
  </lib>
</glyph>
