<?xml version="1.0" encoding="UTF-8"?>
<glyph name="zcaron" format="1">
  <advance width="410"/>
  <unicode hex="017E"/>
  <outline>
    <contour>
      <point x="386" y="417" type="line"/>
      <point x="165" y="115" type="line"/>
      <point x="394" y="115" type="line"/>
      <point x="394" y="0" type="line"/>
      <point x="16" y="0" type="line"/>
      <point x="16" y="109" type="line"/>
      <point x="241" y="420" type="line"/>
      <point x="32" y="420" type="line"/>
      <point x="32" y="532" type="line"/>
      <point x="386" y="532" type="line"/>
    </contour>
    <contour>
      <point x="349" y="750" type="line"/>
      <point x="256" y="604" type="line"/>
      <point x="153" y="604" type="line"/>
      <point x="60" y="750" type="line"/>
      <point x="153" y="750" type="line"/>
      <point x="204" y="668" type="line"/>
      <point x="256" y="750" type="line"/>
    </contour>
  </outline>
  <lib>
    <dict>
      <key>com.fontlab.hintData</key>
      <dict>
	<key>hhints</key>
	<array>
	  <dict>
	    <key>position</key>	    <integer>0</integer>
	    <key>width</key>	    <integer>115</integer>
	  </dict>
	  <dict>
	    <key>position</key>	    <integer>420</integer>
	    <key>width</key>	    <integer>112</integer>
	  </dict>
	</array>
      </dict>
    </dict>
  </lib>
</glyph>
