<?xml version="1.0" encoding="UTF-8"?>
<glyph name="afii10027" format="1">
  <advance width="833"/>
  <unicode hex="0419"/>
  <outline>
    <contour>
      <point x="522" y="914" type="curve"/>
      <point x="558" y="914" type="line"/>
      <point x="558" y="900" type="line" smooth="yes"/>
      <point x="558" y="819"/>
      <point x="497" y="757"/>
      <point x="416" y="757" type="curve" smooth="yes"/>
      <point x="335" y="757"/>
      <point x="275" y="819"/>
      <point x="275" y="901" type="curve" smooth="yes"/>
      <point x="275" y="914" type="line"/>
      <point x="311" y="914" type="line"/>
      <point x="316" y="854"/>
      <point x="354" y="819"/>
      <point x="417" y="819" type="curve" smooth="yes"/>
      <point x="479" y="819"/>
      <point x="517" y="854"/>
    </contour>
    <contour>
      <point x="584" y="477" type="line"/>
      <point x="248" y="140" type="line"/>
      <point x="248" y="94" type="line" smooth="yes"/>
      <point x="248" y="52"/>
      <point x="258" y="47"/>
      <point x="339" y="47" type="curve" smooth="yes"/>
      <point x="358" y="47" type="line"/>
      <point x="358" y="0" type="line"/>
      <point x="29" y="0" type="line"/>
      <point x="29" y="47" type="line"/>
      <point x="47" y="47" type="line" smooth="yes"/>
      <point x="128" y="47"/>
      <point x="137" y="52"/>
      <point x="137" y="94" type="curve" smooth="yes"/>
      <point x="137" y="628" type="line" smooth="yes"/>
      <point x="137" y="670"/>
      <point x="128" y="675"/>
      <point x="47" y="675" type="curve" smooth="yes"/>
      <point x="29" y="675" type="line"/>
      <point x="29" y="722" type="line"/>
      <point x="358" y="722" type="line"/>
      <point x="358" y="675" type="line"/>
      <point x="339" y="675" type="line" smooth="yes"/>
      <point x="258" y="675"/>
      <point x="248" y="672"/>
      <point x="248" y="628" type="curve" smooth="yes"/>
      <point x="248" y="214" type="line"/>
      <point x="584" y="550" type="line"/>
      <point x="584" y="628" type="line" smooth="yes"/>
      <point x="584" y="670"/>
      <point x="575" y="675"/>
      <point x="494" y="675" type="curve" smooth="yes"/>
      <point x="480" y="675" type="line"/>
      <point x="480" y="722" type="line"/>
      <point x="804" y="722" type="line"/>
      <point x="804" y="675" type="line"/>
      <point x="786" y="675" type="line" smooth="yes"/>
      <point x="705" y="675"/>
      <point x="696" y="670"/>
      <point x="696" y="628" type="curve" smooth="yes"/>
      <point x="696" y="94" type="line" smooth="yes"/>
      <point x="696" y="52"/>
      <point x="705" y="47"/>
      <point x="786" y="47" type="curve" smooth="yes"/>
      <point x="804" y="47" type="line"/>
      <point x="804" y="0" type="line"/>
      <point x="476" y="0" type="line"/>
      <point x="476" y="47" type="line"/>
      <point x="494" y="47" type="line" smooth="yes"/>
      <point x="575" y="47"/>
      <point x="584" y="52"/>
      <point x="584" y="94" type="curve" smooth="yes"/>
    </contour>
  </outline>
  <lib>
    <dict>
      <key>com.fontlab.hintData</key>
      <dict>
	<key>hhints</key>
	<array>
	  <dict>
	    <key>position</key>	    <integer>0</integer>
	    <key>width</key>	    <integer>47</integer>
	  </dict>
	  <dict>
	    <key>position</key>	    <integer>675</integer>
	    <key>width</key>	    <integer>47</integer>
	  </dict>
	  <dict>
	    <key>position</key>	    <integer>757</integer>
	    <key>width</key>	    <integer>62</integer>
	  </dict>
	</array>
	<key>vhints</key>
	<array>
	  <dict>
	    <key>position</key>
	    <integer>137</integer>
	    <key>width</key>
	    <integer>111</integer>
	  </dict>
	  <dict>
	    <key>position</key>
	    <integer>275</integer>
	    <key>width</key>
	    <integer>36</integer>
	  </dict>
	  <dict>
	    <key>position</key>
	    <integer>522</integer>
	    <key>width</key>
	    <integer>36</integer>
	  </dict>
	  <dict>
	    <key>position</key>
	    <integer>584</integer>
	    <key>width</key>
	    <integer>112</integer>
	  </dict>
	</array>
      </dict>
    </dict>
  </lib>
</glyph>
