<?xml version="1.0" encoding="UTF-8"?>
<glyph name="ebreve" format="1">
  <advance width="500"/>
  <unicode hex="0115"/>
  <outline>
    <component base="breve" xOffset="92" yOffset="6"/>
    <component base="e"/>
  </outline>
</glyph>
