<?xml version="1.0" encoding="UTF-8"?>
<glyph name="period" format="1">
  <advance width="278"/>
  <unicode hex="002E"/>
  <outline>
    <contour>
      <point x="137" y="111" type="curve" smooth="yes"/>
      <point x="171" y="111"/>
      <point x="199" y="83"/>
      <point x="199" y="49" type="curve" smooth="yes"/>
      <point x="199" y="14"/>
      <point x="171" y="-14"/>
      <point x="136" y="-14" type="curve" smooth="yes"/>
      <point x="102" y="-14"/>
      <point x="74" y="14"/>
      <point x="74" y="49" type="curve" smooth="yes"/>
      <point x="74" y="83"/>
      <point x="102" y="111"/>
    </contour>
  </outline>
  <lib>
    <dict>
      <key>com.fontlab.hintData</key>
      <dict>
	<key>hhints</key>
	<array>
	  <dict>
	    <key>position</key>	    <integer>-14</integer>
	    <key>width</key>	    <integer>20</integer>
	  </dict>
	</array>
      </dict>
    </dict>
  </lib>
</glyph>
