<?xml version="1.0" encoding="UTF-8"?>
<glyph name="afii10051" format="1">
  <advance width="600"/>
  <unicode hex="0402"/>
  <outline>
    <contour>
      <point x="400" y="-145" type="curve"/>
      <point x="400" y="-49" type="line"/>
      <point x="456" y="-49"/>
      <point x="492" y="-26"/>
      <point x="492" y="13" type="curve" smooth="yes"/>
      <point x="492" y="172" type="line" smooth="yes"/>
      <point x="492" y="218"/>
      <point x="420" y="233"/>
      <point x="380" y="233" type="curve" smooth="yes"/>
      <point x="338" y="233"/>
      <point x="270" y="218"/>
      <point x="270" y="172" type="curve" smooth="yes"/>
      <point x="270" y="97" type="line"/>
      <point x="292" y="97" type="line" smooth="yes"/>
      <point x="338" y="97"/>
      <point x="356" y="77"/>
      <point x="356" y="48" type="curve" smooth="yes"/>
      <point x="356" y="18"/>
      <point x="336" y="0"/>
      <point x="292" y="0" type="curve" smooth="yes"/>
      <point x="148" y="0" type="line" smooth="yes"/>
      <point x="102" y="0"/>
      <point x="86" y="21"/>
      <point x="86" y="48" type="curve" smooth="yes"/>
      <point x="86" y="76"/>
      <point x="98" y="97"/>
      <point x="148" y="97" type="curve" smooth="yes"/>
      <point x="172" y="97" type="line"/>
      <point x="172" y="468" type="line"/>
      <point x="108" y="468" type="line"/>
      <point x="108" y="418" type="line" smooth="yes"/>
      <point x="108" y="368"/>
      <point x="88" y="354"/>
      <point x="60" y="354" type="curve" smooth="yes"/>
      <point x="30" y="354"/>
      <point x="10" y="372"/>
      <point x="10" y="418" type="curve" smooth="yes"/>
      <point x="10" y="565" type="line"/>
      <point x="432" y="565" type="line"/>
      <point x="432" y="418" type="line" smooth="yes"/>
      <point x="432" y="366"/>
      <point x="410" y="354"/>
      <point x="382" y="354" type="curve" smooth="yes"/>
      <point x="356" y="354"/>
      <point x="334" y="371"/>
      <point x="334" y="418" type="curve" smooth="yes"/>
      <point x="334" y="468" type="line"/>
      <point x="270" y="468" type="line"/>
      <point x="270" y="291" type="line"/>
      <point x="296" y="313"/>
      <point x="342" y="329"/>
      <point x="386" y="329" type="curve" smooth="yes"/>
      <point x="476" y="329"/>
      <point x="590" y="314"/>
      <point x="590" y="198" type="curve" smooth="yes"/>
      <point x="590" y="-4" type="line" smooth="yes"/>
      <point x="590" y="-68"/>
      <point x="584" y="-145"/>
    </contour>
  </outline>
  <lib>
    <dict>
      <key>com.fontlab.hintData</key>
      <dict>
	<key>hhints</key>
	<array>
	  <dict>
	    <key>position</key>	    <integer>-145</integer>
	    <key>width</key>	    <integer>96</integer>
	  </dict>
	  <dict>
	    <key>position</key>	    <integer>0</integer>
	    <key>width</key>	    <integer>97</integer>
	  </dict>
	  <dict>
	    <key>position</key>	    <integer>233</integer>
	    <key>width</key>	    <integer>96</integer>
	  </dict>
	  <dict>
	    <key>position</key>	    <integer>354</integer>
	    <key>width</key>	    <integer>211</integer>
	  </dict>
	  <dict>
	    <key>position</key>	    <integer>468</integer>
	    <key>width</key>	    <integer>97</integer>
	  </dict>
	</array>
	<key>vhints</key>
	<array>
	  <dict>
	    <key>position</key>
	    <integer>10</integer>
	    <key>width</key>
	    <integer>98</integer>
	  </dict>
	  <dict>
	    <key>position</key>
	    <integer>172</integer>
	    <key>width</key>
	    <integer>98</integer>
	  </dict>
	  <dict>
	    <key>position</key>
	    <integer>334</integer>
	    <key>width</key>
	    <integer>98</integer>
	  </dict>
	  <dict>
	    <key>position</key>
	    <integer>492</integer>
	    <key>width</key>
	    <integer>98</integer>
	  </dict>
	</array>
      </dict>
    </dict>
  </lib>
</glyph>
