<?xml version="1.0" encoding="UTF-8"?>
<glyph name="comma" format="1">
  <advance width="600"/>
  <unicode hex="002C"/>
  <outline>
    <contour>
      <point x="219" y="134" type="line"/>
      <point x="351" y="134" type="line"/>
      <point x="210" y="-134" type="line" smooth="yes"/>
      <point x="202" y="-150"/>
      <point x="190" y="-158"/>
      <point x="178" y="-158" type="curve" smooth="yes"/>
      <point x="161" y="-158"/>
      <point x="147" y="-145"/>
      <point x="147" y="-130" type="curve" smooth="yes"/>
      <point x="147" y="-124"/>
      <point x="147" y="-122"/>
      <point x="150" y="-111" type="curve" smooth="yes"/>
    </contour>
  </outline>
</glyph>
