<?xml version="1.0" encoding="UTF-8"?>
<glyph name="iacute" format="1">
  <advance width="600"/>
  <unicode hex="00ED"/>
  <outline>
    <contour>
      <point x="350" y="437" type="line"/>
      <point x="350" y="100" type="line"/>
      <point x="472" y="100" type="line" smooth="yes"/>
      <point x="499" y="100"/>
      <point x="507" y="98"/>
      <point x="517" y="91" type="curve" smooth="yes"/>
      <point x="530" y="81"/>
      <point x="538" y="66"/>
      <point x="538" y="50" type="curve" smooth="yes"/>
      <point x="538" y="33"/>
      <point x="529" y="17"/>
      <point x="514" y="7" type="curve" smooth="yes"/>
      <point x="507" y="3"/>
      <point x="492" y="0"/>
      <point x="472" y="0" type="curve" smooth="yes"/>
      <point x="128" y="0" type="line" smooth="yes"/>
      <point x="105" y="0"/>
      <point x="91" y="3"/>
      <point x="83" y="10" type="curve"/>
      <point x="70" y="19"/>
      <point x="62" y="34"/>
      <point x="62" y="50" type="curve" smooth="yes"/>
      <point x="62" y="67"/>
      <point x="71" y="84"/>
      <point x="86" y="93" type="curve" smooth="yes"/>
      <point x="95" y="99"/>
      <point x="102" y="100"/>
      <point x="128" y="100" type="curve" smooth="yes"/>
      <point x="250" y="100" type="line"/>
      <point x="250" y="337" type="line"/>
      <point x="172" y="337" type="line" smooth="yes"/>
      <point x="147" y="337"/>
      <point x="135" y="339"/>
      <point x="126" y="347" type="curve"/>
      <point x="113" y="356"/>
      <point x="105" y="371"/>
      <point x="105" y="387" type="curve" smooth="yes"/>
      <point x="105" y="404"/>
      <point x="114" y="421"/>
      <point x="129" y="430" type="curve" smooth="yes"/>
      <point x="138" y="436"/>
      <point x="146" y="437"/>
      <point x="172" y="437" type="curve" smooth="yes"/>
    </contour>
    <contour>
      <point x="410" y="624" type="curve"/>
      <point x="277" y="512" type="line" smooth="yes"/>
      <point x="262" y="500"/>
      <point x="255" y="496"/>
      <point x="245" y="496" type="curve" smooth="yes"/>
      <point x="225" y="496"/>
      <point x="208" y="513"/>
      <point x="208" y="532" type="curve" smooth="yes"/>
      <point x="208" y="545"/>
      <point x="215" y="556"/>
      <point x="231" y="569" type="curve" smooth="yes"/>
      <point x="364" y="680" type="line" smooth="yes"/>
      <point x="380" y="693"/>
      <point x="385" y="696"/>
      <point x="396" y="696" type="curve" smooth="yes"/>
      <point x="417" y="696"/>
      <point x="433" y="680"/>
      <point x="433" y="659" type="curve" smooth="yes"/>
      <point x="433" y="647"/>
      <point x="427" y="637"/>
    </contour>
  </outline>
  <lib>
    <dict>
      <key>com.fontlab.hintData</key>
      <dict>
	<key>hhints</key>
	<array>
	  <dict>
	    <key>position</key>	    <integer>0</integer>
	    <key>width</key>	    <integer>100</integer>
	  </dict>
	  <dict>
	    <key>position</key>	    <integer>337</integer>
	    <key>width</key>	    <integer>100</integer>
	  </dict>
	</array>
	<key>vhints</key>
	<array>
	  <dict>
	    <key>position</key>
	    <integer>250</integer>
	    <key>width</key>
	    <integer>100</integer>
	  </dict>
	</array>
      </dict>
    </dict>
  </lib>
</glyph>
