<?xml version="1.0" encoding="UTF-8"?>
<glyph name="afii10028" format="1">
  <advance width="764"/>
  <unicode hex="041A"/>
  <outline>
    <contour>
      <point x="718" y="25" type="curve"/>
      <point x="718" y="0" type="line"/>
      <point x="520" y="0" type="line"/>
      <point x="360" y="254" type="line"/>
      <point x="332" y="292"/>
      <point x="320" y="318"/>
      <point x="292" y="318" type="curve" smooth="yes"/>
      <point x="265" y="318" type="line"/>
      <point x="265" y="96" type="line" smooth="yes"/>
      <point x="265" y="47"/>
      <point x="281" y="34"/>
      <point x="353" y="25" type="curve"/>
      <point x="353" y="0" type="line"/>
      <point x="16" y="0" type="line"/>
      <point x="16" y="25" type="line"/>
      <point x="88" y="33"/>
      <point x="103" y="45"/>
      <point x="103" y="96" type="curve" smooth="yes"/>
      <point x="103" y="580" type="line" smooth="yes"/>
      <point x="103" y="632"/>
      <point x="85" y="647"/>
      <point x="16" y="651" type="curve"/>
      <point x="16" y="676" type="line"/>
      <point x="354" y="676" type="line"/>
      <point x="354" y="651" type="line"/>
      <point x="280" y="646"/>
      <point x="265" y="630"/>
      <point x="265" y="559" type="curve" smooth="yes"/>
      <point x="265" y="371" type="line"/>
      <point x="302" y="372" type="line" smooth="yes"/>
      <point x="346" y="373"/>
      <point x="427" y="460"/>
      <point x="442" y="578" type="curve" smooth="yes"/>
      <point x="448" y="626"/>
      <point x="500" y="686"/>
      <point x="570" y="685" type="curve" smooth="yes"/>
      <point x="622" y="684"/>
      <point x="664" y="664"/>
      <point x="664" y="616" type="curve" smooth="yes"/>
      <point x="664" y="583"/>
      <point x="656" y="557"/>
      <point x="608" y="556" type="curve" smooth="yes"/>
      <point x="532" y="554"/>
      <point x="554" y="583"/>
      <point x="510" y="583" type="curve" smooth="yes"/>
      <point x="478" y="583"/>
      <point x="486" y="418"/>
      <point x="394" y="352" type="curve"/>
      <point x="426" y="349"/>
      <point x="482" y="328"/>
      <point x="511" y="286" type="curve"/>
      <point x="669" y="46" type="line"/>
      <point x="682" y="31"/>
      <point x="693" y="26"/>
    </contour>
  </outline>
  <lib>
    <dict>
      <key>com.fontlab.hintData</key>
      <dict>
	<key>hhints</key>
	<array>
	  <dict>
	    <key>position</key>	    <integer>0</integer>
	    <key>width</key>	    <integer>25</integer>
	  </dict>
	  <dict>
	    <key>position</key>	    <integer>318</integer>
	    <key>width</key>	    <integer>54</integer>
	  </dict>
	  <dict>
	    <key>position</key>	    <integer>583</integer>
	    <key>width</key>	    <integer>102</integer>
	  </dict>
	  <dict>
	    <key>position</key>	    <integer>651</integer>
	    <key>width</key>	    <integer>25</integer>
	  </dict>
	</array>
	<key>vhints</key>
	<array>
	  <dict>
	    <key>position</key>
	    <integer>103</integer>
	    <key>width</key>
	    <integer>162</integer>
	  </dict>
	</array>
      </dict>
    </dict>
  </lib>
</glyph>
