<?xml version="1.0" encoding="UTF-8"?>
<glyph name="Kcommaaccent" format="1">
  <advance width="778"/>
  <unicode hex="0136"/>
  <outline>
    <contour>
      <point x="769" y="25" type="curve"/>
      <point x="769" y="0" type="line"/>
      <point x="433" y="0" type="line"/>
      <point x="433" y="25" type="line"/>
      <point x="447" y="26"/>
      <point x="460" y="26"/>
      <point x="465" y="26" type="curve" smooth="yes"/>
      <point x="498" y="28"/>
      <point x="512" y="33"/>
      <point x="512" y="46" type="curve" smooth="yes"/>
      <point x="512" y="57"/>
      <point x="507" y="66"/>
      <point x="488" y="90" type="curve" smooth="yes"/>
      <point x="306" y="317" type="line"/>
      <point x="279" y="292" type="line"/>
      <point x="279" y="96" type="line" smooth="yes"/>
      <point x="279" y="47"/>
      <point x="295" y="34"/>
      <point x="367" y="25" type="curve"/>
      <point x="367" y="0" type="line"/>
      <point x="30" y="0" type="line"/>
      <point x="30" y="25" type="line"/>
      <point x="102" y="33"/>
      <point x="117" y="45"/>
      <point x="117" y="96" type="curve" smooth="yes"/>
      <point x="117" y="580" type="line" smooth="yes"/>
      <point x="117" y="632"/>
      <point x="99" y="647"/>
      <point x="30" y="651" type="curve"/>
      <point x="30" y="676" type="line"/>
      <point x="368" y="676" type="line"/>
      <point x="368" y="651" type="line"/>
      <point x="294" y="646"/>
      <point x="279" y="630"/>
      <point x="279" y="559" type="curve" smooth="yes"/>
      <point x="279" y="345" type="line"/>
      <point x="496" y="563" type="line" smooth="yes"/>
      <point x="527" y="594"/>
      <point x="532" y="602"/>
      <point x="532" y="618" type="curve" smooth="yes"/>
      <point x="532" y="638"/>
      <point x="519" y="646"/>
      <point x="483" y="648" type="curve" smooth="yes"/>
      <point x="478" y="649"/>
      <point x="464" y="650"/>
      <point x="447" y="651" type="curve"/>
      <point x="447" y="676" type="line"/>
      <point x="736" y="676" type="line"/>
      <point x="736" y="651" type="line"/>
      <point x="639" y="643"/>
      <point x="603" y="618"/>
      <point x="415" y="424" type="curve"/>
      <point x="720" y="46" type="line" smooth="yes"/>
      <point x="733" y="31"/>
      <point x="744" y="26"/>
    </contour>
    <contour>
      <point x="322" y="-341" type="curve"/>
      <point x="312" y="-322" type="line"/>
      <point x="380" y="-274"/>
      <point x="410" y="-237"/>
      <point x="410" y="-202" type="curve" smooth="yes"/>
      <point x="410" y="-192"/>
      <point x="402" y="-183"/>
      <point x="393" y="-183" type="curve" smooth="yes"/>
      <point x="392" y="-183"/>
      <point x="389" y="-183"/>
      <point x="386" y="-184" type="curve" smooth="yes"/>
      <point x="382" y="-185"/>
      <point x="377" y="-185"/>
      <point x="373" y="-185" type="curve" smooth="yes"/>
      <point x="332" y="-185"/>
      <point x="306" y="-157"/>
      <point x="306" y="-114" type="curve" smooth="yes"/>
      <point x="306" y="-69"/>
      <point x="336" y="-40"/>
      <point x="381" y="-40" type="curve" smooth="yes"/>
      <point x="435" y="-40"/>
      <point x="471" y="-82"/>
      <point x="471" y="-145" type="curve" smooth="yes"/>
      <point x="471" y="-223"/>
      <point x="426" y="-282"/>
    </contour>
  </outline>
  <lib>
    <dict>
      <key>com.fontlab.hintData</key>
      <dict>
	<key>hhints</key>
	<array>
	  <dict>
	    <key>position</key>	    <integer>-205</integer>
	    <key>width</key>	    <integer>20</integer>
	  </dict>
	  <dict>
	    <key>position</key>	    <integer>-183</integer>
	    <key>width</key>	    <integer>143</integer>
	  </dict>
	  <dict>
	    <key>position</key>	    <integer>0</integer>
	    <key>width</key>	    <integer>25</integer>
	  </dict>
	  <dict>
	    <key>position</key>	    <integer>651</integer>
	    <key>width</key>	    <integer>25</integer>
	  </dict>
	</array>
	<key>vhints</key>
	<array>
	  <dict>
	    <key>position</key>
	    <integer>117</integer>
	    <key>width</key>
	    <integer>162</integer>
	  </dict>
	  <dict>
	    <key>position</key>
	    <integer>134</integer>
	    <key>width</key>
	    <integer>61</integer>
	  </dict>
	</array>
      </dict>
    </dict>
  </lib>
</glyph>
