<?xml version="1.0" encoding="UTF-8"?>
<glyph name="question" format="1">
  <advance width="500"/>
  <unicode hex="003F"/>
  <outline>
    <contour>
      <point x="253" y="231" type="curve"/>
      <point x="223" y="231" type="line"/>
      <point x="221" y="261"/>
      <point x="221" y="266"/>
      <point x="221" y="277" type="curve" smooth="yes"/>
      <point x="221" y="305"/>
      <point x="229" y="328"/>
      <point x="253" y="374" type="curve" smooth="yes"/>
      <point x="286" y="436"/>
      <point x="296" y="471"/>
      <point x="296" y="523" type="curve" smooth="yes"/>
      <point x="296" y="605"/>
      <point x="265" y="653"/>
      <point x="212" y="653" type="curve" smooth="yes"/>
      <point x="176" y="653"/>
      <point x="151" y="637"/>
      <point x="151" y="613" type="curve" smooth="yes"/>
      <point x="151" y="603"/>
      <point x="154" y="597"/>
      <point x="166" y="584" type="curve" smooth="yes"/>
      <point x="183" y="565"/>
      <point x="188" y="553"/>
      <point x="188" y="533" type="curve" smooth="yes"/>
      <point x="188" y="495"/>
      <point x="163" y="469"/>
      <point x="125" y="469" type="curve" smooth="yes"/>
      <point x="86" y="469"/>
      <point x="57" y="501"/>
      <point x="57" y="545" type="curve" smooth="yes"/>
      <point x="57" y="629"/>
      <point x="135" y="689"/>
      <point x="245" y="689" type="curve" smooth="yes"/>
      <point x="365" y="689"/>
      <point x="445" y="623"/>
      <point x="445" y="523" type="curve" smooth="yes"/>
      <point x="445" y="454"/>
      <point x="415" y="413"/>
      <point x="324" y="357" type="curve" smooth="yes"/>
      <point x="261" y="318"/>
      <point x="253" y="304"/>
    </contour>
    <contour>
      <point x="239" y="156" type="curve" smooth="yes"/>
      <point x="285" y="156"/>
      <point x="323" y="117"/>
      <point x="323" y="71" type="curve" smooth="yes"/>
      <point x="323" y="24"/>
      <point x="286" y="-13"/>
      <point x="239" y="-13" type="curve" smooth="yes"/>
      <point x="191" y="-13"/>
      <point x="154" y="24"/>
      <point x="154" y="72" type="curve" smooth="yes"/>
      <point x="154" y="117"/>
      <point x="193" y="156"/>
    </contour>
  </outline>
  <lib>
    <dict>
      <key>com.fontlab.hintData</key>
      <dict>
	<key>hhints</key>
	<array>
	  <dict>
	    <key>position</key>	    <integer>-13</integer>
	    <key>width</key>	    <integer>169</integer>
	  </dict>
	  <dict>
	    <key>position</key>	    <integer>449</integer>
	    <key>width</key>	    <integer>20</integer>
	  </dict>
	  <dict>
	    <key>position</key>	    <integer>653</integer>
	    <key>width</key>	    <integer>36</integer>
	  </dict>
	</array>
	<key>vhints</key>
	<array>
	  <dict>
	    <key>position</key>
	    <integer>57</integer>
	    <key>width</key>
	    <integer>94</integer>
	  </dict>
	  <dict>
	    <key>position</key>
	    <integer>154</integer>
	    <key>width</key>
	    <integer>169</integer>
	  </dict>
	  <dict>
	    <key>position</key>
	    <integer>296</integer>
	    <key>width</key>
	    <integer>149</integer>
	  </dict>
	</array>
      </dict>
    </dict>
  </lib>
</glyph>
