<?xml version="1.0" encoding="UTF-8"?>
<glyph name="bar" format="1">
  <advance width="600"/>
  <unicode hex="007C"/>
  <outline>
    <contour>
      <point x="342" y="722" type="line"/>
      <point x="342" y="0" type="line"/>
      <point x="264" y="0" type="line"/>
      <point x="264" y="722" type="line"/>
    </contour>
  </outline>
  <lib>
    <dict>
      <key>com.fontlab.hintData</key>
      <dict>
	<key>hhints</key>
	<array>
	  <dict>
	    <key>position</key>	    <integer>0</integer>
	    <key>width</key>	    <integer>20</integer>
	  </dict>
	</array>
	<key>vhints</key>
	<array>
	  <dict>
	    <key>position</key>
	    <integer>264</integer>
	    <key>width</key>
	    <integer>78</integer>
	  </dict>
	</array>
      </dict>
    </dict>
  </lib>
</glyph>
