<?xml version="1.0" encoding="UTF-8"?>
<glyph name="cedilla" format="1">
  <advance width="320"/>
  <unicode hex="00B8"/>
  <outline>
    <contour>
      <point x="158" y="0" type="line"/>
      <point x="145" y="-43" type="line"/>
      <point x="150" y="-42"/>
      <point x="155" y="-42"/>
      <point x="157" y="-42" type="curve" smooth="yes"/>
      <point x="163" y="-41"/>
      <point x="167" y="-41"/>
      <point x="169" y="-41" type="curve" smooth="yes"/>
      <point x="223" y="-41"/>
      <point x="257" y="-69"/>
      <point x="257" y="-115" type="curve" smooth="yes"/>
      <point x="257" y="-166"/>
      <point x="220" y="-200"/>
      <point x="165" y="-200" type="curve" smooth="yes"/>
      <point x="113" y="-200"/>
      <point x="68" y="-174"/>
      <point x="68" y="-144" type="curve" smooth="yes"/>
      <point x="68" y="-130"/>
      <point x="79" y="-119"/>
      <point x="93" y="-119" type="curve" smooth="yes"/>
      <point x="109" y="-119"/>
      <point x="117" y="-125"/>
      <point x="124" y="-143" type="curve" smooth="yes"/>
      <point x="134" y="-166"/>
      <point x="143" y="-173"/>
      <point x="163" y="-173" type="curve" smooth="yes"/>
      <point x="189" y="-173"/>
      <point x="209" y="-150"/>
      <point x="209" y="-119" type="curve" smooth="yes"/>
      <point x="209" y="-86"/>
      <point x="188" y="-68"/>
      <point x="149" y="-68" type="curve" smooth="yes"/>
      <point x="136" y="-68"/>
      <point x="123" y="-71"/>
      <point x="102" y="-78" type="curve"/>
      <point x="127" y="0" type="line"/>
    </contour>
  </outline>
  <lib>
    <dict>
      <key>com.fontlab.hintData</key>
      <dict>
	<key>hhints</key>
	<array>
	  <dict>
	    <key>position</key>	    <integer>-200</integer>
	    <key>width</key>	    <integer>27</integer>
	  </dict>
	  <dict>
	    <key>position</key>	    <integer>-68</integer>
	    <key>width</key>	    <integer>27</integer>
	  </dict>
	</array>
	<key>vhints</key>
	<array>
	  <dict>
	    <key>position</key>
	    <integer>209</integer>
	    <key>width</key>
	    <integer>48</integer>
	  </dict>
	</array>
      </dict>
    </dict>
  </lib>
</glyph>
