<?xml version="1.0" encoding="UTF-8"?>
<glyph name="Thorn" format="1">
  <advance width="620"/>
  <unicode hex="00DE"/>
  <outline>
    <contour>
      <point x="222" y="552" type="line"/>
      <point x="363" y="552" type="line" smooth="yes"/>
      <point x="516" y="552"/>
      <point x="613" y="477"/>
      <point x="613" y="360" type="curve" smooth="yes"/>
      <point x="613" y="295"/>
      <point x="579" y="232"/>
      <point x="527" y="199" type="curve" smooth="yes"/>
      <point x="489" y="175"/>
      <point x="428" y="161"/>
      <point x="362" y="161" type="curve" smooth="yes"/>
      <point x="221" y="161" type="line"/>
      <point x="221" y="144" type="line" smooth="yes"/>
      <point x="221" y="119"/>
      <point x="223" y="94"/>
      <point x="227" y="77" type="curve" smooth="yes"/>
      <point x="233" y="53"/>
      <point x="256" y="39"/>
      <point x="298" y="34" type="curve" smooth="yes"/>
      <point x="324" y="31" type="line"/>
      <point x="324" y="0" type="line"/>
      <point x="31" y="0" type="line"/>
      <point x="31" y="31" type="line"/>
      <point x="56" y="34" type="line" smooth="yes"/>
      <point x="108" y="41"/>
      <point x="121" y="62"/>
      <point x="121" y="144" type="curve" smooth="yes"/>
      <point x="121" y="537" type="line" smooth="yes"/>
      <point x="121" y="620"/>
      <point x="109" y="640"/>
      <point x="56" y="647" type="curve" smooth="yes"/>
      <point x="31" y="650" type="line"/>
      <point x="31" y="681" type="line"/>
      <point x="311" y="681" type="line"/>
      <point x="311" y="650" type="line"/>
      <point x="286" y="647" type="line" smooth="yes"/>
      <point x="259" y="644"/>
      <point x="245" y="637"/>
      <point x="236" y="624" type="curve" smooth="yes"/>
      <point x="229" y="614"/>
      <point x="222" y="584"/>
      <point x="222" y="566" type="curve" smooth="yes"/>
    </contour>
    <contour>
      <point x="221" y="204" type="line"/>
      <point x="346" y="204" type="line" smooth="yes"/>
      <point x="406" y="204"/>
      <point x="443" y="217"/>
      <point x="473" y="251" type="curve" smooth="yes"/>
      <point x="498" y="279"/>
      <point x="511" y="315"/>
      <point x="511" y="357" type="curve" smooth="yes"/>
      <point x="511" y="453"/>
      <point x="451" y="509"/>
      <point x="347" y="509" type="curve" smooth="yes"/>
      <point x="221" y="509" type="line"/>
    </contour>
  </outline>
  <lib>
    <dict>
      <key>com.fontlab.hintData</key>
      <dict>
	<key>hhints</key>
	<array>
	  <dict>
	    <key>position</key>	    <integer>0</integer>
	    <key>width</key>	    <integer>31</integer>
	  </dict>
	  <dict>
	    <key>position</key>	    <integer>161</integer>
	    <key>width</key>	    <integer>43</integer>
	  </dict>
	  <dict>
	    <key>position</key>	    <integer>509</integer>
	    <key>width</key>	    <integer>43</integer>
	  </dict>
	  <dict>
	    <key>position</key>	    <integer>650</integer>
	    <key>width</key>	    <integer>31</integer>
	  </dict>
	</array>
	<key>vhints</key>
	<array>
	  <dict>
	    <key>position</key>
	    <integer>121</integer>
	    <key>width</key>
	    <integer>100</integer>
	  </dict>
	  <dict>
	    <key>position</key>
	    <integer>511</integer>
	    <key>width</key>
	    <integer>102</integer>
	  </dict>
	</array>
      </dict>
    </dict>
  </lib>
</glyph>
