<?xml version="1.0" encoding="UTF-8"?>
<glyph name="afii10038" format="1">
  <advance width="825"/>
  <unicode hex="0424"/>
  <outline>
    <contour>
      <point x="452" y="67" type="curve"/>
      <point x="452" y="-42" type="line"/>
      <point x="378" y="-42" type="line"/>
      <point x="378" y="67" type="line"/>
      <point x="161" y="67"/>
      <point x="48" y="198"/>
      <point x="48" y="394" type="curve" smooth="yes"/>
      <point x="48" y="590"/>
      <point x="166" y="712"/>
      <point x="378" y="712" type="curve"/>
      <point x="378" y="794" type="line"/>
      <point x="452" y="794" type="line"/>
      <point x="452" y="712" type="line"/>
      <point x="654" y="712"/>
      <point x="785" y="594"/>
      <point x="785" y="389" type="curve" smooth="yes"/>
      <point x="785" y="186"/>
      <point x="655" y="67"/>
    </contour>
    <contour>
      <point x="452" y="644" type="curve"/>
      <point x="452" y="135" type="line"/>
      <point x="617" y="135"/>
      <point x="710" y="223"/>
      <point x="710" y="388" type="curve" smooth="yes"/>
      <point x="710" y="555"/>
      <point x="609" y="644"/>
    </contour>
    <contour>
      <point x="378" y="644" type="line"/>
      <point x="219" y="644"/>
      <point x="123" y="548"/>
      <point x="123" y="392" type="curve" smooth="yes"/>
      <point x="123" y="236"/>
      <point x="217" y="135"/>
      <point x="378" y="135" type="curve"/>
    </contour>
  </outline>
  <lib>
    <dict>
      <key>com.fontlab.hintData</key>
      <dict>
        <key>hhints</key>
        <array>
          <dict>
            <key>position</key>
            <integer>67</integer>
            <key>width</key>
            <integer>68</integer>
          </dict>
          <dict>
            <key>position</key>
            <integer>644</integer>
            <key>width</key>
            <integer>68</integer>
          </dict>
        </array>
        <key>vhints</key>
        <array>
          <dict>
            <key>position</key>
            <integer>48</integer>
            <key>width</key>
            <integer>75</integer>
          </dict>
          <dict>
            <key>position</key>
            <integer>378</integer>
            <key>width</key>
            <integer>74</integer>
          </dict>
          <dict>
            <key>position</key>
            <integer>710</integer>
            <key>width</key>
            <integer>75</integer>
          </dict>
        </array>
      </dict>
      <key>com.typemytype.robofont.layerData</key>
      <dict>
      </dict>
    </dict>
  </lib>
</glyph>
