<?xml version="1.0" encoding="UTF-8"?>
<glyph name="afii10033" format="1">
  <advance width="683"/>
  <unicode hex="041F"/>
  <outline>
    <contour>
      <point x="76" y="0" type="line"/>
      <point x="76" y="739" type="line"/>
      <point x="607" y="739" type="line"/>
      <point x="607" y="0" type="line"/>
      <point x="533" y="0" type="line"/>
      <point x="533" y="672" type="line"/>
      <point x="150" y="672" type="line"/>
      <point x="150" y="0" type="line"/>
    </contour>
  </outline>
  <lib>
    <dict>
      <key>com.fontlab.hintData</key>
      <dict>
        <key>hhints</key>
        <array>
          <dict>
            <key>position</key>
            <integer>0</integer>
            <key>width</key>
            <integer>21</integer>
          </dict>
          <dict>
            <key>position</key>
            <integer>672</integer>
            <key>width</key>
            <integer>67</integer>
          </dict>
        </array>
        <key>vhints</key>
        <array>
          <dict>
            <key>position</key>
            <integer>76</integer>
            <key>width</key>
            <integer>74</integer>
          </dict>
          <dict>
            <key>position</key>
            <integer>533</integer>
            <key>width</key>
            <integer>74</integer>
          </dict>
        </array>
      </dict>
      <key>com.typemytype.robofont.layerData</key>
      <dict>
      </dict>
    </dict>
  </lib>
</glyph>
