<?xml version="1.0" encoding="UTF-8"?>
<glyph name="aogonek" format="1">
  <advance width="683"/>
  <unicode hex="0105"/>
  <outline>
    <contour>
      <point x="620" y="547" type="line"/>
      <point x="620" y="0" type="line"/>
      <point x="605" y="-11"/>
      <point x="594" y="-20"/>
      <point x="579" y="-37" type="curve" smooth="yes"/>
      <point x="555" y="-63"/>
      <point x="547" y="-78"/>
      <point x="547" y="-97" type="curve" smooth="yes"/>
      <point x="547" y="-126"/>
      <point x="572" y="-146"/>
      <point x="606" y="-146" type="curve" smooth="yes"/>
      <point x="622" y="-146"/>
      <point x="636" y="-143"/>
      <point x="651" y="-136" type="curve"/>
      <point x="651" y="-182" type="line"/>
      <point x="632" y="-188"/>
      <point x="616" y="-191"/>
      <point x="600" y="-191" type="curve" smooth="yes"/>
      <point x="540" y="-191"/>
      <point x="497" y="-153"/>
      <point x="497" y="-101" type="curve" smooth="yes"/>
      <point x="497" y="-60"/>
      <point x="517" y="-31"/>
      <point x="568" y="0" type="curve"/>
      <point x="546" y="0" type="line"/>
      <point x="546" y="96" type="line"/>
      <point x="488" y="18"/>
      <point x="428" y="-13"/>
      <point x="335" y="-13" type="curve" smooth="yes"/>
      <point x="167" y="-13"/>
      <point x="42" y="109"/>
      <point x="42" y="272" type="curve" smooth="yes"/>
      <point x="42" y="436"/>
      <point x="166" y="560"/>
      <point x="330" y="560" type="curve" smooth="yes"/>
      <point x="425" y="560"/>
      <point x="492" y="526"/>
      <point x="546" y="450" type="curve"/>
      <point x="546" y="547" type="line"/>
    </contour>
    <contour>
      <point x="332" y="492" type="curve" smooth="yes"/>
      <point x="213" y="492"/>
      <point x="117" y="396"/>
      <point x="117" y="277" type="curve" smooth="yes"/>
      <point x="117" y="152"/>
      <point x="212" y="55"/>
      <point x="336" y="55" type="curve" smooth="yes"/>
      <point x="454" y="55"/>
      <point x="546" y="152"/>
      <point x="546" y="276" type="curve" smooth="yes"/>
      <point x="546" y="398"/>
      <point x="452" y="492"/>
    </contour>
  </outline>
  <lib>
    <dict>
      <key>com.fontlab.hintData</key>
      <dict>
        <key>hhints</key>
        <array>
          <dict>
            <key>position</key>
            <integer>-191</integer>
            <key>width</key>
            <integer>45</integer>
          </dict>
          <dict>
            <key>position</key>
            <integer>-13</integer>
            <key>width</key>
            <integer>68</integer>
          </dict>
          <dict>
            <key>position</key>
            <integer>492</integer>
            <key>width</key>
            <integer>68</integer>
          </dict>
          <dict>
            <key>position</key>
            <integer>527</integer>
            <key>width</key>
            <integer>20</integer>
          </dict>
        </array>
        <key>vhints</key>
        <array>
          <dict>
            <key>position</key>
            <integer>42</integer>
            <key>width</key>
            <integer>75</integer>
          </dict>
          <dict>
            <key>position</key>
            <integer>497</integer>
            <key>width</key>
            <integer>50</integer>
          </dict>
          <dict>
            <key>position</key>
            <integer>546</integer>
            <key>width</key>
            <integer>74</integer>
          </dict>
        </array>
      </dict>
      <key>com.typemytype.robofont.layerData</key>
      <dict>
      </dict>
    </dict>
  </lib>
</glyph>
