<?xml version="1.0" encoding="UTF-8"?>
<glyph name="divide" format="1">
  <advance width="606"/>
  <unicode hex="00F7"/>
  <outline>
    <contour>
      <point x="346" y="409" type="line"/>
      <point x="259" y="409" type="line"/>
      <point x="259" y="496" type="line"/>
      <point x="346" y="496" type="line"/>
    </contour>
    <contour>
      <point x="346" y="112" type="line"/>
      <point x="259" y="112" type="line"/>
      <point x="259" y="199" type="line"/>
      <point x="346" y="199" type="line"/>
    </contour>
    <contour>
      <point x="555" y="341" type="line"/>
      <point x="555" y="267" type="line"/>
      <point x="51" y="267" type="line"/>
      <point x="51" y="341" type="line"/>
    </contour>
  </outline>
  <lib>
    <dict>
      <key>com.fontlab.hintData</key>
      <dict>
        <key>hhints</key>
        <array>
          <dict>
            <key>position</key>
            <integer>112</integer>
            <key>width</key>
            <integer>87</integer>
          </dict>
          <dict>
            <key>position</key>
            <integer>267</integer>
            <key>width</key>
            <integer>74</integer>
          </dict>
          <dict>
            <key>position</key>
            <integer>409</integer>
            <key>width</key>
            <integer>87</integer>
          </dict>
        </array>
        <key>vhints</key>
        <array>
          <dict>
            <key>position</key>
            <integer>259</integer>
            <key>width</key>
            <integer>87</integer>
          </dict>
        </array>
      </dict>
      <key>com.typemytype.robofont.layerData</key>
      <dict>
      </dict>
    </dict>
  </lib>
</glyph>
