<?xml version="1.0" encoding="UTF-8"?>
<glyph name="lozenge" format="1">
  <advance width="494"/>
  <unicode hex="25CA"/>
  <outline>
    <contour>
      <point x="209" y="0" type="line"/>
      <point x="18" y="377" type="line"/>
      <point x="214" y="740" type="line"/>
      <point x="277" y="740" type="line"/>
      <point x="466" y="374" type="line"/>
      <point x="269" y="0" type="line"/>
    </contour>
    <contour>
      <point x="240" y="58" type="line"/>
      <point x="402" y="374" type="line"/>
      <point x="245" y="683" type="line"/>
      <point x="81" y="376" type="line"/>
    </contour>
  </outline>
  <lib>
    <dict>
      <key>com.fontlab.hintData</key>
      <dict>
        <key>hhints</key>
        <array>
          <dict>
            <key>position</key>
            <integer>0</integer>
            <key>width</key>
            <integer>20</integer>
          </dict>
          <dict>
            <key>position</key>
            <integer>720</integer>
            <key>width</key>
            <integer>20</integer>
          </dict>
        </array>
      </dict>
      <key>com.typemytype.robofont.layerData</key>
      <dict>
      </dict>
    </dict>
  </lib>
</glyph>
