<?xml version="1.0" encoding="UTF-8"?>
<glyph name="umacron" format="1">
  <advance width="608"/>
  <unicode hex="016B"/>
  <outline>
    <contour>
      <point x="545" y="547" type="line"/>
      <point x="545" y="0" type="line"/>
      <point x="471" y="0" type="line"/>
      <point x="471" y="85" type="line"/>
      <point x="434" y="17"/>
      <point x="380" y="-13"/>
      <point x="295" y="-13" type="curve" smooth="yes"/>
      <point x="213" y="-13"/>
      <point x="147" y="17"/>
      <point x="106" y="74" type="curve" smooth="yes"/>
      <point x="77" y="114"/>
      <point x="63" y="171"/>
      <point x="63" y="252" type="curve" smooth="yes"/>
      <point x="63" y="547" type="line"/>
      <point x="137" y="547" type="line"/>
      <point x="137" y="252" type="line" smooth="yes"/>
      <point x="137" y="196"/>
      <point x="146" y="152"/>
      <point x="163" y="124" type="curve" smooth="yes"/>
      <point x="188" y="80"/>
      <point x="240" y="55"/>
      <point x="301" y="55" type="curve" smooth="yes"/>
      <point x="358" y="55"/>
      <point x="407" y="80"/>
      <point x="438" y="123" type="curve"/>
      <point x="461" y="157"/>
      <point x="471" y="199"/>
      <point x="471" y="266" type="curve" smooth="yes"/>
      <point x="471" y="547" type="line"/>
    </contour>
    <contour>
      <point x="136" y="707" type="line"/>
      <point x="473" y="707" type="line"/>
      <point x="473" y="643" type="line"/>
      <point x="136" y="643" type="line"/>
    </contour>
  </outline>
  <lib>
    <dict>
      <key>com.fontlab.hintData</key>
      <dict>
        <key>hhints</key>
        <array>
          <dict>
            <key>position</key>
            <integer>-13</integer>
            <key>width</key>
            <integer>68</integer>
          </dict>
          <dict>
            <key>position</key>
            <integer>527</integer>
            <key>width</key>
            <integer>20</integer>
          </dict>
          <dict>
            <key>position</key>
            <integer>643</integer>
            <key>width</key>
            <integer>64</integer>
          </dict>
        </array>
        <key>vhints</key>
        <array>
          <dict>
            <key>position</key>
            <integer>63</integer>
            <key>width</key>
            <integer>74</integer>
          </dict>
          <dict>
            <key>position</key>
            <integer>471</integer>
            <key>width</key>
            <integer>74</integer>
          </dict>
        </array>
      </dict>
      <key>com.typemytype.robofont.layerData</key>
      <dict>
      </dict>
    </dict>
  </lib>
</glyph>
