<?xml version="1.0" encoding="UTF-8"?>
<glyph name="uniF6C5" format="1">
  <advance width="656"/>
  <unicode hex="F6C5"/>
  <outline>
    <contour>
      <point x="334" y="560" type="curve" smooth="yes"/>
      <point x="498" y="560"/>
      <point x="618" y="439"/>
      <point x="618" y="272" type="curve" smooth="yes"/>
      <point x="618" y="108"/>
      <point x="500" y="-13"/>
      <point x="340" y="-13" type="curve" smooth="yes"/>
      <point x="170" y="-13"/>
      <point x="47" y="118"/>
      <point x="47" y="277" type="curve" smooth="yes"/>
      <point x="47" y="353"/>
      <point x="76" y="464"/>
      <point x="157" y="509" type="curve"/>
      <point x="114" y="530"/>
      <point x="98" y="556"/>
      <point x="98" y="622" type="curve" smooth="yes"/>
      <point x="98" y="727"/>
      <point x="196" y="742"/>
      <point x="320" y="742" type="curve" smooth="yes"/>
      <point x="416" y="742"/>
      <point x="567" y="773"/>
      <point x="567" y="773" type="curve"/>
      <point x="567" y="701" type="line"/>
      <point x="567" y="701"/>
      <point x="424" y="668"/>
      <point x="321" y="668" type="curve" smooth="yes"/>
      <point x="219" y="668"/>
      <point x="178" y="672"/>
      <point x="178" y="608" type="curve" smooth="yes"/>
      <point x="178" y="586"/>
      <point x="204" y="554"/>
      <point x="233" y="551" type="curve"/>
      <point x="288" y="557"/>
      <point x="258" y="560"/>
    </contour>
    <contour>
      <point x="334" y="492" type="curve" smooth="yes"/>
      <point x="213" y="492"/>
      <point x="122" y="399"/>
      <point x="122" y="275" type="curve" smooth="yes"/>
      <point x="122" y="147"/>
      <point x="212" y="55"/>
      <point x="338" y="55" type="curve" smooth="yes"/>
      <point x="457" y="55"/>
      <point x="543" y="146"/>
      <point x="543" y="271" type="curve" smooth="yes"/>
      <point x="543" y="398"/>
      <point x="454" y="492"/>
    </contour>
  </outline>
  <lib>
    <dict>
      <key>com.fontlab.hintData</key>
      <dict>
        <key>hhints</key>
        <array>
          <dict>
            <key>position</key>
            <integer>-13</integer>
            <key>width</key>
            <integer>68</integer>
          </dict>
          <dict>
            <key>position</key>
            <integer>492</integer>
            <key>width</key>
            <integer>68</integer>
          </dict>
          <dict>
            <key>position</key>
            <integer>668</integer>
            <key>width</key>
            <integer>74</integer>
          </dict>
        </array>
        <key>vhints</key>
        <array>
          <dict>
            <key>position</key>
            <integer>47</integer>
            <key>width</key>
            <integer>75</integer>
          </dict>
          <dict>
            <key>position</key>
            <integer>98</integer>
            <key>width</key>
            <integer>80</integer>
          </dict>
          <dict>
            <key>position</key>
            <integer>543</integer>
            <key>width</key>
            <integer>75</integer>
          </dict>
        </array>
      </dict>
      <key>com.typemytype.robofont.layerData</key>
      <dict>
      </dict>
    </dict>
  </lib>
</glyph>
