<?xml version="1.0" encoding="UTF-8"?>
<glyph name="scommaaccent" format="1">
  <advance width="440"/>
  <unicode hex="0219"/>
  <outline>
    <contour>
      <point x="51" y="176" type="curve"/>
      <point x="185" y="176" type="line"/>
      <point x="186" y="132"/>
      <point x="208" y="109"/>
      <point x="247" y="109" type="curve" smooth="yes"/>
      <point x="285" y="109"/>
      <point x="318" y="138"/>
      <point x="318" y="173" type="curve" smooth="yes"/>
      <point x="318" y="199"/>
      <point x="304" y="210"/>
      <point x="236" y="234" type="curve" smooth="yes"/>
      <point x="139" y="268"/>
      <point x="110" y="300"/>
      <point x="110" y="370" type="curve" smooth="yes"/>
      <point x="110" y="476"/>
      <point x="211" y="567"/>
      <point x="330" y="567" type="curve" smooth="yes"/>
      <point x="412" y="567"/>
      <point x="482" y="508"/>
      <point x="482" y="439" type="curve" smooth="yes"/>
      <point x="482" y="429"/>
      <point x="481" y="416"/>
      <point x="479" y="401" type="curve"/>
      <point x="349" y="401" type="line"/>
      <point x="348" y="430"/>
      <point x="333" y="445"/>
      <point x="305" y="445" type="curve" smooth="yes"/>
      <point x="274" y="445"/>
      <point x="247" y="419"/>
      <point x="247" y="390" type="curve" smooth="yes"/>
      <point x="247" y="379"/>
      <point x="255" y="368"/>
      <point x="267" y="361" type="curve" smooth="yes"/>
      <point x="279" y="354"/>
      <point x="279" y="354"/>
      <point x="329" y="338" type="curve" smooth="yes"/>
      <point x="424" y="307"/>
      <point x="455" y="275"/>
      <point x="455" y="209" type="curve" smooth="yes"/>
      <point x="455" y="92"/>
      <point x="343" y="-13"/>
      <point x="218" y="-13" type="curve" smooth="yes"/>
      <point x="118" y="-13"/>
      <point x="49" y="48"/>
      <point x="49" y="137" type="curve" smooth="yes"/>
      <point x="49" y="148"/>
      <point x="50" y="161"/>
    </contour>
    <contour>
      <point x="57" y="-245" type="line"/>
      <point x="150" y="-53" type="line"/>
      <point x="255" y="-53" type="line"/>
      <point x="161" y="-245" type="line"/>
    </contour>
  </outline>
  <lib>
    <dict>
      <key>com.fontlab.hintData</key>
      <dict>
	<key>hhints</key>
	<array>
	  <dict>
	    <key>position</key>	    <integer>-13</integer>
	    <key>width</key>	    <integer>122</integer>
	  </dict>
	  <dict>
	    <key>position</key>	    <integer>445</integer>
	    <key>width</key>	    <integer>122</integer>
	  </dict>
	</array>
	<key>vhints</key>
	<array>
	  <dict>
	    <key>position</key>
	    <integer>110</integer>
	    <key>width</key>
	    <integer>137</integer>
	  </dict>
	  <dict>
	    <key>position</key>
	    <integer>318</integer>
	    <key>width</key>
	    <integer>137</integer>
	  </dict>
	</array>
      </dict>
    </dict>
  </lib>
</glyph>
