<?xml version="1.0" encoding="UTF-8"?>
<glyph name="afii10047" format="1">
  <advance width="740"/>
  <unicode hex="042D"/>
  <outline>
    <contour>
      <point x="619" y="341" type="curve" smooth="yes"/>
      <point x="620" y="348"/>
      <point x="550" y="295"/>
      <point x="497" y="290" type="curve" smooth="yes"/>
      <point x="383" y="279"/>
      <point x="331" y="357"/>
      <point x="217" y="350" type="curve" smooth="yes"/>
      <point x="179" y="348"/>
      <point x="179" y="352"/>
      <point x="127" y="319" type="curve"/>
      <point x="127" y="348" type="line"/>
      <point x="149" y="370"/>
      <point x="203" y="428"/>
      <point x="267" y="428" type="curve" smooth="yes"/>
      <point x="363" y="428"/>
      <point x="441" y="362"/>
      <point x="561" y="364" type="curve" smooth="yes"/>
      <point x="586" y="364"/>
      <point x="622" y="373"/>
      <point x="622" y="379" type="curve" smooth="yes"/>
      <point x="622" y="557"/>
      <point x="536" y="663"/>
      <point x="379" y="663" type="curve" smooth="yes"/>
      <point x="301" y="663"/>
      <point x="237" y="652"/>
      <point x="172" y="599" type="curve"/>
      <point x="155" y="515" type="line"/>
      <point x="128" y="515" type="line"/>
      <point x="129" y="572"/>
      <point x="139" y="618"/>
      <point x="130" y="664" type="curve"/>
      <point x="215" y="698"/>
      <point x="316" y="706"/>
      <point x="412" y="706" type="curve" smooth="yes"/>
      <point x="603" y="706"/>
      <point x="710" y="598"/>
      <point x="710" y="404" type="curve" smooth="yes"/>
      <point x="710" y="251"/>
      <point x="650" y="133"/>
      <point x="533" y="54" type="curve" smooth="yes"/>
      <point x="463" y="7"/>
      <point x="381" y="-18"/>
      <point x="299" y="-18" type="curve" smooth="yes"/>
      <point x="203" y="-18"/>
      <point x="132" y="5"/>
      <point x="42" y="67" type="curve"/>
      <point x="32" y="103" type="line"/>
      <point x="42" y="110" type="line"/>
      <point x="136" y="53"/>
      <point x="217" y="30"/>
      <point x="295" y="30" type="curve" smooth="yes"/>
      <point x="374" y="30"/>
      <point x="465" y="65"/>
      <point x="512" y="113" type="curve" smooth="yes"/>
      <point x="566" y="168"/>
      <point x="610" y="246"/>
    </contour>
  </outline>
  <lib>
    <dict>
      <key>com.fontlab.hintData</key>
      <dict>
	<key>hhints</key>
	<array>
	  <dict>
	    <key>position</key>	    <integer>-18</integer>
	    <key>width</key>	    <integer>48</integer>
	  </dict>
	  <dict>
	    <key>position</key>	    <integer>663</integer>
	    <key>width</key>	    <integer>43</integer>
	  </dict>
	</array>
	<key>vhints</key>
	<array>
	  <dict>
	    <key>position</key>
	    <integer>622</integer>
	    <key>width</key>
	    <integer>88</integer>
	  </dict>
	</array>
      </dict>
    </dict>
  </lib>
</glyph>
