<?xml version="1.0" encoding="UTF-8"?>
<glyph name="afii10086" format="1">
  <advance width="706"/>
  <unicode hex="0444"/>
  <outline>
    <contour>
      <point x="464" y="722" type="line"/>
      <point x="396" y="354" type="line"/>
      <point x="423" y="423"/>
      <point x="510" y="492"/>
      <point x="552" y="492" type="curve" smooth="yes"/>
      <point x="635" y="492"/>
      <point x="671" y="441"/>
      <point x="671" y="371" type="curve" smooth="yes"/>
      <point x="671" y="296"/>
      <point x="647" y="191"/>
      <point x="615" y="125" type="curve" smooth="yes"/>
      <point x="568" y="27"/>
      <point x="457" y="-11"/>
      <point x="401" y="-11" type="curve" smooth="yes"/>
      <point x="390" y="-11"/>
      <point x="375" y="-9"/>
      <point x="349" y="0" type="curve" smooth="yes"/>
      <point x="340" y="3" type="line"/>
      <point x="298" y="-259" type="line"/>
      <point x="266" y="-264"/>
      <point x="246" y="-269"/>
      <point x="225" y="-276" type="curve"/>
      <point x="218" y="-270" type="line"/>
      <point x="226" y="-233" type="line"/>
      <point x="275" y="8" type="line"/>
      <point x="299" y="127" type="line"/>
      <point x="275" y="60"/>
      <point x="183" y="-12"/>
      <point x="143" y="-11" type="curve" smooth="yes"/>
      <point x="75" y="-9"/>
      <point x="24" y="40"/>
      <point x="24" y="110" type="curve" smooth="yes"/>
      <point x="24" y="185"/>
      <point x="50" y="289"/>
      <point x="80" y="356" type="curve" smooth="yes"/>
      <point x="124" y="456"/>
      <point x="238" y="492"/>
      <point x="294" y="492" type="curve" smooth="yes"/>
      <point x="305" y="492"/>
      <point x="320" y="490"/>
      <point x="346" y="481" type="curve" smooth="yes"/>
      <point x="355" y="478" type="line"/>
      <point x="376" y="646" type="line"/>
      <point x="376" y="663"/>
      <point x="366" y="670"/>
      <point x="342" y="670" type="curve" smooth="yes"/>
      <point x="294" y="670" type="line"/>
      <point x="298" y="691" type="line"/>
      <point x="370" y="698"/>
      <point x="400" y="707"/>
      <point x="452" y="733" type="curve"/>
    </contour>
    <contour>
      <point x="329" y="310" type="curve" smooth="yes"/>
      <point x="337" y="381" type="line"/>
      <point x="345" y="424"/>
      <point x="294" y="445"/>
      <point x="263" y="445" type="curve" smooth="yes"/>
      <point x="115" y="444"/>
      <point x="105" y="230"/>
      <point x="105" y="125" type="curve" smooth="yes"/>
      <point x="105" y="79"/>
      <point x="135" y="57"/>
      <point x="161" y="57" type="curve" smooth="yes"/>
      <point x="241" y="56"/>
      <point x="317" y="206"/>
    </contour>
    <contour>
      <point x="366" y="171" type="curve" smooth="yes"/>
      <point x="356" y="96" type="line"/>
      <point x="349" y="54"/>
      <point x="401" y="36"/>
      <point x="432" y="36" type="curve" smooth="yes"/>
      <point x="579" y="36"/>
      <point x="591" y="248"/>
      <point x="590" y="356" type="curve" smooth="yes"/>
      <point x="590" y="402"/>
      <point x="560" y="424"/>
      <point x="534" y="424" type="curve" smooth="yes"/>
      <point x="456" y="423"/>
      <point x="380" y="275"/>
    </contour>
  </outline>
  <lib>
    <dict>
      <key>com.fontlab.hintData</key>
      <dict>
	<key>hhints</key>
	<array>
	  <dict>
	    <key>position</key>	    <integer>-11</integer>
	    <key>width</key>	    <integer>47</integer>
	  </dict>
	  <dict>
	    <key>position</key>	    <integer>-11</integer>
	    <key>width</key>	    <integer>68</integer>
	  </dict>
	  <dict>
	    <key>position</key>	    <integer>424</integer>
	    <key>width</key>	    <integer>68</integer>
	  </dict>
	  <dict>
	    <key>position</key>	    <integer>445</integer>
	    <key>width</key>	    <integer>47</integer>
	  </dict>
	</array>
	<key>vhints</key>
	<array>
	  <dict>
	    <key>position</key>
	    <integer>24</integer>
	    <key>width</key>
	    <integer>81</integer>
	  </dict>
	  <dict>
	    <key>position</key>
	    <integer>590</integer>
	    <key>width</key>
	    <integer>81</integer>
	  </dict>
	</array>
      </dict>
    </dict>
  </lib>
</glyph>
