<?xml version="1.0" encoding="UTF-8"?>
<glyph name="afii10017" format="1">
  <advance width="722"/>
  <unicode hex="0410"/>
  <outline>
    <contour>
      <point x="462" y="705" type="line"/>
      <point x="508" y="705" type="line"/>
      <point x="595" y="80" type="line"/>
      <point x="603" y="35"/>
      <point x="604" y="35"/>
      <point x="651" y="28" type="curve"/>
      <point x="677" y="25" type="line"/>
      <point x="677" y="-3" type="line"/>
      <point x="575" y="0"/>
      <point x="575" y="0"/>
      <point x="555" y="0" type="curve" smooth="yes"/>
      <point x="535" y="0"/>
      <point x="535" y="0"/>
      <point x="433" y="-3" type="curve"/>
      <point x="433" y="25" type="line"/>
      <point x="477" y="28" type="line" smooth="yes"/>
      <point x="505" y="30"/>
      <point x="520" y="39"/>
      <point x="520" y="55" type="curve" smooth="yes"/>
      <point x="520" y="59"/>
      <point x="519" y="69"/>
      <point x="518" y="77" type="curve" smooth="yes"/>
      <point x="517" y="82"/>
      <point x="516" y="85"/>
      <point x="516" y="86" type="curve" smooth="yes"/>
      <point x="516" y="89" type="line"/>
      <point x="491" y="277" type="line"/>
      <point x="245" y="277" type="line"/>
      <point x="143" y="102" type="line" smooth="yes"/>
      <point x="124" y="69"/>
      <point x="117" y="55"/>
      <point x="117" y="47" type="curve" smooth="yes"/>
      <point x="117" y="38"/>
      <point x="132" y="29"/>
      <point x="148" y="28" type="curve" smooth="yes"/>
      <point x="200" y="25" type="line"/>
      <point x="200" y="-3" type="line"/>
      <point x="114" y="0"/>
      <point x="112" y="0"/>
      <point x="93" y="0" type="curve" smooth="yes"/>
      <point x="73" y="0"/>
      <point x="73" y="0"/>
      <point x="-19" y="-3" type="curve"/>
      <point x="-19" y="27" type="line"/>
      <point x="1" y="32" type="line" smooth="yes"/>
      <point x="35" y="40"/>
      <point x="53" y="56"/>
      <point x="89" y="112" type="curve" smooth="yes"/>
    </contour>
    <contour>
      <point x="449" y="601" type="line"/>
      <point x="270" y="313" type="line"/>
      <point x="486" y="313" type="line"/>
    </contour>
  </outline>
  <lib>
    <dict>
      <key>com.fontlab.hintData</key>
      <dict>
	<key>hhints</key>
	<array>
	  <dict>
	    <key>position</key>	    <integer>-3</integer>
	    <key>width</key>	    <integer>28</integer>
	  </dict>
	  <dict>
	    <key>position</key>	    <integer>277</integer>
	    <key>width</key>	    <integer>36</integer>
	  </dict>
	  <dict>
	    <key>position</key>	    <integer>685</integer>
	    <key>width</key>	    <integer>20</integer>
	  </dict>
	</array>
      </dict>
    </dict>
  </lib>
</glyph>
