<?xml version="1.0" encoding="UTF-8"?>
<glyph name="gbreve" format="1">
  <advance width="500"/>
  <unicode hex="011F"/>
  <outline>
    <contour>
      <point x="405" y="380" type="curve"/>
      <point x="406" y="375" type="line" smooth="yes"/>
      <point x="408" y="360"/>
      <point x="409" y="351"/>
      <point x="409" y="342" type="curve" smooth="yes"/>
      <point x="409" y="253"/>
      <point x="338" y="170"/>
      <point x="240" y="146" type="curve"/>
      <point x="238" y="143"/>
      <point x="237" y="142"/>
      <point x="234" y="138" type="curve" smooth="yes"/>
      <point x="219" y="119"/>
      <point x="213" y="109"/>
      <point x="213" y="100" type="curve" smooth="yes"/>
      <point x="213" y="81"/>
      <point x="226" y="62"/>
      <point x="260" y="35" type="curve" smooth="yes"/>
      <point x="320" y="-14" type="line" smooth="yes"/>
      <point x="363" y="-49"/>
      <point x="384" y="-85"/>
      <point x="384" y="-121" type="curve" smooth="yes"/>
      <point x="384" y="-204"/>
      <point x="271" y="-276"/>
      <point x="142" y="-276" type="curve" smooth="yes"/>
      <point x="33" y="-276"/>
      <point x="-37" y="-230"/>
      <point x="-37" y="-159" type="curve" smooth="yes"/>
      <point x="-37" y="-119"/>
      <point x="-18" y="-80"/>
      <point x="16" y="-52" type="curve" smooth="yes"/>
      <point x="53" y="-21"/>
      <point x="84" y="-6"/>
      <point x="160" y="19" type="curve"/>
      <point x="146" y="31"/>
      <point x="139" y="42"/>
      <point x="139" y="52" type="curve" smooth="yes"/>
      <point x="139" y="66"/>
      <point x="150" y="84"/>
      <point x="166" y="99" type="curve" smooth="yes"/>
      <point x="207" y="137" type="line"/>
      <point x="196" y="136"/>
      <point x="185" y="136"/>
      <point x="177" y="136" type="curve" smooth="yes"/>
      <point x="100" y="136"/>
      <point x="55" y="182"/>
      <point x="55" y="259" type="curve" smooth="yes"/>
      <point x="55" y="330"/>
      <point x="84" y="388"/>
      <point x="140" y="430" type="curve" smooth="yes"/>
      <point x="184" y="463"/>
      <point x="234" y="482"/>
      <point x="275" y="482" type="curve" smooth="yes"/>
      <point x="296" y="482"/>
      <point x="321" y="477"/>
      <point x="342" y="469" type="curve" smooth="yes"/>
      <point x="367" y="459"/>
      <point x="377" y="450"/>
      <point x="393" y="424" type="curve"/>
      <point x="447" y="424"/>
      <point x="467" y="426"/>
      <point x="495" y="433" type="curve"/>
      <point x="498" y="427" type="line"/>
      <point x="489" y="382" type="line"/>
      <point x="466" y="379"/>
      <point x="456" y="378"/>
      <point x="439" y="378" type="curve" smooth="yes"/>
      <point x="430" y="378"/>
      <point x="422" y="378"/>
    </contour>
    <contour>
      <point x="253" y="-58" type="curve" smooth="yes"/>
      <point x="176" y="1" type="line"/>
      <point x="125" y="-14"/>
      <point x="103" y="-24"/>
      <point x="77" y="-45" type="curve" smooth="yes"/>
      <point x="45" y="-72"/>
      <point x="27" y="-107"/>
      <point x="27" y="-145" type="curve" smooth="yes"/>
      <point x="27" y="-206"/>
      <point x="84" y="-248"/>
      <point x="166" y="-248" type="curve" smooth="yes"/>
      <point x="249" y="-248"/>
      <point x="318" y="-206"/>
      <point x="318" y="-154" type="curve" smooth="yes"/>
      <point x="318" y="-121"/>
      <point x="299" y="-94"/>
    </contour>
    <contour>
      <point x="250" y="448" type="curve" smooth="yes"/>
      <point x="177" y="448"/>
      <point x="126" y="383"/>
      <point x="126" y="288" type="curve" smooth="yes"/>
      <point x="126" y="209"/>
      <point x="158" y="168"/>
      <point x="219" y="168" type="curve" smooth="yes"/>
      <point x="289" y="168"/>
      <point x="337" y="238"/>
      <point x="337" y="341" type="curve" smooth="yes"/>
      <point x="337" y="412"/>
      <point x="308" y="448"/>
    </contour>
    <contour>
      <point x="176" y="677" type="curve"/>
      <point x="205" y="677" type="line"/>
      <point x="211" y="611"/>
      <point x="248" y="577"/>
      <point x="314" y="577" type="curve" smooth="yes"/>
      <point x="374" y="577"/>
      <point x="410" y="604"/>
      <point x="448" y="677" type="curve"/>
      <point x="477" y="677" type="line"/>
      <point x="463" y="625"/>
      <point x="453" y="603"/>
      <point x="432" y="577" type="curve" smooth="yes"/>
      <point x="400" y="537"/>
      <point x="359" y="518"/>
      <point x="307" y="518" type="curve" smooth="yes"/>
      <point x="255" y="518"/>
      <point x="217" y="538"/>
      <point x="196" y="576" type="curve" smooth="yes"/>
      <point x="181" y="603"/>
      <point x="176" y="626"/>
    </contour>
  </outline>
  <lib>
    <dict>
      <key>com.fontlab.hintData</key>
      <dict>
	<key>hhints</key>
	<array>
	  <dict>
	    <key>position</key>	    <integer>-276</integer>
	    <key>width</key>	    <integer>28</integer>
	  </dict>
	  <dict>
	    <key>position</key>	    <integer>136</integer>
	    <key>width</key>	    <integer>32</integer>
	  </dict>
	  <dict>
	    <key>position</key>	    <integer>448</integer>
	    <key>width</key>	    <integer>34</integer>
	  </dict>
	  <dict>
	    <key>position</key>	    <integer>518</integer>
	    <key>width</key>	    <integer>59</integer>
	  </dict>
	</array>
	<key>vhints</key>
	<array>
	  <dict>
	    <key>position</key>
	    <integer>-37</integer>
	    <key>width</key>
	    <integer>64</integer>
	  </dict>
	  <dict>
	    <key>position</key>
	    <integer>55</integer>
	    <key>width</key>
	    <integer>71</integer>
	  </dict>
	  <dict>
	    <key>position</key>
	    <integer>318</integer>
	    <key>width</key>
	    <integer>66</integer>
	  </dict>
	  <dict>
	    <key>position</key>
	    <integer>337</integer>
	    <key>width</key>
	    <integer>72</integer>
	  </dict>
	</array>
      </dict>
    </dict>
  </lib>
</glyph>
