<?xml version="1.0" encoding="UTF-8"?>
<glyph name="one" format="1">
  <advance width="500"/>
  <unicode hex="0031"/>
  <outline>
    <contour>
      <point x="374" y="688" type="line"/>
      <point x="350" y="573" type="line"/>
      <point x="276" y="136" type="line" smooth="yes"/>
      <point x="269" y="94"/>
      <point x="268" y="87"/>
      <point x="268" y="76" type="curve" smooth="yes"/>
      <point x="268" y="41"/>
      <point x="281" y="31"/>
      <point x="327" y="28" type="curve" smooth="yes"/>
      <point x="398" y="24" type="line"/>
      <point x="393" y="-3" type="line"/>
      <point x="324" y="-1"/>
      <point x="277" y="0"/>
      <point x="224" y="0" type="curve" smooth="yes"/>
      <point x="171" y="0"/>
      <point x="123" y="-1"/>
      <point x="54" y="-3" type="curve"/>
      <point x="59" y="24" type="line"/>
      <point x="144" y="34" type="line"/>
      <point x="175" y="39"/>
      <point x="183" y="50"/>
      <point x="192" y="102" type="curve" smooth="yes"/>
      <point x="278" y="629" type="line"/>
      <point x="242" y="615" type="line" smooth="yes"/>
      <point x="210" y="602"/>
      <point x="176" y="588"/>
      <point x="175" y="587" type="curve" smooth="yes"/>
      <point x="91" y="546" type="line"/>
      <point x="84" y="551" type="line"/>
      <point x="95" y="610" type="line"/>
      <point x="119" y="616" type="line" smooth="yes"/>
      <point x="191" y="634"/>
      <point x="221" y="642"/>
      <point x="259" y="658" type="curve" smooth="yes"/>
      <point x="359" y="699" type="line"/>
    </contour>
  </outline>
  <lib>
    <dict>
      <key>com.fontlab.hintData</key>
      <dict>
	<key>hhints</key>
	<array>
	  <dict>
	    <key>position</key>	    <integer>-3</integer>
	    <key>width</key>	    <integer>20</integer>
	  </dict>
	  <dict>
	    <key>position</key>	    <integer>679</integer>
	    <key>width</key>	    <integer>20</integer>
	  </dict>
	</array>
      </dict>
    </dict>
  </lib>
</glyph>
