<?xml version="1.0" encoding="UTF-8"?>
<glyph name="uni04D1" format="1">
  <advance width="444"/>
  <unicode hex="04D1"/>
  <outline>
    <contour>
      <point x="166" y="741" type="curve"/>
      <point x="195" y="741" type="line"/>
      <point x="201" y="675"/>
      <point x="238" y="641"/>
      <point x="304" y="641" type="curve" smooth="yes"/>
      <point x="364" y="641"/>
      <point x="400" y="668"/>
      <point x="438" y="741" type="curve"/>
      <point x="467" y="741" type="line"/>
      <point x="453" y="689"/>
      <point x="443" y="667"/>
      <point x="422" y="641" type="curve" smooth="yes"/>
      <point x="390" y="601"/>
      <point x="349" y="582"/>
      <point x="297" y="582" type="curve" smooth="yes"/>
      <point x="245" y="582"/>
      <point x="207" y="602"/>
      <point x="186" y="640" type="curve" smooth="yes"/>
      <point x="171" y="667"/>
      <point x="166" y="690"/>
    </contour>
    <contour>
      <point x="402" y="472" type="line"/>
      <point x="310" y="93" type="line" smooth="yes"/>
      <point x="309" y="90"/>
      <point x="309" y="87"/>
      <point x="309" y="82" type="curve" smooth="yes"/>
      <point x="309" y="68"/>
      <point x="315" y="59"/>
      <point x="324" y="59" type="curve" smooth="yes"/>
      <point x="339" y="59"/>
      <point x="354" y="68"/>
      <point x="386" y="95" type="curve" smooth="yes"/>
      <point x="390" y="99"/>
      <point x="393" y="101"/>
      <point x="399" y="106" type="curve"/>
      <point x="406" y="85" type="line"/>
      <point x="324" y="17"/>
      <point x="283" y="-9"/>
      <point x="260" y="-9" type="curve" smooth="yes"/>
      <point x="245" y="-9"/>
      <point x="236" y="4"/>
      <point x="236" y="26" type="curve" smooth="yes"/>
      <point x="236" y="42"/>
      <point x="238" y="60"/>
      <point x="242" y="77" type="curve" smooth="yes"/>
      <point x="271" y="204" type="line"/>
      <point x="217" y="128"/>
      <point x="178" y="83"/>
      <point x="136" y="45" type="curve" smooth="yes"/>
      <point x="98" y="11"/>
      <point x="60" y="-11"/>
      <point x="38" y="-11" type="curve" smooth="yes"/>
      <point x="19" y="-11"/>
      <point x="4" y="23"/>
      <point x="4" y="67" type="curve" smooth="yes"/>
      <point x="4" y="145"/>
      <point x="35" y="265"/>
      <point x="79" y="354" type="curve" smooth="yes"/>
      <point x="104" y="403"/>
      <point x="137" y="433"/>
      <point x="199" y="464" type="curve" smooth="yes"/>
      <point x="226" y="477"/>
      <point x="246" y="482"/>
      <point x="274" y="482" type="curve" smooth="yes"/>
      <point x="301" y="482"/>
      <point x="318" y="478"/>
      <point x="359" y="463" type="curve"/>
      <point x="392" y="481" type="line"/>
    </contour>
    <contour>
      <point x="319" y="414" type="curve"/>
      <point x="275" y="429"/>
      <point x="257" y="433"/>
      <point x="234" y="433" type="curve" smooth="yes"/>
      <point x="186" y="433"/>
      <point x="163" y="415"/>
      <point x="139" y="360" type="curve" smooth="yes"/>
      <point x="104" y="280"/>
      <point x="76" y="163"/>
      <point x="76" y="99" type="curve" smooth="yes"/>
      <point x="76" y="72"/>
      <point x="82" y="59"/>
      <point x="94" y="59" type="curve" smooth="yes"/>
      <point x="126" y="59"/>
      <point x="187" y="117"/>
      <point x="244" y="201" type="curve"/>
      <point x="278" y="253"/>
      <point x="297" y="305"/>
    </contour>
  </outline>
  <lib>
    <dict>
      <key>com.fontlab.hintData</key>
      <dict>
	<key>hhints</key>
	<array>
	  <dict>
	    <key>position</key>	    <integer>-9</integer>
	    <key>width</key>	    <integer>21</integer>
	  </dict>
	  <dict>
	    <key>position</key>	    <integer>433</integer>
	    <key>width</key>	    <integer>49</integer>
	  </dict>
	  <dict>
	    <key>position</key>	    <integer>582</integer>
	    <key>width</key>	    <integer>59</integer>
	  </dict>
	</array>
	<key>vhints</key>
	<array>
	  <dict>
	    <key>position</key>
	    <integer>4</integer>
	    <key>width</key>
	    <integer>72</integer>
	  </dict>
	  <dict>
	    <key>position</key>
	    <integer>166</integer>
	    <key>width</key>
	    <integer>29</integer>
	  </dict>
	</array>
      </dict>
    </dict>
  </lib>
</glyph>
