<?xml version="1.0" encoding="UTF-8"?>
<glyph name="u" format="1">
  <advance width="600"/>
  <unicode hex="0075"/>
  <outline>
    <contour>
      <point x="603" y="437" type="line"/>
      <point x="531" y="100" type="line"/>
      <point x="566" y="100"/>
      <point x="583" y="87"/>
      <point x="583" y="61" type="curve" smooth="yes"/>
      <point x="583" y="44"/>
      <point x="574" y="26"/>
      <point x="559" y="15" type="curve"/>
      <point x="546" y="3"/>
      <point x="533" y="0"/>
      <point x="504" y="0" type="curve" smooth="yes"/>
      <point x="410" y="0" type="line"/>
      <point x="420" y="48" type="line"/>
      <point x="360" y="1"/>
      <point x="326" y="-13"/>
      <point x="270" y="-13" type="curve" smooth="yes"/>
      <point x="182" y="-13"/>
      <point x="123" y="36"/>
      <point x="123" y="110" type="curve" smooth="yes"/>
      <point x="123" y="127"/>
      <point x="124" y="140"/>
      <point x="128" y="156" type="curve" smooth="yes"/>
      <point x="166" y="338" type="line"/>
      <point x="150" y="338" type="line" smooth="yes"/>
      <point x="110" y="338"/>
      <point x="94" y="349"/>
      <point x="94" y="378" type="curve" smooth="yes"/>
      <point x="94" y="393"/>
      <point x="103" y="411"/>
      <point x="117" y="423" type="curve" smooth="yes"/>
      <point x="131" y="434"/>
      <point x="141" y="437"/>
      <point x="172" y="437" type="curve" smooth="yes"/>
      <point x="288" y="437" type="line"/>
      <point x="229" y="159" type="line" smooth="yes"/>
      <point x="227" y="151"/>
      <point x="226" y="144"/>
      <point x="226" y="136" type="curve" smooth="yes"/>
      <point x="226" y="105"/>
      <point x="253" y="87"/>
      <point x="301" y="87" type="curve" smooth="yes"/>
      <point x="351" y="87"/>
      <point x="380" y="101"/>
      <point x="443" y="155" type="curve"/>
      <point x="482" y="338" type="line"/>
      <point x="447" y="338" type="line" smooth="yes"/>
      <point x="406" y="338"/>
      <point x="390" y="349"/>
      <point x="390" y="377" type="curve" smooth="yes"/>
      <point x="390" y="393"/>
      <point x="399" y="411"/>
      <point x="413" y="423" type="curve"/>
      <point x="428" y="434"/>
      <point x="437" y="437"/>
      <point x="468" y="437" type="curve" smooth="yes"/>
    </contour>
  </outline>
  <lib>
    <dict>
      <key>com.fontlab.hintData</key>
      <dict>
	<key>hhints</key>
	<array>
	  <dict>
	    <key>position</key>	    <integer>-13</integer>
	    <key>width</key>	    <integer>100</integer>
	  </dict>
	  <dict>
	    <key>position</key>	    <integer>417</integer>
	    <key>width</key>	    <integer>20</integer>
	  </dict>
	</array>
	<key>vhints</key>
	<array>
	  <dict>
	    <key>position</key>
	    <integer>123</integer>
	    <key>width</key>
	    <integer>103</integer>
	  </dict>
	</array>
      </dict>
    </dict>
  </lib>
</glyph>
