<?xml version="1.0" encoding="UTF-8"?>
<glyph name="afii10030" format="1">
  <advance width="919"/>
  <unicode hex="041C"/>
  <outline>
    <contour>
      <point x="106" y="0" type="line"/>
      <point x="106" y="739" type="line"/>
      <point x="221" y="739" type="line"/>
      <point x="460" y="110" type="line"/>
      <point x="698" y="739" type="line"/>
      <point x="813" y="739" type="line"/>
      <point x="813" y="0" type="line"/>
      <point x="739" y="0" type="line"/>
      <point x="739" y="658" type="line"/>
      <point x="491" y="0" type="line"/>
      <point x="427" y="0" type="line"/>
      <point x="180" y="658" type="line"/>
      <point x="180" y="0" type="line"/>
    </contour>
  </outline>
  <lib>
    <dict>
      <key>com.fontlab.hintData</key>
      <dict>
        <key>hhints</key>
        <array>
          <dict>
            <key>position</key>
            <integer>0</integer>
            <key>width</key>
            <integer>21</integer>
          </dict>
          <dict>
            <key>position</key>
            <integer>719</integer>
            <key>width</key>
            <integer>20</integer>
          </dict>
        </array>
        <key>vhints</key>
        <array>
          <dict>
            <key>position</key>
            <integer>106</integer>
            <key>width</key>
            <integer>74</integer>
          </dict>
          <dict>
            <key>position</key>
            <integer>739</integer>
            <key>width</key>
            <integer>74</integer>
          </dict>
        </array>
      </dict>
      <key>com.typemytype.robofont.layerData</key>
      <dict>
      </dict>
    </dict>
  </lib>
</glyph>
