<?xml version="1.0" encoding="UTF-8"?>
<glyph name="ograve" format="1">
  <advance width="655"/>
  <unicode hex="00F2"/>
  <outline>
    <contour>
      <point x="329" y="560" type="curve" smooth="yes"/>
      <point x="493" y="560"/>
      <point x="613" y="439"/>
      <point x="613" y="272" type="curve" smooth="yes"/>
      <point x="613" y="108"/>
      <point x="495" y="-13"/>
      <point x="335" y="-13" type="curve" smooth="yes"/>
      <point x="165" y="-13"/>
      <point x="42" y="109"/>
      <point x="42" y="277" type="curve" smooth="yes"/>
      <point x="42" y="437"/>
      <point x="167" y="560"/>
    </contour>
    <contour>
      <point x="329" y="492" type="curve" smooth="yes"/>
      <point x="208" y="492"/>
      <point x="117" y="399"/>
      <point x="117" y="275" type="curve" smooth="yes"/>
      <point x="117" y="147"/>
      <point x="207" y="55"/>
      <point x="333" y="55" type="curve" smooth="yes"/>
      <point x="452" y="55"/>
      <point x="538" y="146"/>
      <point x="538" y="271" type="curve" smooth="yes"/>
      <point x="538" y="398"/>
      <point x="449" y="492"/>
    </contour>
    <contour>
      <point x="211" y="776" type="line"/>
      <point x="409" y="666" type="line"/>
      <point x="376" y="610" type="line"/>
      <point x="179" y="718" type="line"/>
    </contour>
  </outline>
  <lib>
    <dict>
      <key>com.fontlab.hintData</key>
      <dict>
        <key>hhints</key>
        <array>
          <dict>
            <key>position</key>
            <integer>-13</integer>
            <key>width</key>
            <integer>68</integer>
          </dict>
          <dict>
            <key>position</key>
            <integer>492</integer>
            <key>width</key>
            <integer>68</integer>
          </dict>
        </array>
        <key>vhints</key>
        <array>
          <dict>
            <key>position</key>
            <integer>42</integer>
            <key>width</key>
            <integer>75</integer>
          </dict>
          <dict>
            <key>position</key>
            <integer>538</integer>
            <key>width</key>
            <integer>75</integer>
          </dict>
        </array>
      </dict>
      <key>com.typemytype.robofont.layerData</key>
      <dict>
      </dict>
    </dict>
  </lib>
</glyph>
