<?xml version="1.0" encoding="UTF-8"?>
<glyph name="quotedblright" format="1">
  <advance width="484"/>
  <unicode hex="201D"/>
  <outline>
    <contour>
      <point x="87" y="547" type="line"/>
      <point x="175" y="739" type="line"/>
      <point x="249" y="739" type="line"/>
      <point x="161" y="547" type="line"/>
    </contour>
    <contour>
      <point x="231" y="547" type="line"/>
      <point x="319" y="739" type="line"/>
      <point x="393" y="739" type="line"/>
      <point x="305" y="547" type="line"/>
    </contour>
  </outline>
  <lib>
    <dict>
      <key>com.fontlab.hintData</key>
      <dict>
        <key>hhints</key>
        <array>
          <dict>
            <key>position</key>
            <integer>719</integer>
            <key>width</key>
            <integer>20</integer>
          </dict>
        </array>
      </dict>
      <key>com.typemytype.robofont.layerData</key>
      <dict>
      </dict>
    </dict>
  </lib>
</glyph>
