<?xml version="1.0" encoding="UTF-8"?>
<glyph name="W" format="1">
  <advance width="960"/>
  <unicode hex="0057"/>
  <outline>
    <contour>
      <point x="221" y="0" type="line"/>
      <point x="10" y="739" type="line"/>
      <point x="86" y="739" type="line"/>
      <point x="268" y="96" type="line"/>
      <point x="445" y="739" type="line"/>
      <point x="515" y="739" type="line"/>
      <point x="692" y="96" type="line"/>
      <point x="874" y="739" type="line"/>
      <point x="950" y="739" type="line"/>
      <point x="738" y="0" type="line"/>
      <point x="643" y="0" type="line"/>
      <point x="479" y="606" type="line"/>
      <point x="317" y="0" type="line"/>
    </contour>
  </outline>
  <lib>
    <dict>
      <key>com.fontlab.hintData</key>
      <dict>
        <key>hhints</key>
        <array>
          <dict>
            <key>position</key>
            <integer>0</integer>
            <key>width</key>
            <integer>20</integer>
          </dict>
          <dict>
            <key>position</key>
            <integer>719</integer>
            <key>width</key>
            <integer>20</integer>
          </dict>
        </array>
      </dict>
      <key>com.typemytype.robofont.layerData</key>
      <dict>
      </dict>
    </dict>
  </lib>
</glyph>
