<?xml version="1.0" encoding="UTF-8"?>
<glyph name="brokenbar" format="1">
  <advance width="672"/>
  <unicode hex="00A6"/>
  <outline>
    <contour>
      <point x="505" y="739" type="line"/>
      <point x="450" y="444" type="line"/>
      <point x="386" y="444" type="line"/>
      <point x="441" y="739" type="line"/>
    </contour>
    <contour>
      <point x="423" y="295" type="line"/>
      <point x="368" y="0" type="line"/>
      <point x="304" y="0" type="line"/>
      <point x="359" y="295" type="line"/>
    </contour>
  </outline>
  <lib>
    <dict>
      <key>com.fontlab.hintData</key>
      <dict>
	<key>hhints</key>
	<array>
	  <dict>
	    <key>position</key>	    <integer>0</integer>
	    <key>width</key>	    <integer>20</integer>
	  </dict>
	  <dict>
	    <key>position</key>	    <integer>719</integer>
	    <key>width</key>	    <integer>20</integer>
	  </dict>
	</array>
      </dict>
    </dict>
  </lib>
</glyph>
