<?xml version="1.0" encoding="UTF-8"?>
<glyph name="ucircumflex" format="1">
  <advance width="608"/>
  <unicode hex="00FB"/>
  <outline>
    <contour>
      <point x="646" y="547" type="line"/>
      <point x="544" y="0" type="line"/>
      <point x="470" y="0" type="line"/>
      <point x="486" y="85" type="line"/>
      <point x="433" y="15"/>
      <point x="377" y="-13"/>
      <point x="290" y="-13" type="curve" smooth="yes"/>
      <point x="174" y="-13"/>
      <point x="99" y="53"/>
      <point x="99" y="155" type="curve" smooth="yes"/>
      <point x="99" y="183"/>
      <point x="103" y="224"/>
      <point x="108" y="252" type="curve" smooth="yes"/>
      <point x="163" y="547" type="line"/>
      <point x="237" y="547" type="line"/>
      <point x="182" y="252" type="line" smooth="yes"/>
      <point x="180" y="239"/>
      <point x="176" y="200"/>
      <point x="176" y="185" type="curve" smooth="yes"/>
      <point x="176" y="156"/>
      <point x="185" y="122"/>
      <point x="197" y="103" type="curve" smooth="yes"/>
      <point x="216" y="74"/>
      <point x="261" y="55"/>
      <point x="310" y="55" type="curve" smooth="yes"/>
      <point x="366" y="55"/>
      <point x="419" y="79"/>
      <point x="459" y="123" type="curve" smooth="yes"/>
      <point x="490" y="157"/>
      <point x="505" y="194"/>
      <point x="519" y="266" type="curve" smooth="yes"/>
      <point x="572" y="547" type="line"/>
    </contour>
    <contour>
      <point x="237" y="623" type="line"/>
      <point x="405" y="749" type="line"/>
      <point x="471" y="749" type="line"/>
      <point x="591" y="623" type="line"/>
      <point x="502" y="623" type="line"/>
      <point x="430" y="697" type="line"/>
      <point x="328" y="623" type="line"/>
    </contour>
  </outline>
  <lib>
    <dict>
      <key>com.fontlab.hintData</key>
      <dict>
	<key>hhints</key>
	<array>
	  <dict>
	    <key>position</key>	    <integer>-13</integer>
	    <key>width</key>	    <integer>68</integer>
	  </dict>
	  <dict>
	    <key>position</key>	    <integer>527</integer>
	    <key>width</key>	    <integer>20</integer>
	  </dict>
	  <dict>
	    <key>position</key>	    <integer>729</integer>
	    <key>width</key>	    <integer>20</integer>
	  </dict>
	</array>
	<key>vhints</key>
	<array>
	  <dict>
	    <key>position</key>
	    <integer>99</integer>
	    <key>width</key>
	    <integer>77</integer>
	  </dict>
	</array>
      </dict>
    </dict>
  </lib>
</glyph>
