<?xml version="1.0" encoding="UTF-8"?>
<glyph name="uni04E3" format="1">
  <advance width="610"/>
  <unicode hex="04E3"/>
  <outline>
    <contour>
      <point x="262" y="682" type="line"/>
      <point x="599" y="682" type="line"/>
      <point x="587" y="620" type="line"/>
      <point x="250" y="620" type="line"/>
    </contour>
    <contour>
      <point x="63" y="0" type="line"/>
      <point x="164" y="547" type="line"/>
      <point x="238" y="547" type="line"/>
      <point x="160" y="126" type="line"/>
      <point x="546" y="547" type="line"/>
      <point x="646" y="547" type="line"/>
      <point x="545" y="0" type="line"/>
      <point x="471" y="0" type="line"/>
      <point x="557" y="458" type="line"/>
      <point x="137" y="0" type="line"/>
    </contour>
  </outline>
  <lib>
    <dict>
      <key>com.fontlab.hintData</key>
      <dict>
	<key>hhints</key>
	<array>
	  <dict>
	    <key>position</key>	    <integer>0</integer>
	    <key>width</key>	    <integer>21</integer>
	  </dict>
	  <dict>
	    <key>position</key>	    <integer>527</integer>
	    <key>width</key>	    <integer>20</integer>
	  </dict>
	  <dict>
	    <key>position</key>	    <integer>620</integer>
	    <key>width</key>	    <integer>62</integer>
	  </dict>
	</array>
      </dict>
    </dict>
  </lib>
</glyph>
