<?xml version="1.0" encoding="UTF-8"?>
<glyph name="y" format="1">
  <advance width="536"/>
  <unicode hex="0079"/>
  <outline>
    <contour>
      <point x="97" y="-192" type="line"/>
      <point x="224" y="18" type="line"/>
      <point x="110" y="547" type="line"/>
      <point x="191" y="547" type="line"/>
      <point x="283" y="111" type="line"/>
      <point x="549" y="547" type="line"/>
      <point x="628" y="547" type="line"/>
      <point x="175" y="-192" type="line"/>
    </contour>
  </outline>
  <lib>
    <dict>
      <key>com.fontlab.hintData</key>
      <dict>
	<key>hhints</key>
	<array>
	  <dict>
	    <key>position</key>	    <integer>-192</integer>
	    <key>width</key>	    <integer>20</integer>
	  </dict>
	  <dict>
	    <key>position</key>	    <integer>527</integer>
	    <key>width</key>	    <integer>20</integer>
	  </dict>
	</array>
      </dict>
    </dict>
  </lib>
</glyph>
