<?xml version="1.0" encoding="UTF-8"?>
<glyph name="guilsinglright" format="1">
  <advance width="273"/>
  <unicode hex="203A"/>
  <outline>
    <contour>
      <point x="72" y="108" type="line"/>
      <point x="72" y="196" type="line"/>
      <point x="158" y="277" type="line"/>
      <point x="72" y="358" type="line"/>
      <point x="72" y="446" type="line"/>
      <point x="201" y="323" type="line"/>
      <point x="201" y="231" type="line"/>
    </contour>
  </outline>
</glyph>
