<?xml version="1.0" encoding="UTF-8"?>
<glyph name="ring" format="1">
  <advance width="273"/>
  <unicode hex="02DA"/>
  <outline>
    <contour>
      <point x="137" y="756" type="curve" smooth="yes"/>
      <point x="180" y="756"/>
      <point x="212" y="716"/>
      <point x="212" y="664" type="curve" smooth="yes"/>
      <point x="212" y="611"/>
      <point x="180" y="572"/>
      <point x="136" y="572" type="curve" smooth="yes"/>
      <point x="93" y="572"/>
      <point x="61" y="611"/>
      <point x="61" y="664" type="curve" smooth="yes"/>
      <point x="61" y="717"/>
      <point x="93" y="756"/>
    </contour>
    <contour>
      <point x="137" y="716" type="curve" smooth="yes"/>
      <point x="113" y="716"/>
      <point x="94" y="693"/>
      <point x="94" y="664" type="curve" smooth="yes"/>
      <point x="94" y="635"/>
      <point x="113" y="612"/>
      <point x="136" y="612" type="curve" smooth="yes"/>
      <point x="160" y="612"/>
      <point x="179" y="635"/>
      <point x="179" y="664" type="curve" smooth="yes"/>
      <point x="179" y="692"/>
      <point x="160" y="716"/>
    </contour>
  </outline>
  <lib>
    <dict>
      <key>com.fontlab.hintData</key>
      <dict>
	<key>hhints</key>
	<array>
	  <dict>
	    <key>position</key>	    <integer>572</integer>
	    <key>width</key>	    <integer>40</integer>
	  </dict>
	  <dict>
	    <key>position</key>	    <integer>716</integer>
	    <key>width</key>	    <integer>40</integer>
	  </dict>
	</array>
	<key>vhints</key>
	<array>
	  <dict>
	    <key>position</key>
	    <integer>61</integer>
	    <key>width</key>
	    <integer>33</integer>
	  </dict>
	  <dict>
	    <key>position</key>
	    <integer>179</integer>
	    <key>width</key>
	    <integer>33</integer>
	  </dict>
	</array>
      </dict>
    </dict>
  </lib>
</glyph>
