<?xml version="1.0" encoding="UTF-8"?>
<glyph name="circumflex" format="1">
  <advance width="333"/>
  <unicode hex="02C6"/>
  <outline>
    <contour>
      <point x="23" y="535" type="line"/>
      <point x="180" y="709" type="line"/>
      <point x="281" y="709" type="line"/>
      <point x="365" y="535" type="line"/>
      <point x="306" y="535" type="line"/>
      <point x="216" y="621" type="line"/>
      <point x="90" y="535" type="line"/>
    </contour>
  </outline>
</glyph>
