<?xml version="1.0" encoding="UTF-8"?>
<glyph name="Dcaron" format="1">
  <advance width="833"/>
  <unicode hex="010E"/>
  <outline>
    <contour>
      <point x="-49" y="0" type="line"/>
      <point x="-42" y="54" type="line"/>
      <point x="-38" y="54" type="line" smooth="yes"/>
      <point x="4" y="54"/>
      <point x="28" y="58"/>
      <point x="39" y="68" type="curve" smooth="yes"/>
      <point x="47" y="76"/>
      <point x="47" y="76"/>
      <point x="66" y="144" type="curve" smooth="yes"/>
      <point x="182" y="578" type="line" smooth="yes"/>
      <point x="191" y="612"/>
      <point x="195" y="632"/>
      <point x="195" y="641" type="curve" smooth="yes"/>
      <point x="195" y="663"/>
      <point x="181" y="668"/>
      <point x="116" y="668" type="curve" smooth="yes"/>
      <point x="98" y="668" type="line"/>
      <point x="105" y="722" type="line"/>
      <point x="463" y="722" type="line" smooth="yes"/>
      <point x="572" y="722"/>
      <point x="633" y="707"/>
      <point x="691" y="666" type="curve" smooth="yes"/>
      <point x="760" y="618"/>
      <point x="796" y="540"/>
      <point x="796" y="437" type="curve" smooth="yes"/>
      <point x="796" y="305"/>
      <point x="740" y="180"/>
      <point x="645" y="100" type="curve" smooth="yes"/>
      <point x="559" y="28"/>
      <point x="459" y="0"/>
      <point x="285" y="0" type="curve" smooth="yes"/>
    </contour>
    <contour>
      <point x="281" y="54" type="curve" smooth="yes"/>
      <point x="310" y="54" type="line" smooth="yes"/>
      <point x="396" y="54"/>
      <point x="467" y="91"/>
      <point x="515" y="162" type="curve" smooth="yes"/>
      <point x="570" y="244"/>
      <point x="610" y="388"/>
      <point x="610" y="501" type="curve" smooth="yes"/>
      <point x="610" y="610"/>
      <point x="558" y="668"/>
      <point x="461" y="668" type="curve" smooth="yes"/>
      <point x="439" y="668" type="line" smooth="yes"/>
      <point x="393" y="668"/>
      <point x="379" y="655"/>
      <point x="365" y="605" type="curve" smooth="yes"/>
      <point x="237" y="127" type="line"/>
      <point x="229" y="91"/>
      <point x="228" y="88"/>
      <point x="228" y="81" type="curve" smooth="yes"/>
      <point x="228" y="61"/>
      <point x="243" y="54"/>
    </contour>
    <contour>
      <point x="653" y="950" type="line"/>
      <point x="496" y="774" type="line"/>
      <point x="394" y="774" type="line"/>
      <point x="310" y="950" type="line"/>
      <point x="369" y="950" type="line"/>
      <point x="459" y="862" type="line"/>
      <point x="585" y="950" type="line"/>
    </contour>
  </outline>
  <lib>
    <dict>
      <key>com.fontlab.hintData</key>
      <dict>
	<key>hhints</key>
	<array>
	  <dict>
	    <key>position</key>	    <integer>0</integer>
	    <key>width</key>	    <integer>20</integer>
	  </dict>
	  <dict>
	    <key>position</key>	    <integer>702</integer>
	    <key>width</key>	    <integer>20</integer>
	  </dict>
	</array>
	<key>vhints</key>
	<array>
	  <dict>
	    <key>position</key>
	    <integer>610</integer>
	    <key>width</key>
	    <integer>186</integer>
	  </dict>
	</array>
      </dict>
    </dict>
  </lib>
</glyph>
