<?xml version="1.0" encoding="UTF-8"?>
<glyph name="Ibreve" format="1">
  <advance width="444"/>
  <unicode hex="012C"/>
  <outline>
    <component base="I"/>
    <component base="breve" xOffset="134" yOffset="260"/>
  </outline>
</glyph>
