<?xml version="1.0" encoding="UTF-8"?>
<glyph name="lslash" format="1">
  <advance width="389"/>
  <unicode hex="0142"/>
  <outline>
    <contour>
      <point x="307" y="441" type="line"/>
      <point x="397" y="495" type="line"/>
      <point x="371" y="410" type="line"/>
      <point x="281" y="355" type="line"/>
      <point x="212" y="122" type="line" smooth="yes"/>
      <point x="203" y="91"/>
      <point x="202" y="88"/>
      <point x="202" y="79" type="curve" smooth="yes"/>
      <point x="202" y="70"/>
      <point x="209" y="63"/>
      <point x="218" y="63" type="curve" smooth="yes"/>
      <point x="233" y="63"/>
      <point x="251" y="78"/>
      <point x="278" y="112" type="curve" smooth="yes"/>
      <point x="300" y="139"/>
      <point x="313" y="158"/>
      <point x="324" y="176" type="curve"/>
      <point x="363" y="149" type="line"/>
      <point x="342" y="111"/>
      <point x="312" y="74"/>
      <point x="277" y="41" type="curve" smooth="yes"/>
      <point x="236" y="2"/>
      <point x="198" y="-15"/>
      <point x="151" y="-15" type="curve" smooth="yes"/>
      <point x="91" y="-15"/>
      <point x="50" y="22"/>
      <point x="50" y="76" type="curve" smooth="yes"/>
      <point x="50" y="98"/>
      <point x="56" y="128"/>
      <point x="72" y="182" type="curve" smooth="yes"/>
      <point x="106" y="295" type="line"/>
      <point x="26" y="246" type="line"/>
      <point x="50" y="331" type="line"/>
      <point x="131" y="380" type="line"/>
      <point x="190" y="578" type="line" smooth="yes"/>
      <point x="202" y="617"/>
      <point x="206" y="634"/>
      <point x="206" y="644" type="curve" smooth="yes"/>
      <point x="206" y="669"/>
      <point x="194" y="675"/>
      <point x="145" y="675" type="curve" smooth="yes"/>
      <point x="121" y="675" type="line"/>
      <point x="128" y="722" type="line"/>
      <point x="395" y="736" type="line"/>
    </contour>
  </outline>
  <lib>
    <dict>
      <key>com.fontlab.hintData</key>
      <dict>
	<key>hhints</key>
	<array>
	  <dict>
	    <key>position</key>	    <integer>-15</integer>
	    <key>width</key>	    <integer>20</integer>
	  </dict>
	  <dict>
	    <key>position</key>	    <integer>716</integer>
	    <key>width</key>	    <integer>20</integer>
	  </dict>
	</array>
	<key>vhints</key>
	<array>
	  <dict>
	    <key>position</key>
	    <integer>50</integer>
	    <key>width</key>
	    <integer>152</integer>
	  </dict>
	</array>
      </dict>
    </dict>
  </lib>
</glyph>
