<?xml version="1.0" encoding="UTF-8"?>
<glyph name="obreve" format="1">
  <advance width="574"/>
  <unicode hex="014F"/>
  <outline>
    <component base="breve" xOffset="155" yOffset="2"/>
    <component base="o"/>
  </outline>
</glyph>
