<?xml version="1.0" encoding="UTF-8"?>
<glyph name="uni04C3" format="1">
  <advance width="823"/>
  <unicode hex="04C3"/>
  <outline>
    <contour>
      <point x="546" y="181" type="curve" smooth="yes"/>
      <point x="546" y="266"/>
      <point x="444" y="317"/>
      <point x="365" y="317" type="curve" smooth="yes"/>
      <point x="328" y="317" type="line"/>
      <point x="282" y="144" type="line" smooth="yes"/>
      <point x="265" y="81"/>
      <point x="264" y="77"/>
      <point x="268" y="69" type="curve" smooth="yes"/>
      <point x="275" y="58"/>
      <point x="295" y="54"/>
      <point x="347" y="54" type="curve" smooth="yes"/>
      <point x="362" y="54" type="line"/>
      <point x="348" y="0" type="line"/>
      <point x="-41" y="0" type="line"/>
      <point x="-27" y="54" type="line"/>
      <point x="-12" y="54" type="line" smooth="yes"/>
      <point x="40" y="54"/>
      <point x="63" y="58"/>
      <point x="74" y="69" type="curve"/>
      <point x="84" y="77"/>
      <point x="84" y="81"/>
      <point x="101" y="144" type="curve" smooth="yes"/>
      <point x="217" y="578" type="line" smooth="yes"/>
      <point x="229" y="622"/>
      <point x="233" y="637"/>
      <point x="233" y="645" type="curve" smooth="yes"/>
      <point x="233" y="663"/>
      <point x="206" y="668"/>
      <point x="153" y="668" type="curve" smooth="yes"/>
      <point x="138" y="668" type="line"/>
      <point x="152" y="722" type="line"/>
      <point x="541" y="722" type="line"/>
      <point x="527" y="668" type="line"/>
      <point x="512" y="668" type="line" smooth="yes"/>
      <point x="460" y="668"/>
      <point x="437" y="664"/>
      <point x="425" y="653" type="curve" smooth="yes"/>
      <point x="416" y="645"/>
      <point x="415" y="641"/>
      <point x="398" y="578" type="curve" smooth="yes"/>
      <point x="353" y="409" type="line"/>
      <point x="393" y="408" type="line"/>
      <point x="619" y="408"/>
      <point x="487" y="736"/>
      <point x="767" y="736" type="curve" smooth="yes"/>
      <point x="853" y="736"/>
      <point x="873" y="694"/>
      <point x="873" y="661" type="curve" smooth="yes"/>
      <point x="873" y="609"/>
      <point x="823" y="558"/>
      <point x="786" y="558" type="curve" smooth="yes"/>
      <point x="763" y="558"/>
      <point x="720" y="571"/>
      <point x="720" y="604" type="curve" smooth="yes"/>
      <point x="720" y="660"/>
      <point x="762" y="652"/>
      <point x="762" y="675" type="curve" smooth="yes"/>
      <point x="762" y="680"/>
      <point x="761" y="684"/>
      <point x="739" y="684" type="curve" smooth="yes"/>
      <point x="672" y="684"/>
      <point x="663" y="406"/>
      <point x="532" y="366" type="curve"/>
      <point x="622" y="362"/>
      <point x="729" y="290"/>
      <point x="729" y="199" type="curve" smooth="yes"/>
      <point x="729" y="-103"/>
      <point x="512" y="-175"/>
      <point x="341" y="-175" type="curve" smooth="yes"/>
      <point x="331" y="-175"/>
      <point x="321" y="-175"/>
      <point x="310" y="-174" type="curve"/>
      <point x="325" y="-120" type="line"/>
      <point x="451" y="-120"/>
      <point x="546" y="28"/>
    </contour>
  </outline>
  <lib>
    <dict>
      <key>com.fontlab.hintData</key>
      <dict>
	<key>hhints</key>
	<array>
	  <dict>
	    <key>position</key>	    <integer>-175</integer>
	    <key>width</key>	    <integer>55</integer>
	  </dict>
	  <dict>
	    <key>position</key>	    <integer>0</integer>
	    <key>width</key>	    <integer>54</integer>
	  </dict>
	  <dict>
	    <key>position</key>	    <integer>317</integer>
	    <key>width</key>	    <integer>92</integer>
	  </dict>
	  <dict>
	    <key>position</key>	    <integer>668</integer>
	    <key>width</key>	    <integer>54</integer>
	  </dict>
	  <dict>
	    <key>position</key>	    <integer>684</integer>
	    <key>width</key>	    <integer>52</integer>
	  </dict>
	</array>
	<key>vhints</key>
	<array>
	  <dict>
	    <key>position</key>
	    <integer>546</integer>
	    <key>width</key>
	    <integer>183</integer>
	  </dict>
	</array>
      </dict>
    </dict>
  </lib>
</glyph>
