<?xml version="1.0" encoding="UTF-8"?>
<glyph name="uni04A9" format="1">
  <advance width="537"/>
  <unicode hex="04A9"/>
  <outline>
    <contour>
      <point x="373" y="44" type="curve"/>
      <point x="380" y="42"/>
      <point x="388" y="40"/>
      <point x="396" y="40" type="curve" smooth="yes"/>
      <point x="413" y="40"/>
      <point x="420" y="46"/>
      <point x="435" y="60" type="curve"/>
      <point x="446" y="32" type="line"/>
      <point x="422" y="14"/>
      <point x="405" y="-4"/>
      <point x="374" y="-4" type="curve" smooth="yes"/>
      <point x="354" y="-4"/>
      <point x="333" y="1"/>
      <point x="317" y="11" type="curve"/>
      <point x="280" y="-5"/>
      <point x="241" y="-14"/>
      <point x="210" y="-14" type="curve" smooth="yes"/>
      <point x="87" y="-14"/>
      <point x="3" y="58"/>
      <point x="3" y="171" type="curve" smooth="yes"/>
      <point x="3" y="338"/>
      <point x="146" y="478"/>
      <point x="316" y="478" type="curve" smooth="yes"/>
      <point x="420" y="478"/>
      <point x="487" y="427"/>
      <point x="487" y="350" type="curve" smooth="yes"/>
      <point x="487" y="294"/>
      <point x="453" y="267"/>
      <point x="401" y="267" type="curve" smooth="yes"/>
      <point x="355" y="267"/>
      <point x="328" y="287"/>
      <point x="328" y="329" type="curve" smooth="yes"/>
      <point x="328" y="357"/>
      <point x="333" y="373"/>
      <point x="361" y="390" type="curve" smooth="yes"/>
      <point x="370" y="396"/>
      <point x="373" y="399"/>
      <point x="373" y="406" type="curve" smooth="yes"/>
      <point x="373" y="421"/>
      <point x="355" y="431"/>
      <point x="331" y="431" type="curve" smooth="yes"/>
      <point x="289" y="431"/>
      <point x="251" y="401"/>
      <point x="220" y="344" type="curve" smooth="yes"/>
      <point x="190" y="289"/>
      <point x="168" y="203"/>
      <point x="168" y="141" type="curve" smooth="yes"/>
      <point x="168" y="86"/>
      <point x="202" y="47"/>
      <point x="250" y="47" type="curve" smooth="yes"/>
      <point x="258" y="47"/>
      <point x="268" y="48"/>
      <point x="278" y="51" type="curve"/>
      <point x="261" y="78"/>
      <point x="252" y="114"/>
      <point x="252" y="148" type="curve" smooth="yes"/>
      <point x="252" y="212"/>
      <point x="303" y="254"/>
      <point x="358" y="254" type="curve" smooth="yes"/>
      <point x="405" y="254"/>
      <point x="450" y="222"/>
      <point x="450" y="182" type="curve" smooth="yes"/>
      <point x="450" y="124"/>
      <point x="417" y="77"/>
    </contour>
    <contour>
      <point x="331" y="73" type="curve"/>
      <point x="368" y="94"/>
      <point x="400" y="130"/>
      <point x="400" y="179" type="curve" smooth="yes"/>
      <point x="400" y="206"/>
      <point x="396" y="232"/>
      <point x="366" y="232" type="curve" smooth="yes"/>
      <point x="324" y="232"/>
      <point x="302" y="197"/>
      <point x="302" y="158" type="curve" smooth="yes"/>
      <point x="302" y="126"/>
      <point x="312" y="95"/>
    </contour>
  </outline>
  <lib>
    <dict>
      <key>com.fontlab.hintData</key>
      <dict>
	<key>hhints</key>
	<array>
	  <dict>
	    <key>position</key>	    <integer>-14</integer>
	    <key>width</key>	    <integer>61</integer>
	  </dict>
	  <dict>
	    <key>position</key>	    <integer>-4</integer>
	    <key>width</key>	    <integer>44</integer>
	  </dict>
	  <dict>
	    <key>position</key>	    <integer>232</integer>
	    <key>width</key>	    <integer>22</integer>
	  </dict>
	  <dict>
	    <key>position</key>	    <integer>431</integer>
	    <key>width</key>	    <integer>47</integer>
	  </dict>
	</array>
	<key>vhints</key>
	<array>
	  <dict>
	    <key>position</key>
	    <integer>3</integer>
	    <key>width</key>
	    <integer>165</integer>
	  </dict>
	  <dict>
	    <key>position</key>
	    <integer>252</integer>
	    <key>width</key>
	    <integer>50</integer>
	  </dict>
	  <dict>
	    <key>position</key>
	    <integer>373</integer>
	    <key>width</key>
	    <integer>114</integer>
	  </dict>
	  <dict>
	    <key>position</key>
	    <integer>400</integer>
	    <key>width</key>
	    <integer>50</integer>
	  </dict>
	</array>
      </dict>
    </dict>
  </lib>
</glyph>
