<?xml version="1.0" encoding="UTF-8"?>
<glyph name="afii10099" format="1">
  <advance width="620"/>
  <unicode hex="0452"/>
  <outline>
    <contour>
      <point x="194" y="611" type="curve"/>
      <point x="191" y="636"/>
      <point x="174" y="646"/>
      <point x="132" y="651" type="curve" smooth="yes"/>
      <point x="117" y="653" type="line"/>
      <point x="122" y="682" type="line"/>
      <point x="191" y="689"/>
      <point x="224" y="697"/>
      <point x="269" y="715" type="curve"/>
      <point x="310" y="715" type="line"/>
      <point x="293" y="621" type="line"/>
      <point x="349" y="617"/>
      <point x="362" y="596"/>
      <point x="410" y="596" type="curve" smooth="yes"/>
      <point x="454" y="596"/>
      <point x="511" y="624"/>
      <point x="530" y="644" type="curve"/>
      <point x="524" y="580" type="line"/>
      <point x="506" y="567"/>
      <point x="458" y="543"/>
      <point x="393" y="543" type="curve" smooth="yes"/>
      <point x="365" y="543"/>
      <point x="332" y="561"/>
      <point x="283" y="568" type="curve"/>
      <point x="255" y="412" type="line"/>
      <point x="350" y="475"/>
      <point x="400" y="495"/>
      <point x="467" y="495" type="curve" smooth="yes"/>
      <point x="537" y="495"/>
      <point x="588" y="458"/>
      <point x="588" y="405" type="curve" smooth="yes"/>
      <point x="588" y="388"/>
      <point x="585" y="360"/>
      <point x="578" y="325" type="curve" smooth="yes"/>
      <point x="518" y="-7" type="line" smooth="yes"/>
      <point x="508" y="-59"/>
      <point x="475" y="-121"/>
      <point x="420" y="-121" type="curve" smooth="yes"/>
      <point x="367" y="-121"/>
      <point x="284" y="-82"/>
      <point x="284" y="-82" type="curve"/>
      <point x="291" y="-59" type="line"/>
      <point x="291" y="-59"/>
      <point x="345" y="-69"/>
      <point x="369" y="-69" type="curve" smooth="yes"/>
      <point x="401" y="-69"/>
      <point x="419" y="-45"/>
      <point x="424" y="-16" type="curve" smooth="yes"/>
      <point x="490" y="347" type="line" smooth="yes"/>
      <point x="493" y="364"/>
      <point x="495" y="379"/>
      <point x="495" y="387" type="curve" smooth="yes"/>
      <point x="495" y="423"/>
      <point x="467" y="448"/>
      <point x="429" y="448" type="curve" smooth="yes"/>
      <point x="379" y="448"/>
      <point x="312" y="417"/>
      <point x="246" y="364" type="curve"/>
      <point x="180" y="0" type="line"/>
      <point x="88" y="0" type="line"/>
      <point x="189" y="556" type="line"/>
      <point x="169" y="546"/>
      <point x="149" y="533"/>
      <point x="130" y="518" type="curve"/>
      <point x="116" y="568" type="line"/>
      <point x="141" y="590"/>
      <point x="169" y="603"/>
    </contour>
  </outline>
  <lib>
    <dict>
      <key>com.fontlab.hintData</key>
      <dict>
	<key>hhints</key>
	<array>
	  <dict>
	    <key>position</key>	    <integer>-121</integer>
	    <key>width</key>	    <integer>52</integer>
	  </dict>
	  <dict>
	    <key>position</key>	    <integer>0</integer>
	    <key>width</key>	    <integer>21</integer>
	  </dict>
	  <dict>
	    <key>position</key>	    <integer>448</integer>
	    <key>width</key>	    <integer>47</integer>
	  </dict>
	  <dict>
	    <key>position</key>	    <integer>543</integer>
	    <key>width</key>	    <integer>53</integer>
	  </dict>
	</array>
	<key>vhints</key>
	<array>
	  <dict>
	    <key>position</key>
	    <integer>495</integer>
	    <key>width</key>
	    <integer>93</integer>
	  </dict>
	</array>
      </dict>
    </dict>
  </lib>
</glyph>
