<?xml version="1.0" encoding="UTF-8"?>
<glyph name="lcommaaccent" format="1">
  <advance width="280"/>
  <unicode hex="013C"/>
  <outline>
    <contour>
      <point x="319" y="85" type="curve"/>
      <point x="342" y="64" type="line"/>
      <point x="301" y="17"/>
      <point x="247" y="-9"/>
      <point x="192" y="-9" type="curve" smooth="yes"/>
      <point x="140" y="-9"/>
      <point x="100" y="32"/>
      <point x="100" y="85" type="curve" smooth="yes"/>
      <point x="100" y="100"/>
      <point x="103" y="125"/>
      <point x="108" y="153" type="curve" smooth="yes"/>
      <point x="185" y="577" type="line" smooth="yes"/>
      <point x="186" y="585"/>
      <point x="187" y="591"/>
      <point x="187" y="599" type="curve" smooth="yes"/>
      <point x="187" y="633"/>
      <point x="172" y="645"/>
      <point x="125" y="651" type="curve" smooth="yes"/>
      <point x="109" y="653" type="line"/>
      <point x="114" y="682" type="line"/>
      <point x="183" y="689"/>
      <point x="216" y="697"/>
      <point x="261" y="715" type="curve"/>
      <point x="302" y="715" type="line"/>
      <point x="202" y="164" type="line" smooth="yes"/>
      <point x="193" y="116"/>
      <point x="193" y="114"/>
      <point x="193" y="101" type="curve" smooth="yes"/>
      <point x="193" y="71"/>
      <point x="216" y="48"/>
      <point x="248" y="48" type="curve" smooth="yes"/>
      <point x="271" y="48"/>
      <point x="290" y="58"/>
    </contour>
    <contour>
      <point x="49" y="-279" type="curve"/>
      <point x="40" y="-261" type="line"/>
      <point x="90" y="-233"/>
      <point x="120" y="-199"/>
      <point x="132" y="-155" type="curve"/>
      <point x="118" y="-167"/>
      <point x="106" y="-172"/>
      <point x="92" y="-172" type="curve" smooth="yes"/>
      <point x="68" y="-172"/>
      <point x="51" y="-152"/>
      <point x="51" y="-124" type="curve" smooth="yes"/>
      <point x="51" y="-84"/>
      <point x="85" y="-51"/>
      <point x="126" y="-51" type="curve" smooth="yes"/>
      <point x="157" y="-51"/>
      <point x="180" y="-78"/>
      <point x="180" y="-115" type="curve" smooth="yes"/>
      <point x="180" y="-181"/>
      <point x="126" y="-248"/>
    </contour>
  </outline>
  <lib>
    <dict>
      <key>com.fontlab.hintData</key>
      <dict>
	<key>hhints</key>
	<array>
	  <dict>
	    <key>position</key>	    <integer>-9</integer>
	    <key>width</key>	    <integer>57</integer>
	  </dict>
	</array>
	<key>vhints</key>
	<array>
	  <dict>
	    <key>position</key>
	    <integer>100</integer>
	    <key>width</key>
	    <integer>93</integer>
	  </dict>
	</array>
      </dict>
    </dict>
  </lib>
</glyph>
