<?xml version="1.0" encoding="UTF-8"?>
<glyph name="Otilde" format="1">
  <advance width="760"/>
  <unicode hex="00D5"/>
  <outline>
    <contour>
      <point x="512" y="694" type="curve" smooth="yes"/>
      <point x="681" y="694"/>
      <point x="799" y="576"/>
      <point x="799" y="406" type="curve" smooth="yes"/>
      <point x="799" y="299"/>
      <point x="756" y="193"/>
      <point x="680" y="115" type="curve" smooth="yes"/>
      <point x="598" y="31"/>
      <point x="496" y="-13"/>
      <point x="379" y="-13" type="curve" smooth="yes"/>
      <point x="206" y="-13"/>
      <point x="88" y="105"/>
      <point x="88" y="277" type="curve" smooth="yes"/>
      <point x="88" y="388"/>
      <point x="135" y="497"/>
      <point x="218" y="578" type="curve" smooth="yes"/>
      <point x="294" y="653"/>
      <point x="399" y="694"/>
    </contour>
    <contour>
      <point x="501" y="647" type="curve" smooth="yes"/>
      <point x="424" y="647"/>
      <point x="342" y="603"/>
      <point x="289" y="535" type="curve"/>
      <point x="236" y="464"/>
      <point x="198" y="347"/>
      <point x="198" y="249" type="curve" smooth="yes"/>
      <point x="198" y="119"/>
      <point x="271" y="34"/>
      <point x="383" y="34" type="curve" smooth="yes"/>
      <point x="468" y="34"/>
      <point x="552" y="80"/>
      <point x="607" y="158" type="curve" smooth="yes"/>
      <point x="655" y="227"/>
      <point x="689" y="344"/>
      <point x="689" y="441" type="curve" smooth="yes"/>
      <point x="689" y="564"/>
      <point x="613" y="647"/>
    </contour>
    <contour>
      <point x="658" y="839" type="curve"/>
      <point x="687" y="839" type="line"/>
      <point x="662" y="784"/>
      <point x="623" y="756"/>
      <point x="573" y="756" type="curve" smooth="yes"/>
      <point x="557" y="756"/>
      <point x="554" y="757"/>
      <point x="519" y="766" type="curve" smooth="yes"/>
      <point x="495" y="772"/>
      <point x="466" y="777"/>
      <point x="455" y="777" type="curve" smooth="yes"/>
      <point x="436" y="777"/>
      <point x="420" y="771"/>
      <point x="410" y="761" type="curve"/>
      <point x="379" y="761" type="line"/>
      <point x="400" y="809"/>
      <point x="439" y="837"/>
      <point x="484" y="837" type="curve" smooth="yes"/>
      <point x="501" y="837"/>
      <point x="511" y="835"/>
      <point x="567" y="822" type="curve" smooth="yes"/>
      <point x="586" y="818"/>
      <point x="597" y="816"/>
      <point x="604" y="816" type="curve" smooth="yes"/>
      <point x="623" y="816"/>
      <point x="638" y="823"/>
    </contour>
  </outline>
  <lib>
    <dict>
      <key>com.fontlab.hintData</key>
      <dict>
	<key>hhints</key>
	<array>
	  <dict>
	    <key>position</key>	    <integer>-13</integer>
	    <key>width</key>	    <integer>47</integer>
	  </dict>
	  <dict>
	    <key>position</key>	    <integer>647</integer>
	    <key>width</key>	    <integer>47</integer>
	  </dict>
	  <dict>
	    <key>position</key>	    <integer>756</integer>
	    <key>width</key>	    <integer>60</integer>
	  </dict>
	  <dict>
	    <key>position</key>	    <integer>777</integer>
	    <key>width</key>	    <integer>60</integer>
	  </dict>
	</array>
	<key>vhints</key>
	<array>
	  <dict>
	    <key>position</key>
	    <integer>88</integer>
	    <key>width</key>
	    <integer>110</integer>
	  </dict>
	  <dict>
	    <key>position</key>
	    <integer>689</integer>
	    <key>width</key>
	    <integer>110</integer>
	  </dict>
	</array>
      </dict>
    </dict>
  </lib>
</glyph>
