<?xml version="1.0" encoding="UTF-8"?>
<glyph name="afii10084" format="1">
  <advance width="370"/>
  <unicode hex="0442"/>
  <outline>
    <contour>
      <point x="452" y="532" type="line"/>
      <point x="434" y="432" type="line"/>
      <point x="315" y="432" type="line"/>
      <point x="239" y="0" type="line"/>
      <point x="125" y="0" type="line"/>
      <point x="201" y="432" type="line"/>
      <point x="82" y="432" type="line"/>
      <point x="100" y="532" type="line"/>
    </contour>
  </outline>
  <lib>
    <dict>
      <key>com.fontlab.hintData</key>
      <dict>
	<key>hhints</key>
	<array>
	  <dict>
	    <key>position</key>	    <integer>0</integer>
	    <key>width</key>	    <integer>21</integer>
	  </dict>
	  <dict>
	    <key>position</key>	    <integer>432</integer>
	    <key>width</key>	    <integer>100</integer>
	  </dict>
	</array>
	<key>vhints</key>
	<array>
	  <dict>
	    <key>position</key>
	    <integer>82</integer>
	    <key>width</key>
	    <integer>370</integer>
	  </dict>
	</array>
      </dict>
    </dict>
  </lib>
</glyph>
