<?xml version="1.0" encoding="UTF-8"?>
<glyph name="afii10105" format="1">
  <advance width="222"/>
  <unicode hex="0458"/>
  <outline>
    <contour>
      <point x="180" y="524" type="line"/>
      <point x="264" y="524" type="line"/>
      <point x="130" y="-109" type="line" smooth="yes"/>
      <point x="112" y="-191"/>
      <point x="69" y="-218"/>
      <point x="-46" y="-218" type="curve" smooth="yes"/>
      <point x="-55" y="-218"/>
      <point x="-58" y="-217"/>
      <point x="-65" y="-215" type="curve"/>
      <point x="-50" y="-144" type="line"/>
      <point x="-32" y="-146"/>
      <point x="-30" y="-146"/>
      <point x="-25" y="-146" type="curve" smooth="yes"/>
      <point x="26" y="-146"/>
      <point x="41" y="-132"/>
      <point x="53" y="-76" type="curve" smooth="yes"/>
    </contour>
    <contour>
      <point x="308" y="729" type="line"/>
      <point x="286" y="626" type="line"/>
      <point x="202" y="626" type="line"/>
      <point x="224" y="729" type="line"/>
    </contour>
  </outline>
  <lib>
    <dict>
      <key>com.fontlab.hintData</key>
      <dict>
	<key>hhints</key>
	<array>
	  <dict>
	    <key>position</key>	    <integer>-218</integer>
	    <key>width</key>	    <integer>72</integer>
	  </dict>
	  <dict>
	    <key>position</key>	    <integer>504</integer>
	    <key>width</key>	    <integer>20</integer>
	  </dict>
	  <dict>
	    <key>position</key>	    <integer>626</integer>
	    <key>width</key>	    <integer>103</integer>
	  </dict>
	</array>
	<key>vhints</key>
	<array>
	  <dict>
	    <key>position</key>
	    <integer>-65</integer>
	    <key>width</key>
	    <integer>373</integer>
	  </dict>
	</array>
      </dict>
    </dict>
  </lib>
</glyph>
