<?xml version="1.0" encoding="UTF-8"?>
<glyph name="q" format="1">
  <advance width="556"/>
  <unicode hex="0071"/>
  <outline>
    <contour>
      <point x="450" y="-213" type="line"/>
      <point x="366" y="-213" type="line"/>
      <point x="425" y="62" type="line"/>
      <point x="391" y="28"/>
      <point x="379" y="17"/>
      <point x="363" y="7" type="curve" smooth="yes"/>
      <point x="334" y="-11"/>
      <point x="288" y="-23"/>
      <point x="248" y="-23" type="curve" smooth="yes"/>
      <point x="147" y="-23"/>
      <point x="71" y="61"/>
      <point x="71" y="173" type="curve" smooth="yes"/>
      <point x="71" y="276"/>
      <point x="115" y="390"/>
      <point x="182" y="461" type="curve" smooth="yes"/>
      <point x="227" y="509"/>
      <point x="298" y="539"/>
      <point x="366" y="539" type="curve" smooth="yes"/>
      <point x="439" y="539"/>
      <point x="490" y="503"/>
      <point x="513" y="438" type="curve"/>
      <point x="532" y="524" type="line"/>
      <point x="607" y="524" type="line"/>
    </contour>
    <contour>
      <point x="364" y="462" type="curve" smooth="yes"/>
      <point x="300" y="462"/>
      <point x="244" y="427"/>
      <point x="205" y="361" type="curve" smooth="yes"/>
      <point x="178" y="316"/>
      <point x="159" y="244"/>
      <point x="159" y="186" type="curve" smooth="yes"/>
      <point x="159" y="106"/>
      <point x="205" y="54"/>
      <point x="276" y="54" type="curve" smooth="yes"/>
      <point x="336" y="54"/>
      <point x="388" y="89"/>
      <point x="428" y="155" type="curve" smooth="yes"/>
      <point x="456" y="203"/>
      <point x="474" y="271"/>
      <point x="474" y="333" type="curve" smooth="yes"/>
      <point x="474" y="412"/>
      <point x="431" y="462"/>
    </contour>
  </outline>
  <lib>
    <dict>
      <key>com.fontlab.hintData</key>
      <dict>
	<key>hhints</key>
	<array>
	  <dict>
	    <key>position</key>	    <integer>-213</integer>
	    <key>width</key>	    <integer>20</integer>
	  </dict>
	  <dict>
	    <key>position</key>	    <integer>-23</integer>
	    <key>width</key>	    <integer>77</integer>
	  </dict>
	  <dict>
	    <key>position</key>	    <integer>462</integer>
	    <key>width</key>	    <integer>77</integer>
	  </dict>
	</array>
	<key>vhints</key>
	<array>
	  <dict>
	    <key>position</key>
	    <integer>71</integer>
	    <key>width</key>
	    <integer>88</integer>
	  </dict>
	</array>
      </dict>
    </dict>
  </lib>
</glyph>
