<?xml version="1.0" encoding="UTF-8"?>
<glyph name="uni04DB" format="1">
  <advance width="495"/>
  <unicode hex="04DB"/>
  <outline>
    <contour>
      <point x="373" y="702" type="line"/>
      <point x="351" y="599" type="line"/>
      <point x="247" y="599" type="line"/>
      <point x="269" y="702" type="line"/>
    </contour>
    <contour>
      <point x="534" y="702" type="line"/>
      <point x="512" y="599" type="line"/>
      <point x="408" y="599" type="line"/>
      <point x="430" y="702" type="line"/>
    </contour>
    <contour>
      <point x="454" y="244" type="line"/>
      <point x="462" y="275"/>
      <point x="466" y="306"/>
      <point x="466" y="335" type="curve" smooth="yes"/>
      <point x="466" y="413"/>
      <point x="422" y="462"/>
      <point x="353" y="462" type="curve" smooth="yes"/>
      <point x="281" y="462"/>
      <point x="226" y="418"/>
      <point x="196" y="336" type="curve"/>
      <point x="112" y="336" type="line"/>
      <point x="128" y="392"/>
      <point x="144" y="426"/>
      <point x="170" y="456" type="curve" smooth="yes"/>
      <point x="216" y="510"/>
      <point x="285" y="539"/>
      <point x="367" y="539" type="curve" smooth="yes"/>
      <point x="431" y="539"/>
      <point x="476" y="520"/>
      <point x="510" y="477" type="curve" smooth="yes"/>
      <point x="538" y="442"/>
      <point x="554" y="393"/>
      <point x="554" y="346" type="curve" smooth="yes"/>
      <point x="554" y="254"/>
      <point x="520" y="145"/>
      <point x="473" y="84" type="curve" smooth="yes"/>
      <point x="420" y="15"/>
      <point x="339" y="-23"/>
      <point x="249" y="-23" type="curve" smooth="yes"/>
      <point x="192" y="-23"/>
      <point x="151" y="-8"/>
      <point x="120" y="24" type="curve" smooth="yes"/>
      <point x="94" y="51"/>
      <point x="76" y="91"/>
      <point x="76" y="124" type="curve" smooth="yes"/>
      <point x="76" y="162"/>
      <point x="83" y="218"/>
      <point x="92" y="244" type="curve"/>
    </contour>
    <contour>
      <point x="426" y="168" type="curve"/>
      <point x="163" y="168" type="line"/>
      <point x="162" y="159"/>
      <point x="162" y="152"/>
      <point x="162" y="146" type="curve" smooth="yes"/>
      <point x="162" y="89"/>
      <point x="201" y="54"/>
      <point x="264" y="54" type="curve" smooth="yes"/>
      <point x="325" y="54"/>
      <point x="375" y="84"/>
      <point x="412" y="143" type="curve" smooth="yes"/>
      <point x="417" y="151"/>
      <point x="422" y="159"/>
    </contour>
  </outline>
  <lib>
    <dict>
      <key>com.fontlab.hintData</key>
      <dict>
	<key>hhints</key>
	<array>
	  <dict>
	    <key>position</key>	    <integer>-23</integer>
	    <key>width</key>	    <integer>77</integer>
	  </dict>
	  <dict>
	    <key>position</key>	    <integer>168</integer>
	    <key>width</key>	    <integer>76</integer>
	  </dict>
	  <dict>
	    <key>position</key>	    <integer>462</integer>
	    <key>width</key>	    <integer>77</integer>
	  </dict>
	  <dict>
	    <key>position</key>	    <integer>599</integer>
	    <key>width</key>	    <integer>103</integer>
	  </dict>
	</array>
	<key>vhints</key>
	<array>
	  <dict>
	    <key>position</key>
	    <integer>76</integer>
	    <key>width</key>
	    <integer>86</integer>
	  </dict>
	  <dict>
	    <key>position</key>
	    <integer>466</integer>
	    <key>width</key>
	    <integer>88</integer>
	  </dict>
	</array>
      </dict>
    </dict>
  </lib>
</glyph>
