<?xml version="1.0" encoding="UTF-8"?>
<glyph name="fi" format="1">
  <advance width="611"/>
  <unicode hex="FB01"/>
  <outline>
    <contour>
      <point x="227" y="455" type="curve"/>
      <point x="317" y="455" type="line" smooth="yes"/>
      <point x="381" y="455"/>
      <point x="423" y="458"/>
      <point x="513" y="469" type="curve"/>
      <point x="407" y="113" type="line" smooth="yes"/>
      <point x="398" y="80"/>
      <point x="395" y="68"/>
      <point x="395" y="57" type="curve" smooth="yes"/>
      <point x="395" y="45"/>
      <point x="402" y="36"/>
      <point x="412" y="36" type="curve" smooth="yes"/>
      <point x="439" y="36"/>
      <point x="486" y="83"/>
      <point x="534" y="158" type="curve"/>
      <point x="564" y="140" type="line"/>
      <point x="505" y="40"/>
      <point x="440" y="-14"/>
      <point x="377" y="-14" type="curve" smooth="yes"/>
      <point x="339" y="-14"/>
      <point x="309" y="13"/>
      <point x="309" y="49" type="curve" smooth="yes"/>
      <point x="309" y="71"/>
      <point x="311" y="81"/>
      <point x="332" y="149" type="curve"/>
      <point x="386" y="333" type="line" smooth="yes"/>
      <point x="398" y="376"/>
      <point x="398" y="376"/>
      <point x="398" y="385" type="curve" smooth="yes"/>
      <point x="398" y="402"/>
      <point x="384" y="408"/>
      <point x="342" y="408" type="curve" smooth="yes"/>
      <point x="216" y="408" type="line"/>
      <point x="154" y="161" type="line" smooth="yes"/>
      <point x="133" y="76"/>
      <point x="73" y="-123"/>
      <point x="50" y="-184" type="curve"/>
      <point x="-60" y="-202" type="line"/>
      <point x="-6" y="-88"/>
      <point x="48" y="71"/>
      <point x="88" y="234" type="curve"/>
      <point x="129" y="408" type="line"/>
      <point x="40" y="408" type="line"/>
      <point x="53" y="455" type="line"/>
      <point x="140" y="455" type="line"/>
      <point x="176" y="575"/>
      <point x="183" y="589"/>
      <point x="217" y="636" type="curve" smooth="yes"/>
      <point x="266" y="703"/>
      <point x="331" y="736"/>
      <point x="415" y="736" type="curve" smooth="yes"/>
      <point x="488" y="736"/>
      <point x="539" y="701"/>
      <point x="539" y="650" type="curve" smooth="yes"/>
      <point x="539" y="618"/>
      <point x="515" y="593"/>
      <point x="483" y="593" type="curve" smooth="yes"/>
      <point x="453" y="593"/>
      <point x="430" y="613"/>
      <point x="430" y="638" type="curve" smooth="yes"/>
      <point x="430" y="648"/>
      <point x="432" y="653"/>
      <point x="439" y="666" type="curve" smooth="yes"/>
      <point x="444" y="675"/>
      <point x="446" y="680"/>
      <point x="446" y="684" type="curve" smooth="yes"/>
      <point x="446" y="695"/>
      <point x="433" y="702"/>
      <point x="410" y="702" type="curve" smooth="yes"/>
      <point x="354" y="702"/>
      <point x="313" y="674"/>
      <point x="283" y="615" type="curve" smooth="yes"/>
      <point x="262" y="575"/>
      <point x="251" y="543"/>
    </contour>
  </outline>
  <lib>
    <dict>
      <key>com.fontlab.hintData</key>
      <dict>
	<key>hhints</key>
	<array>
	  <dict>
	    <key>position</key>	    <integer>-202</integer>
	    <key>width</key>	    <integer>20</integer>
	  </dict>
	  <dict>
	    <key>position</key>	    <integer>-14</integer>
	    <key>width</key>	    <integer>50</integer>
	  </dict>
	  <dict>
	    <key>position</key>	    <integer>408</integer>
	    <key>width</key>	    <integer>47</integer>
	  </dict>
	  <dict>
	    <key>position</key>	    <integer>702</integer>
	    <key>width</key>	    <integer>34</integer>
	  </dict>
	</array>
	<key>vhints</key>
	<array>
	  <dict>
	    <key>position</key>
	    <integer>309</integer>
	    <key>width</key>
	    <integer>86</integer>
	  </dict>
	  <dict>
	    <key>position</key>
	    <integer>446</integer>
	    <key>width</key>
	    <integer>93</integer>
	  </dict>
	</array>
      </dict>
    </dict>
  </lib>
</glyph>
