<?xml version="1.0" encoding="UTF-8"?>
<glyph name="itilde" format="1">
  <advance width="333"/>
  <unicode hex="0129"/>
  <outline>
    <contour>
      <point x="382" y="676" type="curve"/>
      <point x="412" y="676" type="line"/>
      <point x="405" y="618"/>
      <point x="363" y="571"/>
      <point x="319" y="571" type="curve" smooth="yes"/>
      <point x="297" y="571"/>
      <point x="288" y="573"/>
      <point x="233" y="594" type="curve" smooth="yes"/>
      <point x="189" y="610"/>
      <point x="173" y="615"/>
      <point x="159" y="615" type="curve" smooth="yes"/>
      <point x="137" y="615"/>
      <point x="122" y="600"/>
      <point x="114" y="570" type="curve"/>
      <point x="84" y="570" type="line"/>
      <point x="96" y="636"/>
      <point x="129" y="675"/>
      <point x="174" y="675" type="curve" smooth="yes"/>
      <point x="191" y="675"/>
      <point x="215" y="669"/>
      <point x="274" y="649" type="curve" smooth="yes"/>
      <point x="310" y="636"/>
      <point x="319" y="634"/>
      <point x="333" y="634" type="curve" smooth="yes"/>
      <point x="355" y="634"/>
      <point x="370" y="646"/>
    </contour>
    <contour>
      <point x="231" y="470" type="line"/>
      <point x="125" y="113" type="line" smooth="yes"/>
      <point x="117" y="85"/>
      <point x="113" y="67"/>
      <point x="113" y="57" type="curve" smooth="yes"/>
      <point x="113" y="45"/>
      <point x="120" y="36"/>
      <point x="130" y="36" type="curve" smooth="yes"/>
      <point x="157" y="36"/>
      <point x="201" y="80"/>
      <point x="251" y="157" type="curve"/>
      <point x="282" y="140" type="line"/>
      <point x="254" y="97"/>
      <point x="238" y="75"/>
      <point x="220" y="55" type="curve" smooth="yes"/>
      <point x="180" y="9"/>
      <point x="139" y="-14"/>
      <point x="96" y="-14" type="curve" smooth="yes"/>
      <point x="57" y="-14"/>
      <point x="27" y="13"/>
      <point x="27" y="48" type="curve" smooth="yes"/>
      <point x="27" y="70"/>
      <point x="31" y="86"/>
      <point x="49" y="149" type="curve" smooth="yes"/>
      <point x="107" y="344" type="line" smooth="yes"/>
      <point x="113" y="366"/>
      <point x="116" y="379"/>
      <point x="116" y="388" type="curve" smooth="yes"/>
      <point x="116" y="410"/>
      <point x="100" y="419"/>
      <point x="59" y="419" type="curve" smooth="yes"/>
      <point x="35" y="419" type="line"/>
      <point x="39" y="455" type="line"/>
    </contour>
  </outline>
  <lib>
    <dict>
      <key>com.fontlab.hintData</key>
      <dict>
	<key>hhints</key>
	<array>
	  <dict>
	    <key>position</key>	    <integer>-14</integer>
	    <key>width</key>	    <integer>50</integer>
	  </dict>
	  <dict>
	    <key>position</key>	    <integer>419</integer>
	    <key>width</key>	    <integer>36</integer>
	  </dict>
	  <dict>
	    <key>position</key>	    <integer>571</integer>
	    <key>width</key>	    <integer>63</integer>
	  </dict>
	  <dict>
	    <key>position</key>	    <integer>615</integer>
	    <key>width</key>	    <integer>60</integer>
	  </dict>
	</array>
      </dict>
    </dict>
  </lib>
</glyph>
