<?xml version="1.0" encoding="UTF-8"?>
<glyph name="onehalf" format="1">
  <advance width="834"/>
  <unicode hex="00BD"/>
  <outline>
    <contour>
      <point x="599" y="708" type="line"/>
      <point x="653" y="708" type="line"/>
      <point x="270" y="0" type="line"/>
      <point x="216" y="0" type="line"/>
    </contour>
    <contour>
      <point x="299" y="712" type="line"/>
      <point x="199" y="363" type="line" smooth="yes"/>
      <point x="193" y="339"/>
      <point x="193" y="339"/>
      <point x="193" y="335" type="curve" smooth="yes"/>
      <point x="193" y="324"/>
      <point x="201" y="322"/>
      <point x="240" y="322" type="curve" smooth="yes"/>
      <point x="278" y="322" type="line"/>
      <point x="273" y="288" type="line"/>
      <point x="33" y="288" type="line"/>
      <point x="37" y="322" type="line"/>
      <point x="68" y="322" type="line" smooth="yes"/>
      <point x="97" y="322"/>
      <point x="112" y="324"/>
      <point x="118" y="329" type="curve" smooth="yes"/>
      <point x="122" y="333"/>
      <point x="122" y="333"/>
      <point x="131" y="364" type="curve" smooth="yes"/>
      <point x="199" y="601" type="line" smooth="yes"/>
      <point x="199" y="602"/>
      <point x="201" y="607"/>
      <point x="204" y="614" type="curve"/>
      <point x="205" y="619"/>
      <point x="206" y="623"/>
      <point x="206" y="627" type="curve" smooth="yes"/>
      <point x="206" y="634"/>
      <point x="203" y="635"/>
      <point x="166" y="635" type="curve" smooth="yes"/>
      <point x="118" y="635" type="line"/>
      <point x="127" y="667" type="line"/>
      <point x="173" y="667"/>
      <point x="241" y="687"/>
      <point x="275" y="712" type="curve"/>
    </contour>
    <contour>
      <point x="771" y="0" type="line"/>
      <point x="491" y="0" type="line"/>
      <point x="496" y="37"/>
      <point x="520" y="60"/>
      <point x="694" y="200" type="curve" smooth="yes"/>
      <point x="750" y="245"/>
      <point x="771" y="278"/>
      <point x="771" y="320" type="curve" smooth="yes"/>
      <point x="771" y="360"/>
      <point x="742" y="386"/>
      <point x="698" y="386" type="curve" smooth="yes"/>
      <point x="658" y="386"/>
      <point x="612" y="359"/>
      <point x="612" y="336" type="curve" smooth="yes"/>
      <point x="612" y="330"/>
      <point x="614" y="328"/>
      <point x="628" y="321" type="curve" smooth="yes"/>
      <point x="649" y="310"/>
      <point x="658" y="299"/>
      <point x="658" y="282" type="curve" smooth="yes"/>
      <point x="658" y="259"/>
      <point x="639" y="241"/>
      <point x="614" y="241" type="curve" smooth="yes"/>
      <point x="582" y="241"/>
      <point x="562" y="264"/>
      <point x="562" y="299" type="curve" smooth="yes"/>
      <point x="562" y="365"/>
      <point x="634" y="422"/>
      <point x="716" y="422" type="curve" smooth="yes"/>
      <point x="792" y="422"/>
      <point x="844" y="379"/>
      <point x="844" y="315" type="curve" smooth="yes"/>
      <point x="844" y="268"/>
      <point x="822" y="232"/>
      <point x="771" y="195" type="curve" smooth="yes"/>
      <point x="754" y="183"/>
      <point x="752" y="181"/>
      <point x="663" y="124" type="curve" smooth="yes"/>
      <point x="618" y="95"/>
      <point x="588" y="73"/>
      <point x="574" y="57" type="curve"/>
      <point x="716" y="57" type="line" smooth="yes"/>
      <point x="745" y="57"/>
      <point x="753" y="62"/>
      <point x="775" y="100" type="curve" smooth="yes"/>
      <point x="793" y="130" type="line"/>
      <point x="822" y="119" type="line"/>
    </contour>
  </outline>
  <lib>
    <dict>
      <key>com.fontlab.hintData</key>
      <dict>
	<key>hhints</key>
	<array>
	  <dict>
	    <key>position</key>	    <integer>0</integer>
	    <key>width</key>	    <integer>57</integer>
	  </dict>
	  <dict>
	    <key>position</key>	    <integer>288</integer>
	    <key>width</key>	    <integer>34</integer>
	  </dict>
	  <dict>
	    <key>position</key>	    <integer>386</integer>
	    <key>width</key>	    <integer>36</integer>
	  </dict>
	</array>
	<key>vhints</key>
	<array>
	  <dict>
	    <key>position</key>
	    <integer>771</integer>
	    <key>width</key>
	    <integer>73</integer>
	  </dict>
	</array>
      </dict>
    </dict>
  </lib>
</glyph>
