<?xml version="1.0" encoding="UTF-8"?>
<glyph name="uni04EC" format="1">
  <advance width="716"/>
  <unicode hex="04EC"/>
  <outline>
    <contour>
      <point x="378" y="898" type="curve" smooth="yes"/>
      <point x="405" y="898"/>
      <point x="427" y="876"/>
      <point x="427" y="849" type="curve" smooth="yes"/>
      <point x="427" y="822"/>
      <point x="405" y="800"/>
      <point x="378" y="800" type="curve" smooth="yes"/>
      <point x="351" y="800"/>
      <point x="329" y="822"/>
      <point x="329" y="849" type="curve" smooth="yes"/>
      <point x="329" y="876"/>
      <point x="351" y="898"/>
    </contour>
    <contour>
      <point x="580" y="898" type="curve" smooth="yes"/>
      <point x="607" y="898"/>
      <point x="629" y="876"/>
      <point x="629" y="849" type="curve" smooth="yes"/>
      <point x="629" y="822"/>
      <point x="607" y="800"/>
      <point x="580" y="800" type="curve" smooth="yes"/>
      <point x="553" y="800"/>
      <point x="531" y="822"/>
      <point x="531" y="849" type="curve" smooth="yes"/>
      <point x="531" y="876"/>
      <point x="553" y="898"/>
    </contour>
    <contour>
      <point x="238" y="350" type="line"/>
      <point x="250" y="397" type="line"/>
      <point x="537" y="397" type="line"/>
      <point x="547" y="444"/>
      <point x="552" y="484"/>
      <point x="552" y="519" type="curve" smooth="yes"/>
      <point x="552" y="625"/>
      <point x="504" y="690"/>
      <point x="408" y="690" type="curve" smooth="yes"/>
      <point x="338" y="690"/>
      <point x="282" y="664"/>
      <point x="227" y="600" type="curve" smooth="yes"/>
      <point x="199" y="567"/>
      <point x="174" y="528"/>
      <point x="130" y="451" type="curve"/>
      <point x="86" y="451" type="line"/>
      <point x="178" y="740" type="line"/>
      <point x="216" y="740" type="line"/>
      <point x="240" y="681" type="line"/>
      <point x="325" y="733"/>
      <point x="353" y="737"/>
      <point x="420" y="737" type="curve" smooth="yes"/>
      <point x="517" y="737"/>
      <point x="587" y="698"/>
      <point x="633" y="617" type="curve" smooth="yes"/>
      <point x="660" y="570"/>
      <point x="674" y="520"/>
      <point x="674" y="465" type="curve" smooth="yes"/>
      <point x="674" y="202"/>
      <point x="448" y="-15"/>
      <point x="222" y="-15" type="curve" smooth="yes"/>
      <point x="78" y="-15"/>
      <point x="3" y="65"/>
      <point x="3" y="185" type="curve" smooth="yes"/>
      <point x="3" y="256"/>
      <point x="33" y="292"/>
      <point x="86" y="292" type="curve" smooth="yes"/>
      <point x="119" y="292"/>
      <point x="145" y="271"/>
      <point x="145" y="238" type="curve" smooth="yes"/>
      <point x="145" y="206"/>
      <point x="123" y="177"/>
      <point x="100" y="174" type="curve" smooth="yes"/>
      <point x="77" y="171"/>
      <point x="62" y="173"/>
      <point x="62" y="150" type="curve" smooth="yes"/>
      <point x="62" y="81"/>
      <point x="131" y="32"/>
      <point x="223" y="32" type="curve" smooth="yes"/>
      <point x="371" y="32"/>
      <point x="468" y="135"/>
      <point x="525" y="350" type="curve"/>
    </contour>
  </outline>
  <lib>
    <dict>
      <key>com.fontlab.hintData</key>
      <dict>
	<key>hhints</key>
	<array>
	  <dict>
	    <key>position</key>	    <integer>-15</integer>
	    <key>width</key>	    <integer>47</integer>
	  </dict>
	  <dict>
	    <key>position</key>	    <integer>350</integer>
	    <key>width</key>	    <integer>47</integer>
	  </dict>
	  <dict>
	    <key>position</key>	    <integer>690</integer>
	    <key>width</key>	    <integer>47</integer>
	  </dict>
	  <dict>
	    <key>position</key>	    <integer>800</integer>
	    <key>width</key>	    <integer>98</integer>
	  </dict>
	</array>
	<key>vhints</key>
	<array>
	  <dict>
	    <key>position</key>
	    <integer>3</integer>
	    <key>width</key>
	    <integer>59</integer>
	  </dict>
	  <dict>
	    <key>position</key>
	    <integer>329</integer>
	    <key>width</key>
	    <integer>98</integer>
	  </dict>
	  <dict>
	    <key>position</key>
	    <integer>531</integer>
	    <key>width</key>
	    <integer>98</integer>
	  </dict>
	  <dict>
	    <key>position</key>
	    <integer>552</integer>
	    <key>width</key>
	    <integer>122</integer>
	  </dict>
	</array>
      </dict>
    </dict>
  </lib>
</glyph>
