<?xml version="1.0" encoding="UTF-8"?>
<glyph name="afii10085" format="1">
  <advance width="556"/>
  <unicode hex="0443"/>
  <outline>
    <contour>
      <point x="275" y="421" type="line"/>
      <point x="240" y="419" type="line" smooth="yes"/>
      <point x="225" y="418"/>
      <point x="214" y="409"/>
      <point x="214" y="396" type="curve" smooth="yes"/>
      <point x="214" y="386"/>
      <point x="217" y="377"/>
      <point x="225" y="358" type="curve" smooth="yes"/>
      <point x="228" y="351"/>
      <point x="231" y="344"/>
      <point x="231" y="343" type="curve" smooth="yes"/>
      <point x="315" y="125" type="line"/>
      <point x="416" y="377" type="line" smooth="yes"/>
      <point x="418" y="382"/>
      <point x="420" y="393"/>
      <point x="420" y="399" type="curve" smooth="yes"/>
      <point x="420" y="410"/>
      <point x="409" y="418"/>
      <point x="393" y="419" type="curve" smooth="yes"/>
      <point x="360" y="421" type="line"/>
      <point x="360" y="459" type="line"/>
      <point x="419" y="457"/>
      <point x="450" y="456"/>
      <point x="453" y="456" type="curve" smooth="yes"/>
      <point x="546" y="459" type="line"/>
      <point x="546" y="421" type="line"/>
      <point x="520" y="416" type="line" smooth="yes"/>
      <point x="506" y="413"/>
      <point x="491" y="396"/>
      <point x="479" y="369" type="curve" smooth="yes"/>
      <point x="280" y="-94" type="line" smooth="yes"/>
      <point x="229" y="-212"/>
      <point x="174" y="-266"/>
      <point x="104" y="-266" type="curve" smooth="yes"/>
      <point x="81" y="-266"/>
      <point x="58" y="-261"/>
      <point x="31" y="-249" type="curve"/>
      <point x="49" y="-154" type="line"/>
      <point x="60" y="-150" type="line"/>
      <point x="83" y="-176"/>
      <point x="104" y="-187"/>
      <point x="130" y="-187" type="curve" smooth="yes"/>
      <point x="164" y="-187"/>
      <point x="199" y="-153"/>
      <point x="222" y="-96" type="curve" smooth="yes"/>
      <point x="245" y="-40" type="line"/>
      <point x="87" y="364" type="line" smooth="yes"/>
      <point x="72" y="402"/>
      <point x="60" y="418"/>
      <point x="45" y="419" type="curve" smooth="yes"/>
      <point x="10" y="421" type="line"/>
      <point x="10" y="459" type="line"/>
      <point x="114" y="456"/>
      <point x="130" y="456"/>
      <point x="143" y="456" type="curve" smooth="yes"/>
      <point x="275" y="459" type="line"/>
    </contour>
  </outline>
  <lib>
    <dict>
      <key>com.fontlab.hintData</key>
      <dict>
	<key>hhints</key>
	<array>
	  <dict>
	    <key>position</key>	    <integer>-266</integer>
	    <key>width</key>	    <integer>79</integer>
	  </dict>
	  <dict>
	    <key>position</key>	    <integer>421</integer>
	    <key>width</key>	    <integer>38</integer>
	  </dict>
	</array>
      </dict>
    </dict>
  </lib>
</glyph>
