<?xml version="1.0" encoding="UTF-8"?>
<glyph name="afii10072" format="1">
  <advance width="900"/>
  <unicode hex="0436"/>
  <outline>
    <contour>
      <point x="387" y="356" type="line" smooth="yes"/>
      <point x="387" y="410"/>
      <point x="382" y="418"/>
      <point x="351" y="420" type="curve" smooth="yes"/>
      <point x="316" y="422" type="line"/>
      <point x="316" y="459" type="line"/>
      <point x="445" y="456" type="line"/>
      <point x="445" y="456"/>
      <point x="513" y="457"/>
      <point x="580" y="459" type="curve"/>
      <point x="580" y="422" type="line"/>
      <point x="545" y="420" type="line" smooth="yes"/>
      <point x="514" y="418"/>
      <point x="509" y="400"/>
      <point x="509" y="342" type="curve" smooth="yes"/>
      <point x="509" y="273" type="line"/>
      <point x="722" y="459" type="line"/>
      <point x="852" y="459" type="line"/>
      <point x="852" y="421" type="line"/>
      <point x="821" y="421" type="line" smooth="yes"/>
      <point x="806" y="421"/>
      <point x="789" y="415"/>
      <point x="773" y="403" type="curve"/>
      <point x="633" y="286" type="line"/>
      <point x="829" y="66" type="line" smooth="yes"/>
      <point x="847" y="46"/>
      <point x="863" y="36"/>
      <point x="884" y="34" type="curve"/>
      <point x="884" y="0" type="line"/>
      <point x="712" y="0" type="line"/>
      <point x="509" y="229" type="line"/>
      <point x="509" y="100" type="line" smooth="yes"/>
      <point x="509" y="46"/>
      <point x="514" y="38"/>
      <point x="545" y="36" type="curve" smooth="yes"/>
      <point x="580" y="34" type="line"/>
      <point x="580" y="-3" type="line"/>
      <point x="513" y="-1"/>
      <point x="465" y="0"/>
      <point x="445" y="0" type="curve" smooth="yes"/>
      <point x="316" y="-3" type="line"/>
      <point x="316" y="34" type="line"/>
      <point x="351" y="36" type="line" smooth="yes"/>
      <point x="382" y="38"/>
      <point x="387" y="46"/>
      <point x="387" y="100" type="curve" smooth="yes"/>
      <point x="387" y="229" type="line"/>
      <point x="184" y="0" type="line"/>
      <point x="12" y="0" type="line"/>
      <point x="12" y="34" type="line"/>
      <point x="33" y="36"/>
      <point x="49" y="46"/>
      <point x="67" y="66" type="curve" smooth="yes"/>
      <point x="263" y="286" type="line"/>
      <point x="123" y="403" type="line"/>
      <point x="107" y="415"/>
      <point x="90" y="421"/>
      <point x="75" y="421" type="curve" smooth="yes"/>
      <point x="44" y="421" type="line"/>
      <point x="44" y="459" type="line"/>
      <point x="174" y="459" type="line"/>
      <point x="387" y="273" type="line"/>
    </contour>
  </outline>
  <lib>
    <dict>
      <key>com.fontlab.hintData</key>
      <dict>
	<key>hhints</key>
	<array>
	  <dict>
	    <key>position</key>	    <integer>-3</integer>
	    <key>width</key>	    <integer>37</integer>
	  </dict>
	  <dict>
	    <key>position</key>	    <integer>422</integer>
	    <key>width</key>	    <integer>37</integer>
	  </dict>
	</array>
	<key>vhints</key>
	<array>
	  <dict>
	    <key>position</key>
	    <integer>387</integer>
	    <key>width</key>
	    <integer>122</integer>
	  </dict>
	</array>
      </dict>
    </dict>
  </lib>
</glyph>
