<?xml version="1.0" encoding="UTF-8"?>
<glyph name="hyphen" format="1">
  <advance width="333"/>
  <unicode hex="002D"/>
  <outline>
    <contour>
      <point x="50" y="305" type="curve"/>
      <point x="308" y="305" type="line"/>
      <point x="317" y="295" type="line"/>
      <point x="301" y="259"/>
      <point x="290" y="223"/>
      <point x="285" y="195" type="curve"/>
      <point x="24" y="195" type="line"/>
      <point x="16" y="203" type="line"/>
      <point x="21" y="218"/>
      <point x="24" y="227"/>
      <point x="31" y="246" type="curve" smooth="yes"/>
      <point x="43" y="281"/>
      <point x="45" y="287"/>
    </contour>
  </outline>
  <lib>
    <dict>
      <key>com.fontlab.hintData</key>
      <dict>
	<key>hhints</key>
	<array>
	  <dict>
	    <key>position</key>	    <integer>195</integer>
	    <key>width</key>	    <integer>110</integer>
	  </dict>
	</array>
      </dict>
    </dict>
  </lib>
</glyph>
