<?xml version="1.0" encoding="UTF-8"?>
<glyph name="lcommaaccent" format="1">
  <advance width="333"/>
  <unicode hex="013C"/>
  <outline>
    <contour>
      <point x="217" y="720" type="line"/>
      <point x="225" y="714" type="line"/>
      <point x="225" y="100" type="line" smooth="yes"/>
      <point x="225" y="46"/>
      <point x="230" y="38"/>
      <point x="261" y="36" type="curve" smooth="yes"/>
      <point x="296" y="34" type="line"/>
      <point x="296" y="-3" type="line"/>
      <point x="229" y="-1"/>
      <point x="181" y="0"/>
      <point x="161" y="0" type="curve" smooth="yes"/>
      <point x="32" y="-3" type="line"/>
      <point x="32" y="34" type="line"/>
      <point x="67" y="36" type="line" smooth="yes"/>
      <point x="98" y="38"/>
      <point x="103" y="46"/>
      <point x="103" y="100" type="curve" smooth="yes"/>
      <point x="103" y="568" type="line" smooth="yes"/>
      <point x="103" y="627"/>
      <point x="99" y="637"/>
      <point x="77" y="638" type="curve" smooth="yes"/>
      <point x="24" y="641" type="line"/>
      <point x="24" y="677" type="line"/>
      <point x="82" y="683"/>
      <point x="116" y="689"/>
      <point x="145" y="698" type="curve" smooth="yes"/>
    </contour>
    <contour>
      <point x="120" y="-277" type="curve"/>
      <point x="61" y="-301" type="line"/>
      <point x="48" y="-287" type="line"/>
      <point x="79" y="-217"/>
      <point x="104" y="-134"/>
      <point x="115" y="-70" type="curve"/>
      <point x="157" y="-65"/>
      <point x="199" y="-54"/>
      <point x="233" y="-40" type="curve"/>
      <point x="246" y="-52" type="line"/>
      <point x="220" y="-111"/>
      <point x="171" y="-198"/>
    </contour>
  </outline>
  <lib>
    <dict>
      <key>com.fontlab.hintData</key>
      <dict>
	<key>hhints</key>
	<array>
	  <dict>
	    <key>position</key>	    <integer>-3</integer>
	    <key>width</key>	    <integer>37</integer>
	  </dict>
	  <dict>
	    <key>position</key>	    <integer>641</integer>
	    <key>width</key>	    <integer>36</integer>
	  </dict>
	</array>
	<key>vhints</key>
	<array>
	  <dict>
	    <key>position</key>
	    <integer>103</integer>
	    <key>width</key>
	    <integer>122</integer>
	  </dict>
	</array>
      </dict>
    </dict>
  </lib>
</glyph>
