<?xml version="1.0" encoding="UTF-8"?>
<glyph name="uni049B" format="1">
  <advance width="611"/>
  <unicode hex="049B"/>
  <outline>
    <contour>
      <point x="425" y="0" type="line"/>
      <point x="222" y="229" type="line"/>
      <point x="222" y="100" type="line" smooth="yes"/>
      <point x="222" y="46"/>
      <point x="227" y="38"/>
      <point x="258" y="36" type="curve" smooth="yes"/>
      <point x="293" y="34" type="line"/>
      <point x="293" y="-3" type="line"/>
      <point x="226" y="-1"/>
      <point x="178" y="0"/>
      <point x="158" y="0" type="curve" smooth="yes"/>
      <point x="29" y="-3" type="line"/>
      <point x="29" y="34" type="line"/>
      <point x="64" y="36" type="line" smooth="yes"/>
      <point x="95" y="38"/>
      <point x="100" y="46"/>
      <point x="100" y="100" type="curve" smooth="yes"/>
      <point x="100" y="319" type="line" smooth="yes"/>
      <point x="100" y="378"/>
      <point x="96" y="388"/>
      <point x="74" y="389" type="curve" smooth="yes"/>
      <point x="21" y="392" type="line"/>
      <point x="21" y="428" type="line"/>
      <point x="79" y="434"/>
      <point x="113" y="440"/>
      <point x="142" y="449" type="curve" smooth="yes"/>
      <point x="214" y="471" type="line"/>
      <point x="222" y="465" type="line"/>
      <point x="222" y="273" type="line"/>
      <point x="435" y="459" type="line"/>
      <point x="565" y="459" type="line"/>
      <point x="565" y="421" type="line"/>
      <point x="534" y="421" type="line" smooth="yes"/>
      <point x="519" y="421"/>
      <point x="502" y="415"/>
      <point x="486" y="403" type="curve"/>
      <point x="346" y="286" type="line"/>
      <point x="542" y="66" type="line" smooth="yes"/>
      <point x="560" y="46"/>
      <point x="576" y="36"/>
      <point x="597" y="34" type="curve"/>
      <point x="600" y="-105" type="line"/>
      <point x="562" y="-105" type="line"/>
      <point x="559" y="-80" type="line" smooth="yes"/>
      <point x="553" y="-32"/>
      <point x="539" y="-6"/>
      <point x="483" y="-3" type="curve" smooth="yes"/>
    </contour>
  </outline>
  <lib>
    <dict>
      <key>com.fontlab.hintData</key>
      <dict>
	<key>hhints</key>
	<array>
	  <dict>
	    <key>position</key>	    <integer>-3</integer>
	    <key>width</key>	    <integer>37</integer>
	  </dict>
	  <dict>
	    <key>position</key>	    <integer>421</integer>
	    <key>width</key>	    <integer>38</integer>
	  </dict>
	</array>
	<key>vhints</key>
	<array>
	  <dict>
	    <key>position</key>
	    <integer>100</integer>
	    <key>width</key>
	    <integer>122</integer>
	  </dict>
	  <dict>
	    <key>position</key>
	    <integer>562</integer>
	    <key>width</key>
	    <integer>38</integer>
	  </dict>
	</array>
      </dict>
    </dict>
  </lib>
</glyph>
