<?xml version="1.0" encoding="UTF-8"?>
<glyph name="afii10068" format="1">
  <advance width="454"/>
  <unicode hex="0433"/>
  <outline>
    <contour>
      <point x="408" y="540" type="line"/>
      <point x="408" y="427" type="line"/>
      <point x="200" y="427" type="line"/>
      <point x="200" y="0" type="line"/>
      <point x="60" y="0" type="line"/>
      <point x="60" y="540" type="line"/>
    </contour>
  </outline>
  <lib>
    <dict>
      <key>com.fontlab.hintData</key>
      <dict>
	<key>hhints</key>
	<array>
	  <dict>
	    <key>position</key>	    <integer>0</integer>
	    <key>width</key>	    <integer>21</integer>
	  </dict>
	  <dict>
	    <key>position</key>	    <integer>427</integer>
	    <key>width</key>	    <integer>113</integer>
	  </dict>
	</array>
	<key>vhints</key>
	<array>
	  <dict>
	    <key>position</key>
	    <integer>60</integer>
	    <key>width</key>
	    <integer>140</integer>
	  </dict>
	</array>
      </dict>
    </dict>
  </lib>
</glyph>
