<?xml version="1.0" encoding="UTF-8"?>
<glyph name="aogonek" format="1">
  <advance width="556"/>
  <unicode hex="0105"/>
  <outline>
    <contour>
      <point x="524" y="17" type="curve"/>
      <point x="524" y="0" type="line"/>
      <point x="453" y="-38"/>
      <point x="415" y="-82"/>
      <point x="415" y="-129" type="curve" smooth="yes"/>
      <point x="415" y="-165"/>
      <point x="439" y="-182"/>
      <point x="491" y="-182" type="curve" smooth="yes"/>
      <point x="510" y="-182"/>
      <point x="529" y="-180"/>
      <point x="548" y="-177" type="curve"/>
      <point x="548" y="-224" type="line"/>
      <point x="520" y="-231"/>
      <point x="500" y="-233"/>
      <point x="473" y="-233" type="curve" smooth="yes"/>
      <point x="380" y="-233"/>
      <point x="325" y="-198"/>
      <point x="325" y="-139" type="curve" smooth="yes"/>
      <point x="325" y="-80"/>
      <point x="372" y="-27"/>
      <point x="449" y="0" type="curve"/>
      <point x="372" y="0" type="line"/>
      <point x="359" y="16"/>
      <point x="356" y="26"/>
      <point x="356" y="54" type="curve"/>
      <point x="307" y="3"/>
      <point x="252" y="-23"/>
      <point x="192" y="-23" type="curve" smooth="yes"/>
      <point x="144" y="-23"/>
      <point x="97" y="-4"/>
      <point x="66" y="28" type="curve" smooth="yes"/>
      <point x="41" y="55"/>
      <point x="28" y="93"/>
      <point x="28" y="139" type="curve" smooth="yes"/>
      <point x="28" y="236"/>
      <point x="80" y="291"/>
      <point x="187" y="309" type="curve"/>
      <point x="243" y="319" type="line"/>
      <point x="312" y="330"/>
      <point x="312" y="330"/>
      <point x="331" y="340" type="curve" smooth="yes"/>
      <point x="346" y="348"/>
      <point x="355" y="364"/>
      <point x="355" y="382" type="curve" smooth="yes"/>
      <point x="355" y="418"/>
      <point x="328" y="436"/>
      <point x="274" y="436" type="curve" smooth="yes"/>
      <point x="205" y="436"/>
      <point x="182" y="418"/>
      <point x="175" y="362" type="curve"/>
      <point x="40" y="362" type="line"/>
      <point x="49" y="487"/>
      <point x="125" y="549"/>
      <point x="271" y="549" type="curve" smooth="yes"/>
      <point x="417" y="549"/>
      <point x="492" y="493"/>
      <point x="492" y="383" type="curve" smooth="yes"/>
      <point x="492" y="83" type="line" smooth="yes"/>
      <point x="492" y="55"/>
      <point x="499" y="40"/>
    </contour>
    <contour>
      <point x="355" y="217" type="curve" smooth="yes"/>
      <point x="355" y="255" type="line"/>
      <point x="339" y="247"/>
      <point x="333" y="245"/>
      <point x="296" y="238" type="curve" smooth="yes"/>
      <point x="248" y="229" type="line"/>
      <point x="190" y="217"/>
      <point x="168" y="197"/>
      <point x="168" y="155" type="curve" smooth="yes"/>
      <point x="168" y="115"/>
      <point x="197" y="90"/>
      <point x="244" y="90" type="curve" smooth="yes"/>
      <point x="315" y="90"/>
      <point x="355" y="136"/>
    </contour>
  </outline>
  <lib>
    <dict>
      <key>com.fontlab.hintData</key>
      <dict>
	<key>hhints</key>
	<array>
	  <dict>
	    <key>position</key>	    <integer>-233</integer>
	    <key>width</key>	    <integer>51</integer>
	  </dict>
	  <dict>
	    <key>position</key>	    <integer>-23</integer>
	    <key>width</key>	    <integer>113</integer>
	  </dict>
	  <dict>
	    <key>position</key>	    <integer>436</integer>
	    <key>width</key>	    <integer>113</integer>
	  </dict>
	</array>
	<key>vhints</key>
	<array>
	  <dict>
	    <key>position</key>
	    <integer>28</integer>
	    <key>width</key>
	    <integer>140</integer>
	  </dict>
	  <dict>
	    <key>position</key>
	    <integer>325</integer>
	    <key>width</key>
	    <integer>90</integer>
	  </dict>
	  <dict>
	    <key>position</key>
	    <integer>355</integer>
	    <key>width</key>
	    <integer>137</integer>
	  </dict>
	</array>
      </dict>
    </dict>
  </lib>
</glyph>
