<?xml version="1.0" encoding="UTF-8"?>
<glyph name="u" format="1">
  <advance width="611"/>
  <unicode hex="0075"/>
  <outline>
    <contour>
      <point x="541" y="0" type="line"/>
      <point x="401" y="0" type="line"/>
      <point x="401" y="64" type="line"/>
      <point x="361" y="4"/>
      <point x="312" y="-23"/>
      <point x="239" y="-23" type="curve" smooth="yes"/>
      <point x="124" y="-23"/>
      <point x="58" y="45"/>
      <point x="58" y="164" type="curve" smooth="yes"/>
      <point x="58" y="540" type="line"/>
      <point x="198" y="540" type="line"/>
      <point x="198" y="193" type="line" smooth="yes"/>
      <point x="198" y="128"/>
      <point x="228" y="96"/>
      <point x="288" y="96" type="curve" smooth="yes"/>
      <point x="356" y="96"/>
      <point x="401" y="138"/>
      <point x="401" y="202" type="curve" smooth="yes"/>
      <point x="401" y="540" type="line"/>
      <point x="541" y="540" type="line"/>
    </contour>
  </outline>
  <lib>
    <dict>
      <key>com.fontlab.hintData</key>
      <dict>
	<key>hhints</key>
	<array>
	  <dict>
	    <key>position</key>	    <integer>-23</integer>
	    <key>width</key>	    <integer>119</integer>
	  </dict>
	  <dict>
	    <key>position</key>	    <integer>520</integer>
	    <key>width</key>	    <integer>20</integer>
	  </dict>
	</array>
	<key>vhints</key>
	<array>
	  <dict>
	    <key>position</key>
	    <integer>58</integer>
	    <key>width</key>
	    <integer>140</integer>
	  </dict>
	  <dict>
	    <key>position</key>
	    <integer>401</integer>
	    <key>width</key>
	    <integer>140</integer>
	  </dict>
	</array>
      </dict>
    </dict>
  </lib>
</glyph>
