<?xml version="1.0" encoding="UTF-8"?>
<glyph name="afii10033" format="1">
  <advance width="870"/>
  <unicode hex="041F"/>
  <outline>
    <contour>
      <point x="565" y="662" type="line"/>
      <point x="304" y="662" type="line"/>
      <point x="304" y="144" type="line" smooth="yes"/>
      <point x="304" y="80"/>
      <point x="304" y="77"/>
      <point x="311" y="69" type="curve" smooth="yes"/>
      <point x="320" y="58"/>
      <point x="342" y="54"/>
      <point x="394" y="54" type="curve" smooth="yes"/>
      <point x="409" y="54" type="line"/>
      <point x="409" y="0" type="line"/>
      <point x="20" y="0" type="line"/>
      <point x="20" y="54" type="line"/>
      <point x="35" y="54" type="line" smooth="yes"/>
      <point x="87" y="54"/>
      <point x="108" y="58"/>
      <point x="117" y="69" type="curve" smooth="yes"/>
      <point x="124" y="77"/>
      <point x="124" y="81"/>
      <point x="124" y="144" type="curve" smooth="yes"/>
      <point x="124" y="577" type="line" smooth="yes"/>
      <point x="124" y="641"/>
      <point x="124" y="645"/>
      <point x="117" y="653" type="curve" smooth="yes"/>
      <point x="108" y="664"/>
      <point x="87" y="668"/>
      <point x="35" y="668" type="curve" smooth="yes"/>
      <point x="20" y="668" type="line"/>
      <point x="20" y="722" type="line"/>
      <point x="850" y="722" type="line"/>
      <point x="850" y="668" type="line"/>
      <point x="835" y="668" type="line" smooth="yes"/>
      <point x="783" y="668"/>
      <point x="761" y="664"/>
      <point x="752" y="653" type="curve" smooth="yes"/>
      <point x="745" y="645"/>
      <point x="746" y="641"/>
      <point x="746" y="577" type="curve" smooth="yes"/>
      <point x="746" y="144" type="line" smooth="yes"/>
      <point x="746" y="80"/>
      <point x="745" y="77"/>
      <point x="752" y="69" type="curve" smooth="yes"/>
      <point x="761" y="58"/>
      <point x="783" y="54"/>
      <point x="835" y="54" type="curve" smooth="yes"/>
      <point x="850" y="54" type="line"/>
      <point x="850" y="0" type="line"/>
      <point x="461" y="0" type="line"/>
      <point x="461" y="54" type="line"/>
      <point x="476" y="54" type="line" smooth="yes"/>
      <point x="528" y="54"/>
      <point x="549" y="58"/>
      <point x="558" y="69" type="curve" smooth="yes"/>
      <point x="565" y="77"/>
      <point x="565" y="81"/>
      <point x="565" y="144" type="curve" smooth="yes"/>
    </contour>
  </outline>
  <lib>
    <dict>
      <key>com.fontlab.hintData</key>
      <dict>
	<key>hhints</key>
	<array>
	  <dict>
	    <key>position</key>	    <integer>0</integer>
	    <key>width</key>	    <integer>54</integer>
	  </dict>
	  <dict>
	    <key>position</key>	    <integer>668</integer>
	    <key>width</key>	    <integer>54</integer>
	  </dict>
	</array>
	<key>vhints</key>
	<array>
	  <dict>
	    <key>position</key>
	    <integer>124</integer>
	    <key>width</key>
	    <integer>180</integer>
	  </dict>
	  <dict>
	    <key>position</key>
	    <integer>565</integer>
	    <key>width</key>
	    <integer>181</integer>
	  </dict>
	</array>
      </dict>
    </dict>
  </lib>
</glyph>
