<?xml version="1.0" encoding="UTF-8"?>
<glyph name="guilsinglright" format="1">
  <advance width="333"/>
  <unicode hex="203A"/>
  <outline>
    <contour>
      <point x="269" y="266" type="line"/>
      <point x="269" y="252" type="line"/>
      <point x="115" y="120" type="line"/>
      <point x="100" y="105"/>
      <point x="93" y="100"/>
      <point x="86" y="100" type="curve" smooth="yes"/>
      <point x="81" y="100"/>
      <point x="74" y="107"/>
      <point x="74" y="112" type="curve" smooth="yes"/>
      <point x="74" y="118"/>
      <point x="81" y="133"/>
      <point x="93" y="152" type="curve" smooth="yes"/>
      <point x="157" y="259" type="line"/>
      <point x="93" y="366" type="line" smooth="yes"/>
      <point x="81" y="385"/>
      <point x="74" y="401"/>
      <point x="74" y="407" type="curve" smooth="yes"/>
      <point x="74" y="412"/>
      <point x="81" y="419"/>
      <point x="87" y="419" type="curve" smooth="yes"/>
      <point x="93" y="419"/>
      <point x="101" y="413"/>
      <point x="115" y="399" type="curve"/>
    </contour>
  </outline>
</glyph>
