<?xml version="1.0" encoding="UTF-8"?>
<glyph name="afii10043" format="1">
  <advance width="1179"/>
  <unicode hex="0429"/>
  <outline>
    <contour>
      <point x="1046" y="0" type="line"/>
      <point x="68" y="0" type="line"/>
      <point x="223" y="729" type="line"/>
      <point x="373" y="729" type="line"/>
      <point x="245" y="125" type="line"/>
      <point x="504" y="125" type="line"/>
      <point x="632" y="729" type="line"/>
      <point x="782" y="729" type="line"/>
      <point x="654" y="125" type="line"/>
      <point x="913" y="125" type="line"/>
      <point x="1041" y="729" type="line"/>
      <point x="1191" y="729" type="line"/>
      <point x="1059" y="108" type="line"/>
      <point x="1199" y="108" type="line"/>
      <point x="1144" y="-150" type="line"/>
      <point x="1014" y="-150" type="line"/>
    </contour>
  </outline>
  <lib>
    <dict>
      <key>com.fontlab.hintData</key>
      <dict>
	<key>hhints</key>
	<array>
	  <dict>
	    <key>position</key>	    <integer>0</integer>
	    <key>width</key>	    <integer>125</integer>
	  </dict>
	  <dict>
	    <key>position</key>	    <integer>709</integer>
	    <key>width</key>	    <integer>20</integer>
	  </dict>
	</array>
      </dict>
    </dict>
  </lib>
</glyph>
