<?xml version="1.0" encoding="UTF-8"?>
<glyph name="cacute" format="1">
  <advance width="556"/>
  <unicode hex="0107"/>
  <outline>
    <contour>
      <point x="593" y="338" type="curve"/>
      <point x="459" y="338" type="line"/>
      <point x="458" y="377"/>
      <point x="456" y="389"/>
      <point x="448" y="404" type="curve"/>
      <point x="435" y="425"/>
      <point x="410" y="437"/>
      <point x="377" y="437" type="curve" smooth="yes"/>
      <point x="322" y="437"/>
      <point x="285" y="411"/>
      <point x="257" y="352" type="curve"/>
      <point x="233" y="304"/>
      <point x="220" y="245"/>
      <point x="220" y="192" type="curve" smooth="yes"/>
      <point x="220" y="123"/>
      <point x="249" y="89"/>
      <point x="309" y="89" type="curve" smooth="yes"/>
      <point x="363" y="89"/>
      <point x="396" y="116"/>
      <point x="427" y="187" type="curve"/>
      <point x="561" y="187" type="line"/>
      <point x="519" y="53"/>
      <point x="421" y="-23"/>
      <point x="292" y="-23" type="curve" smooth="yes"/>
      <point x="218" y="-23"/>
      <point x="163" y="-3"/>
      <point x="127" y="38" type="curve" smooth="yes"/>
      <point x="95" y="73"/>
      <point x="77" y="122"/>
      <point x="77" y="172" type="curve" smooth="yes"/>
      <point x="77" y="267"/>
      <point x="119" y="384"/>
      <point x="178" y="454" type="curve" smooth="yes"/>
      <point x="230" y="517"/>
      <point x="304" y="549"/>
      <point x="398" y="549" type="curve" smooth="yes"/>
      <point x="465" y="549"/>
      <point x="511" y="532"/>
      <point x="549" y="494" type="curve" smooth="yes"/>
      <point x="580" y="463"/>
      <point x="597" y="423"/>
      <point x="597" y="381" type="curve" smooth="yes"/>
      <point x="597" y="371"/>
      <point x="596" y="362"/>
    </contour>
    <contour>
      <point x="573" y="757" type="line"/>
      <point x="415" y="607" type="line"/>
      <point x="345" y="607" type="line"/>
      <point x="447" y="757" type="line"/>
    </contour>
  </outline>
  <lib>
    <dict>
      <key>com.fontlab.hintData</key>
      <dict>
	<key>hhints</key>
	<array>
	  <dict>
	    <key>position</key>	    <integer>-23</integer>
	    <key>width</key>	    <integer>112</integer>
	  </dict>
	  <dict>
	    <key>position</key>	    <integer>437</integer>
	    <key>width</key>	    <integer>112</integer>
	  </dict>
	</array>
	<key>vhints</key>
	<array>
	  <dict>
	    <key>position</key>
	    <integer>77</integer>
	    <key>width</key>
	    <integer>143</integer>
	  </dict>
	</array>
      </dict>
    </dict>
  </lib>
</glyph>
