<?xml version="1.0" encoding="UTF-8"?>
<glyph name="ordfeminine" format="1">
  <advance width="370"/>
  <unicode hex="00AA"/>
  <outline>
    <contour>
      <point x="396" y="342" type="line"/>
      <point x="380" y="262" type="line"/>
      <point x="96" y="262" type="line"/>
      <point x="113" y="342" type="line"/>
    </contour>
    <contour>
      <point x="420" y="409" type="curve"/>
      <point x="418" y="399" type="line"/>
      <point x="326" y="399" type="line"/>
      <point x="323" y="405"/>
      <point x="322" y="409"/>
      <point x="322" y="415" type="curve" smooth="yes"/>
      <point x="322" y="419"/>
      <point x="322" y="421"/>
      <point x="324" y="431" type="curve"/>
      <point x="288" y="399"/>
      <point x="257" y="385"/>
      <point x="217" y="385" type="curve" smooth="yes"/>
      <point x="166" y="385"/>
      <point x="134" y="415"/>
      <point x="134" y="463" type="curve" smooth="yes"/>
      <point x="134" y="526"/>
      <point x="182" y="575"/>
      <point x="256" y="586" type="curve"/>
      <point x="290" y="592" type="line"/>
      <point x="333" y="598"/>
      <point x="333" y="598"/>
      <point x="346" y="604" type="curve" smooth="yes"/>
      <point x="358" y="610"/>
      <point x="366" y="623"/>
      <point x="366" y="636" type="curve" smooth="yes"/>
      <point x="366" y="653"/>
      <point x="353" y="661"/>
      <point x="322" y="661" type="curve" smooth="yes"/>
      <point x="284" y="661"/>
      <point x="265" y="649"/>
      <point x="255" y="617" type="curve"/>
      <point x="176" y="617" type="line"/>
      <point x="193" y="692"/>
      <point x="247" y="729"/>
      <point x="337" y="729" type="curve" smooth="yes"/>
      <point x="408" y="729"/>
      <point x="451" y="702"/>
      <point x="451" y="657" type="curve" smooth="yes"/>
      <point x="451" y="649"/>
      <point x="450" y="640"/>
      <point x="448" y="629" type="curve" smooth="yes"/>
      <point x="409" y="449" type="line" smooth="yes"/>
      <point x="408" y="444"/>
      <point x="408" y="441"/>
      <point x="408" y="436" type="curve" smooth="yes"/>
      <point x="408" y="428"/>
      <point x="412" y="419"/>
    </contour>
    <contour>
      <point x="344" y="529" type="curve" smooth="yes"/>
      <point x="349" y="552" type="line"/>
      <point x="342" y="549"/>
      <point x="340" y="548"/>
      <point x="333" y="546" type="curve" smooth="yes"/>
      <point x="331" y="546"/>
      <point x="327" y="545"/>
      <point x="321" y="544" type="curve" smooth="yes"/>
      <point x="311" y="543" type="line"/>
      <point x="281" y="537" type="line"/>
      <point x="243" y="531"/>
      <point x="221" y="511"/>
      <point x="221" y="483" type="curve" smooth="yes"/>
      <point x="221" y="464"/>
      <point x="236" y="453"/>
      <point x="263" y="453" type="curve" smooth="yes"/>
      <point x="304" y="453"/>
      <point x="334" y="481"/>
    </contour>
  </outline>
  <lib>
    <dict>
      <key>com.fontlab.hintData</key>
      <dict>
	<key>hhints</key>
	<array>
	  <dict>
	    <key>position</key>	    <integer>262</integer>
	    <key>width</key>	    <integer>80</integer>
	  </dict>
	  <dict>
	    <key>position</key>	    <integer>385</integer>
	    <key>width</key>	    <integer>68</integer>
	  </dict>
	  <dict>
	    <key>position</key>	    <integer>661</integer>
	    <key>width</key>	    <integer>68</integer>
	  </dict>
	</array>
	<key>vhints</key>
	<array>
	  <dict>
	    <key>position</key>
	    <integer>134</integer>
	    <key>width</key>
	    <integer>87</integer>
	  </dict>
	  <dict>
	    <key>position</key>
	    <integer>322</integer>
	    <key>width</key>
	    <integer>86</integer>
	  </dict>
	  <dict>
	    <key>position</key>
	    <integer>366</integer>
	    <key>width</key>
	    <integer>85</integer>
	  </dict>
	</array>
      </dict>
    </dict>
  </lib>
</glyph>
