<?xml version="1.0" encoding="UTF-8"?>
<glyph name="scaron" format="1">
  <advance width="556"/>
  <unicode hex="0161"/>
  <outline>
    <contour>
      <point x="584" y="366" type="curve"/>
      <point x="449" y="366" type="line"/>
      <point x="451" y="375"/>
      <point x="452" y="379"/>
      <point x="452" y="385" type="curve" smooth="yes"/>
      <point x="452" y="417"/>
      <point x="419" y="437"/>
      <point x="364" y="437" type="curve" smooth="yes"/>
      <point x="311" y="437"/>
      <point x="276" y="416"/>
      <point x="276" y="384" type="curve" smooth="yes"/>
      <point x="276" y="364"/>
      <point x="290" y="354"/>
      <point x="341" y="339" type="curve" smooth="yes"/>
      <point x="437" y="311" type="line" smooth="yes"/>
      <point x="520" y="286"/>
      <point x="559" y="247"/>
      <point x="559" y="187" type="curve" smooth="yes"/>
      <point x="559" y="59"/>
      <point x="451" y="-23"/>
      <point x="281" y="-23" type="curve" smooth="yes"/>
      <point x="219" y="-23"/>
      <point x="172" y="-13"/>
      <point x="133" y="10" type="curve" smooth="yes"/>
      <point x="89" y="35"/>
      <point x="60" y="82"/>
      <point x="60" y="127" type="curve" smooth="yes"/>
      <point x="60" y="136"/>
      <point x="61" y="142"/>
      <point x="64" y="157" type="curve"/>
      <point x="201" y="157" type="line"/>
      <point x="202" y="134"/>
      <point x="208" y="123"/>
      <point x="222" y="111" type="curve"/>
      <point x="241" y="97"/>
      <point x="272" y="89"/>
      <point x="307" y="89" type="curve" smooth="yes"/>
      <point x="368" y="89"/>
      <point x="411" y="112"/>
      <point x="411" y="144" type="curve" smooth="yes"/>
      <point x="411" y="167"/>
      <point x="398" y="176"/>
      <point x="335" y="196" type="curve" smooth="yes"/>
      <point x="256" y="221" type="line"/>
      <point x="168" y="250"/>
      <point x="127" y="289"/>
      <point x="127" y="345" type="curve" smooth="yes"/>
      <point x="127" y="395"/>
      <point x="155" y="452"/>
      <point x="198" y="490" type="curve" smooth="yes"/>
      <point x="241" y="528"/>
      <point x="308" y="549"/>
      <point x="387" y="549" type="curve" smooth="yes"/>
      <point x="513" y="549"/>
      <point x="589" y="494"/>
      <point x="589" y="404" type="curve" smooth="yes"/>
      <point x="589" y="393"/>
      <point x="588" y="384"/>
    </contour>
    <contour>
      <point x="458" y="610" type="line"/>
      <point x="350" y="610" type="line"/>
      <point x="279" y="757" type="line"/>
      <point x="357" y="757" type="line"/>
      <point x="418" y="660" type="line"/>
      <point x="521" y="757" type="line"/>
      <point x="597" y="757" type="line"/>
    </contour>
  </outline>
  <lib>
    <dict>
      <key>com.fontlab.hintData</key>
      <dict>
	<key>hhints</key>
	<array>
	  <dict>
	    <key>position</key>	    <integer>-23</integer>
	    <key>width</key>	    <integer>112</integer>
	  </dict>
	  <dict>
	    <key>position</key>	    <integer>437</integer>
	    <key>width</key>	    <integer>112</integer>
	  </dict>
	</array>
	<key>vhints</key>
	<array>
	  <dict>
	    <key>position</key>
	    <integer>127</integer>
	    <key>width</key>
	    <integer>149</integer>
	  </dict>
	  <dict>
	    <key>position</key>
	    <integer>411</integer>
	    <key>width</key>
	    <integer>148</integer>
	  </dict>
	  <dict>
	    <key>position</key>
	    <integer>452</integer>
	    <key>width</key>
	    <integer>137</integer>
	  </dict>
	</array>
      </dict>
    </dict>
  </lib>
</glyph>
