<?xml version="1.0" encoding="UTF-8"?>
<glyph name="udieresis" format="1">
  <advance width="611"/>
  <unicode hex="00FC"/>
  <outline>
    <contour>
      <point x="541" y="0" type="line"/>
      <point x="401" y="0" type="line"/>
      <point x="416" y="68" type="line"/>
      <point x="362" y="4"/>
      <point x="308" y="-23"/>
      <point x="234" y="-23" type="curve" smooth="yes"/>
      <point x="146" y="-23"/>
      <point x="88" y="29"/>
      <point x="88" y="109" type="curve" smooth="yes"/>
      <point x="88" y="127"/>
      <point x="90" y="145"/>
      <point x="94" y="164" type="curve" smooth="yes"/>
      <point x="174" y="540" type="line"/>
      <point x="314" y="540" type="line"/>
      <point x="244" y="213" type="line" smooth="yes"/>
      <point x="240" y="190"/>
      <point x="238" y="178"/>
      <point x="238" y="164" type="curve" smooth="yes"/>
      <point x="238" y="115"/>
      <point x="264" y="89"/>
      <point x="314" y="89" type="curve" smooth="yes"/>
      <point x="379" y="89"/>
      <point x="431" y="141"/>
      <point x="448" y="222" type="curve" smooth="yes"/>
      <point x="516" y="540" type="line"/>
      <point x="656" y="540" type="line"/>
    </contour>
    <contour>
      <point x="420" y="741" type="line"/>
      <point x="394" y="621" type="line"/>
      <point x="284" y="621" type="line"/>
      <point x="310" y="741" type="line"/>
    </contour>
    <contour>
      <point x="606" y="741" type="line"/>
      <point x="580" y="621" type="line"/>
      <point x="470" y="621" type="line"/>
      <point x="496" y="741" type="line"/>
    </contour>
  </outline>
  <lib>
    <dict>
      <key>com.fontlab.hintData</key>
      <dict>
	<key>hhints</key>
	<array>
	  <dict>
	    <key>position</key>	    <integer>-23</integer>
	    <key>width</key>	    <integer>112</integer>
	  </dict>
	  <dict>
	    <key>position</key>	    <integer>520</integer>
	    <key>width</key>	    <integer>20</integer>
	  </dict>
	  <dict>
	    <key>position</key>	    <integer>621</integer>
	    <key>width</key>	    <integer>120</integer>
	  </dict>
	</array>
	<key>vhints</key>
	<array>
	  <dict>
	    <key>position</key>
	    <integer>88</integer>
	    <key>width</key>
	    <integer>150</integer>
	  </dict>
	</array>
      </dict>
    </dict>
  </lib>
</glyph>
