<?xml version="1.0" encoding="UTF-8"?>
<glyph name="arrowdbldown" format="1">
  <advance width="603"/>
  <unicode hex="21D3"/>
  <outline>
    <contour>
      <point x="231" y="167" type="line"/>
      <point x="270" y="127" type="line" smooth="yes"/>
      <point x="289" y="108"/>
      <point x="295" y="101"/>
      <point x="308" y="87" type="curve"/>
      <point x="321" y="102"/>
      <point x="328" y="110"/>
      <point x="345" y="127" type="curve" smooth="yes"/>
      <point x="378" y="160" type="line"/>
      <point x="385" y="167" type="line"/>
      <point x="385" y="909" type="line"/>
      <point x="440" y="909" type="line"/>
      <point x="440" y="214" type="line"/>
      <point x="471" y="241"/>
      <point x="471" y="241"/>
      <point x="525" y="283" type="curve" smooth="yes"/>
      <point x="530" y="286"/>
      <point x="534" y="290"/>
      <point x="538" y="293" type="curve"/>
      <point x="572" y="250" type="line"/>
      <point x="483" y="181"/>
      <point x="374" y="78"/>
      <point x="308" y="0" type="curve"/>
      <point x="245" y="75"/>
      <point x="123" y="191"/>
      <point x="44" y="250" type="curve"/>
      <point x="78" y="293" type="line"/>
      <point x="83" y="290"/>
      <point x="86" y="287"/>
      <point x="91" y="283" type="curve" smooth="yes"/>
      <point x="126" y="256" type="line" smooth="yes"/>
      <point x="141" y="244"/>
      <point x="156" y="231"/>
      <point x="176" y="214" type="curve"/>
      <point x="176" y="909" type="line"/>
      <point x="231" y="909" type="line"/>
    </contour>
  </outline>
  <lib>
    <dict>
      <key>com.fontlab.hintData</key>
      <dict>
	<key>hhints</key>
	<array>
	  <dict>
	    <key>position</key>	    <integer>0</integer>
	    <key>width</key>	    <integer>20</integer>
	  </dict>
	</array>
	<key>vhints</key>
	<array>
	  <dict>
	    <key>position</key>
	    <integer>385</integer>
	    <key>width</key>
	    <integer>55</integer>
	  </dict>
	</array>
      </dict>
    </dict>
  </lib>
</glyph>
