<?xml version="1.0" encoding="UTF-8"?>
<glyph name="Amacron" format="1">
  <advance width="720"/>
  <unicode hex="0100"/>
  <outline>
    <contour>
      <point x="564" y="681" type="line"/>
      <point x="680" y="178" type="line" smooth="yes"/>
      <point x="691" y="134"/>
      <point x="696" y="119"/>
      <point x="701" y="112" type="curve" smooth="yes"/>
      <point x="712" y="95"/>
      <point x="715" y="94"/>
      <point x="757" y="84" type="curve" smooth="yes"/>
      <point x="759" y="84"/>
      <point x="764" y="82"/>
      <point x="769" y="81" type="curve"/>
      <point x="754" y="0" type="line"/>
      <point x="402" y="0" type="line"/>
      <point x="417" y="81" type="line"/>
      <point x="431" y="83" type="line"/>
      <point x="450" y="85" type="line"/>
      <point x="493" y="91"/>
      <point x="507" y="99"/>
      <point x="507" y="119" type="curve" smooth="yes"/>
      <point x="507" y="128"/>
      <point x="504" y="146"/>
      <point x="500" y="165" type="curve" smooth="yes"/>
      <point x="484" y="242" type="line"/>
      <point x="262" y="242" type="line"/>
      <point x="216" y="155" type="line" smooth="yes"/>
      <point x="201" y="126"/>
      <point x="200" y="125"/>
      <point x="200" y="113" type="curve" smooth="yes"/>
      <point x="200" y="96"/>
      <point x="217" y="88"/>
      <point x="258" y="83" type="curve" smooth="yes"/>
      <point x="277" y="81" type="line"/>
      <point x="262" y="0" type="line"/>
      <point x="-27" y="0" type="line"/>
      <point x="-12" y="81" type="line"/>
      <point x="55" y="97"/>
      <point x="86" y="120"/>
      <point x="116" y="177" type="curve"/>
      <point x="124" y="190"/>
      <point x="130" y="202"/>
      <point x="135" y="210" type="curve" smooth="yes"/>
      <point x="413" y="681" type="line"/>
    </contour>
    <contour>
      <point x="469" y="320" type="line"/>
      <point x="428" y="538" type="line"/>
      <point x="305" y="320" type="line"/>
    </contour>
    <contour>
      <point x="665" y="756" type="line"/>
      <point x="337" y="756" type="line"/>
      <point x="363" y="844" type="line"/>
      <point x="691" y="844" type="line"/>
    </contour>
  </outline>
  <lib>
    <dict>
      <key>com.fontlab.hintData</key>
      <dict>
	<key>hhints</key>
	<array>
	  <dict>
	    <key>position</key>	    <integer>0</integer>
	    <key>width</key>	    <integer>20</integer>
	  </dict>
	  <dict>
	    <key>position</key>	    <integer>242</integer>
	    <key>width</key>	    <integer>78</integer>
	  </dict>
	  <dict>
	    <key>position</key>	    <integer>661</integer>
	    <key>width</key>	    <integer>20</integer>
	  </dict>
	  <dict>
	    <key>position</key>	    <integer>756</integer>
	    <key>width</key>	    <integer>88</integer>
	  </dict>
	</array>
      </dict>
    </dict>
  </lib>
</glyph>
