<?xml version="1.0" encoding="UTF-8"?>
<glyph name="afii10091" format="1">
  <advance width="1017"/>
  <unicode hex="0449"/>
  <outline>
    <contour>
      <point x="957" y="99" type="curve" smooth="yes"/>
      <point x="970" y="99"/>
      <point x="979" y="104"/>
      <point x="1002" y="122" type="curve"/>
      <point x="1057" y="50" type="line"/>
      <point x="971" y="-29"/>
      <point x="951" y="-34"/>
      <point x="942" y="-110" type="curve"/>
      <point x="929" y="-162"/>
      <point x="858" y="-173"/>
      <point x="804" y="-168" type="curve"/>
      <point x="793" y="-94" type="line"/>
      <point x="811" y="-106"/>
      <point x="829" y="-105"/>
      <point x="847" y="-102" type="curve" smooth="yes"/>
      <point x="901" y="-95"/>
      <point x="860" y="-38"/>
      <point x="903" y="-8" type="curve"/>
      <point x="896" y="-9"/>
      <point x="889" y="-9"/>
      <point x="882" y="-9" type="curve" smooth="yes"/>
      <point x="820" y="-9"/>
      <point x="782" y="13"/>
      <point x="764" y="57" type="curve"/>
      <point x="688" y="8"/>
      <point x="621" y="-9"/>
      <point x="561" y="-9" type="curve" smooth="yes"/>
      <point x="499" y="-9"/>
      <point x="461" y="13"/>
      <point x="443" y="57" type="curve"/>
      <point x="367" y="8"/>
      <point x="320" y="-9"/>
      <point x="260" y="-9" type="curve" smooth="yes"/>
      <point x="174" y="-9"/>
      <point x="113" y="35"/>
      <point x="113" y="97" type="curve" smooth="yes"/>
      <point x="113" y="107"/>
      <point x="115" y="132"/>
      <point x="117" y="142" type="curve" smooth="yes"/>
      <point x="150" y="321" type="line" smooth="yes"/>
      <point x="152" y="334"/>
      <point x="154" y="351"/>
      <point x="154" y="358" type="curve" smooth="yes"/>
      <point x="154" y="367"/>
      <point x="152" y="374"/>
      <point x="148" y="378" type="curve" smooth="yes"/>
      <point x="139" y="385"/>
      <point x="112" y="394"/>
      <point x="95" y="394" type="curve" smooth="yes"/>
      <point x="83" y="394" type="line"/>
      <point x="98" y="476" type="line"/>
      <point x="173" y="480"/>
      <point x="214" y="487"/>
      <point x="290" y="511" type="curve"/>
      <point x="342" y="511" type="line"/>
      <point x="287" y="205" type="line"/>
      <point x="281" y="162"/>
      <point x="281" y="160"/>
      <point x="281" y="151" type="curve" smooth="yes"/>
      <point x="281" y="124"/>
      <point x="308" y="103"/>
      <point x="343" y="103" type="curve" smooth="yes"/>
      <point x="376" y="103"/>
      <point x="409" y="116"/>
      <point x="441" y="142" type="curve"/>
      <point x="508" y="511" type="line"/>
      <point x="666" y="511" type="line"/>
      <point x="609" y="195" type="line"/>
      <point x="609" y="195"/>
      <point x="600" y="156"/>
      <point x="602" y="151" type="curve" smooth="yes"/>
      <point x="610" y="126"/>
      <point x="629" y="103"/>
      <point x="664" y="103" type="curve" smooth="yes"/>
      <point x="697" y="103"/>
      <point x="730" y="116"/>
      <point x="762" y="142" type="curve"/>
      <point x="829" y="511" type="line"/>
      <point x="987" y="511" type="line"/>
      <point x="930" y="195" type="line" smooth="yes"/>
      <point x="923" y="159"/>
      <point x="922" y="151"/>
      <point x="922" y="139" type="curve" smooth="yes"/>
      <point x="922" y="117"/>
      <point x="938" y="99"/>
    </contour>
  </outline>
  <lib>
    <dict>
      <key>com.fontlab.hintData</key>
      <dict>
	<key>hhints</key>
	<array>
	  <dict>
	    <key>position</key>	    <integer>-9</integer>
	    <key>width</key>	    <integer>21</integer>
	  </dict>
	  <dict>
	    <key>position</key>	    <integer>491</integer>
	    <key>width</key>	    <integer>20</integer>
	  </dict>
	</array>
      </dict>
    </dict>
  </lib>
</glyph>
