<?xml version="1.0" encoding="UTF-8"?>
<glyph name="Obreve" format="1">
  <advance width="760"/>
  <unicode hex="014E"/>
  <outline>
    <component base="O"/>
    <component base="breve" xOffset="202" yOffset="211"/>
  </outline>
</glyph>
