<?xml version="1.0" encoding="UTF-8"?>
<glyph name="quotedblright" format="1">
  <advance width="520"/>
  <unicode hex="201D"/>
  <outline>
    <contour>
      <point x="206" y="416" type="curve"/>
      <point x="172" y="448" type="line"/>
      <point x="209" y="481"/>
      <point x="237" y="512"/>
      <point x="244" y="527" type="curve"/>
      <point x="238" y="526"/>
      <point x="235" y="526"/>
      <point x="231" y="526" type="curve" smooth="yes"/>
      <point x="194" y="526"/>
      <point x="171" y="551"/>
      <point x="171" y="590" type="curve" smooth="yes"/>
      <point x="171" y="644"/>
      <point x="222" y="694"/>
      <point x="279" y="694" type="curve" smooth="yes"/>
      <point x="320" y="694"/>
      <point x="349" y="664"/>
      <point x="349" y="621" type="curve" smooth="yes"/>
      <point x="349" y="554"/>
      <point x="293" y="472"/>
    </contour>
    <contour>
      <point x="417" y="416" type="curve"/>
      <point x="383" y="448" type="line"/>
      <point x="420" y="481"/>
      <point x="448" y="512"/>
      <point x="455" y="527" type="curve"/>
      <point x="449" y="526"/>
      <point x="446" y="526"/>
      <point x="442" y="526" type="curve" smooth="yes"/>
      <point x="405" y="526"/>
      <point x="382" y="551"/>
      <point x="382" y="590" type="curve" smooth="yes"/>
      <point x="382" y="644"/>
      <point x="433" y="694"/>
      <point x="490" y="694" type="curve" smooth="yes"/>
      <point x="531" y="694"/>
      <point x="560" y="664"/>
      <point x="560" y="621" type="curve" smooth="yes"/>
      <point x="560" y="554"/>
      <point x="504" y="472"/>
    </contour>
  </outline>
  <lib>
    <dict>
      <key>com.fontlab.hintData</key>
      <dict>
	<key>hhints</key>
	<array>
	  <dict>
	    <key>position</key>	    <integer>506</integer>
	    <key>width</key>	    <integer>20</integer>
	  </dict>
	  <dict>
	    <key>position</key>	    <integer>674</integer>
	    <key>width</key>	    <integer>20</integer>
	  </dict>
	</array>
      </dict>
    </dict>
  </lib>
</glyph>
