<?xml version="1.0" encoding="UTF-8"?>
<glyph name="L" format="1">
  <advance width="440"/>
  <unicode hex="004C"/>
  <outline>
    <contour>
      <point x="68" y="0" type="line"/>
      <point x="68" y="739" type="line"/>
      <point x="205" y="739" type="line"/>
      <point x="205" y="131" type="line"/>
      <point x="431" y="131" type="line"/>
      <point x="431" y="0" type="line"/>
    </contour>
  </outline>
  <lib>
    <dict>
      <key>com.fontlab.hintData</key>
      <dict>
	<key>hhints</key>
	<array>
	  <dict>
	    <key>position</key>	    <integer>0</integer>
	    <key>width</key>	    <integer>131</integer>
	  </dict>
	  <dict>
	    <key>position</key>	    <integer>719</integer>
	    <key>width</key>	    <integer>20</integer>
	  </dict>
	</array>
	<key>vhints</key>
	<array>
	  <dict>
	    <key>position</key>
	    <integer>68</integer>
	    <key>width</key>
	    <integer>137</integer>
	  </dict>
	</array>
      </dict>
    </dict>
  </lib>
</glyph>
