<?xml version="1.0" encoding="UTF-8"?>
<glyph name="less" format="1">
  <advance width="600"/>
  <unicode hex="003C"/>
  <outline>
    <contour>
      <point x="558" y="582" type="line"/>
      <point x="558" y="465" type="line"/>
      <point x="217" y="308" type="line"/>
      <point x="558" y="149" type="line"/>
      <point x="558" y="33" type="line"/>
      <point x="49" y="258" type="line"/>
      <point x="49" y="356" type="line"/>
    </contour>
  </outline>
</glyph>
