<?xml version="1.0" encoding="UTF-8"?>
<glyph name="m" format="1">
  <advance width="940"/>
  <unicode hex="006D"/>
  <outline>
    <contour>
      <point x="54" y="0" type="line"/>
      <point x="54" y="554" type="line"/>
      <point x="176" y="554" type="line"/>
      <point x="176" y="502" type="line"/>
      <point x="215" y="549"/>
      <point x="255" y="567"/>
      <point x="320" y="567" type="curve" smooth="yes"/>
      <point x="396" y="567"/>
      <point x="445" y="541"/>
      <point x="483" y="481" type="curve"/>
      <point x="528" y="541"/>
      <point x="583" y="567"/>
      <point x="661" y="567" type="curve" smooth="yes"/>
      <point x="744" y="567"/>
      <point x="814" y="535"/>
      <point x="849" y="479" type="curve" smooth="yes"/>
      <point x="873" y="441"/>
      <point x="885" y="387"/>
      <point x="885" y="320" type="curve" smooth="yes"/>
      <point x="885" y="0" type="line"/>
      <point x="752" y="0" type="line"/>
      <point x="752" y="304" type="line" smooth="yes"/>
      <point x="752" y="359"/>
      <point x="745" y="390"/>
      <point x="727" y="411" type="curve" smooth="yes"/>
      <point x="709" y="433"/>
      <point x="681" y="445"/>
      <point x="648" y="445" type="curve" smooth="yes"/>
      <point x="606" y="445"/>
      <point x="572" y="426"/>
      <point x="555" y="392" type="curve" smooth="yes"/>
      <point x="541" y="366"/>
      <point x="536" y="335"/>
      <point x="536" y="273" type="curve" smooth="yes"/>
      <point x="536" y="0" type="line"/>
      <point x="403" y="0" type="line"/>
      <point x="403" y="304" type="line" smooth="yes"/>
      <point x="403" y="356"/>
      <point x="396" y="389"/>
      <point x="380" y="410" type="curve" smooth="yes"/>
      <point x="362" y="432"/>
      <point x="331" y="445"/>
      <point x="295" y="445" type="curve" smooth="yes"/>
      <point x="251" y="445"/>
      <point x="217" y="424"/>
      <point x="201" y="388" type="curve"/>
      <point x="192" y="365"/>
      <point x="187" y="328"/>
      <point x="187" y="273" type="curve" smooth="yes"/>
      <point x="187" y="0" type="line"/>
    </contour>
  </outline>
  <lib>
    <dict>
      <key>com.fontlab.hintData</key>
      <dict>
	<key>hhints</key>
	<array>
	  <dict>
	    <key>position</key>	    <integer>0</integer>
	    <key>width</key>	    <integer>20</integer>
	  </dict>
	  <dict>
	    <key>position</key>	    <integer>445</integer>
	    <key>width</key>	    <integer>122</integer>
	  </dict>
	  <dict>
	    <key>position</key>	    <integer>534</integer>
	    <key>width</key>	    <integer>20</integer>
	  </dict>
	</array>
	<key>vhints</key>
	<array>
	  <dict>
	    <key>position</key>
	    <integer>54</integer>
	    <key>width</key>
	    <integer>133</integer>
	  </dict>
	  <dict>
	    <key>position</key>
	    <integer>403</integer>
	    <key>width</key>
	    <integer>133</integer>
	  </dict>
	  <dict>
	    <key>position</key>
	    <integer>752</integer>
	    <key>width</key>
	    <integer>133</integer>
	  </dict>
	</array>
      </dict>
    </dict>
  </lib>
</glyph>
