<?xml version="1.0" encoding="UTF-8"?>
<glyph name="twosuperior" format="1">
  <advance width="336"/>
  <unicode hex="00B2"/>
  <outline>
    <contour>
      <point x="13" y="296" type="line"/>
      <point x="13" y="370" type="line"/>
      <point x="183" y="518" type="line" smooth="yes"/>
      <point x="224" y="555"/>
      <point x="238" y="576"/>
      <point x="238" y="603" type="curve" smooth="yes"/>
      <point x="238" y="640"/>
      <point x="209" y="668"/>
      <point x="170" y="668" type="curve" smooth="yes"/>
      <point x="125" y="668"/>
      <point x="98" y="637"/>
      <point x="97" y="582" type="curve"/>
      <point x="10" y="582" type="line"/>
      <point x="10" y="628"/>
      <point x="17" y="654"/>
      <point x="35" y="682" type="curve"/>
      <point x="63" y="722"/>
      <point x="113" y="747"/>
      <point x="169" y="747" type="curve" smooth="yes"/>
      <point x="259" y="747"/>
      <point x="326" y="684"/>
      <point x="326" y="601" type="curve" smooth="yes"/>
      <point x="326" y="549"/>
      <point x="296" y="498"/>
      <point x="237" y="451" type="curve" smooth="yes"/>
      <point x="143" y="376" type="line"/>
      <point x="324" y="376" type="line"/>
      <point x="324" y="296" type="line"/>
    </contour>
  </outline>
  <lib>
    <dict>
      <key>com.fontlab.hintData</key>
      <dict>
	<key>hhints</key>
	<array>
	  <dict>
	    <key>position</key>	    <integer>296</integer>
	    <key>width</key>	    <integer>80</integer>
	  </dict>
	  <dict>
	    <key>position</key>	    <integer>668</integer>
	    <key>width</key>	    <integer>79</integer>
	  </dict>
	</array>
	<key>vhints</key>
	<array>
	  <dict>
	    <key>position</key>
	    <integer>238</integer>
	    <key>width</key>
	    <integer>88</integer>
	  </dict>
	</array>
      </dict>
    </dict>
  </lib>
</glyph>
