<?xml version="1.0" encoding="UTF-8"?>
<glyph name="uni04A7" format="1">
  <advance width="858"/>
  <unicode hex="04A7"/>
  <outline>
    <contour>
      <point x="527" y="384" type="line"/>
      <point x="572" y="384" type="line" smooth="yes"/>
      <point x="651" y="384"/>
      <point x="737" y="355"/>
      <point x="774" y="298" type="curve" smooth="yes"/>
      <point x="801" y="257"/>
      <point x="811" y="212"/>
      <point x="811" y="131" type="curve" smooth="yes"/>
      <point x="811" y="57" type="line" smooth="yes"/>
      <point x="811" y="-24"/>
      <point x="801" y="-69"/>
      <point x="774" y="-110" type="curve" smooth="yes"/>
      <point x="737" y="-167"/>
      <point x="673" y="-195"/>
      <point x="594" y="-198" type="curve"/>
      <point x="570" y="-198" type="line"/>
      <point x="570" y="-75" type="line"/>
      <point x="648" y="-75"/>
      <point x="678" y="-29"/>
      <point x="678" y="87" type="curve" smooth="yes"/>
      <point x="678" y="131" type="line" smooth="yes"/>
      <point x="678" y="247"/>
      <point x="603" y="263"/>
      <point x="560" y="263" type="curve" smooth="yes"/>
      <point x="527" y="263" type="line"/>
      <point x="527" y="0" type="line"/>
      <point x="394" y="0" type="line"/>
      <point x="394" y="423" type="line"/>
      <point x="187" y="423" type="line"/>
      <point x="187" y="0" type="line"/>
      <point x="54" y="0" type="line"/>
      <point x="54" y="554" type="line"/>
      <point x="527" y="554" type="line"/>
    </contour>
  </outline>
  <lib>
    <dict>
      <key>com.fontlab.hintData</key>
      <dict>
	<key>hhints</key>
	<array>
	  <dict>
	    <key>position</key>	    <integer>-198</integer>
	    <key>width</key>	    <integer>123</integer>
	  </dict>
	  <dict>
	    <key>position</key>	    <integer>0</integer>
	    <key>width</key>	    <integer>21</integer>
	  </dict>
	  <dict>
	    <key>position</key>	    <integer>263</integer>
	    <key>width</key>	    <integer>121</integer>
	  </dict>
	  <dict>
	    <key>position</key>	    <integer>423</integer>
	    <key>width</key>	    <integer>131</integer>
	  </dict>
	</array>
	<key>vhints</key>
	<array>
	  <dict>
	    <key>position</key>
	    <integer>54</integer>
	    <key>width</key>
	    <integer>133</integer>
	  </dict>
	  <dict>
	    <key>position</key>
	    <integer>394</integer>
	    <key>width</key>
	    <integer>133</integer>
	  </dict>
	  <dict>
	    <key>position</key>
	    <integer>678</integer>
	    <key>width</key>
	    <integer>133</integer>
	  </dict>
	</array>
      </dict>
    </dict>
  </lib>
</glyph>
