<?xml version="1.0" encoding="UTF-8"?>
<glyph name="at" format="1">
  <advance width="921"/>
  <unicode hex="0040"/>
  <outline>
    <contour>
      <point x="688" y="73" type="curve"/>
      <point x="700" y="43" type="line"/>
      <point x="603" y="-1"/>
      <point x="553" y="-14"/>
      <point x="483" y="-14" type="curve" smooth="yes"/>
      <point x="276" y="-14"/>
      <point x="116" y="134"/>
      <point x="116" y="326" type="curve" smooth="yes"/>
      <point x="116" y="521"/>
      <point x="278" y="676"/>
      <point x="481" y="676" type="curve" smooth="yes"/>
      <point x="666" y="676"/>
      <point x="809" y="548"/>
      <point x="809" y="383" type="curve" smooth="yes"/>
      <point x="809" y="254"/>
      <point x="724" y="143"/>
      <point x="625" y="143" type="curve" smooth="yes"/>
      <point x="577" y="143"/>
      <point x="540" y="172"/>
      <point x="534" y="216" type="curve"/>
      <point x="500" y="171"/>
      <point x="453" y="144"/>
      <point x="409" y="144" type="curve" smooth="yes"/>
      <point x="360" y="144"/>
      <point x="321" y="193"/>
      <point x="321" y="256" type="curve" smooth="yes"/>
      <point x="321" y="329"/>
      <point x="352" y="405"/>
      <point x="405" y="458" type="curve" smooth="yes"/>
      <point x="439" y="492"/>
      <point x="474" y="508"/>
      <point x="517" y="508" type="curve" smooth="yes"/>
      <point x="552" y="508"/>
      <point x="567" y="497"/>
      <point x="589" y="456" type="curve"/>
      <point x="599" y="494" type="line"/>
      <point x="668" y="494" type="line"/>
      <point x="603" y="240" type="line" smooth="yes"/>
      <point x="602" y="234"/>
      <point x="601" y="229"/>
      <point x="601" y="222" type="curve" smooth="yes"/>
      <point x="601" y="191"/>
      <point x="614" y="176"/>
      <point x="640" y="176" type="curve" smooth="yes"/>
      <point x="706" y="176"/>
      <point x="769" y="273"/>
      <point x="769" y="373" type="curve" smooth="yes"/>
      <point x="769" y="522"/>
      <point x="639" y="645"/>
      <point x="482" y="645" type="curve" smooth="yes"/>
      <point x="409" y="645"/>
      <point x="342" y="618"/>
      <point x="293" y="569" type="curve"/>
      <point x="236" y="510"/>
      <point x="200" y="416"/>
      <point x="200" y="323" type="curve" smooth="yes"/>
      <point x="200" y="149"/>
      <point x="322" y="25"/>
      <point x="492" y="25" type="curve" smooth="yes"/>
      <point x="559" y="25"/>
      <point x="610" y="38"/>
    </contour>
    <contour>
      <point x="531" y="464" type="curve" smooth="yes"/>
      <point x="507" y="466"/>
      <point x="472" y="446"/>
      <point x="444" y="414" type="curve" smooth="yes"/>
      <point x="410" y="376"/>
      <point x="392" y="326"/>
      <point x="392" y="272" type="curve" smooth="yes"/>
      <point x="392" y="220"/>
      <point x="415" y="187"/>
      <point x="452" y="187" type="curve" smooth="yes"/>
      <point x="479" y="187"/>
      <point x="508" y="209"/>
      <point x="527" y="245" type="curve" smooth="yes"/>
      <point x="553" y="292"/>
      <point x="570" y="351"/>
      <point x="572" y="399" type="curve" smooth="yes"/>
      <point x="574" y="438"/>
      <point x="559" y="462"/>
    </contour>
  </outline>
  <lib>
    <dict>
      <key>com.fontlab.hintData</key>
      <dict>
	<key>hhints</key>
	<array>
	  <dict>
	    <key>position</key>	    <integer>-14</integer>
	    <key>width</key>	    <integer>39</integer>
	  </dict>
	  <dict>
	    <key>position</key>	    <integer>143</integer>
	    <key>width</key>	    <integer>33</integer>
	  </dict>
	  <dict>
	    <key>position</key>	    <integer>144</integer>
	    <key>width</key>	    <integer>43</integer>
	  </dict>
	  <dict>
	    <key>position</key>	    <integer>436</integer>
	    <key>width</key>	    <integer>20</integer>
	  </dict>
	  <dict>
	    <key>position</key>	    <integer>645</integer>
	    <key>width</key>	    <integer>31</integer>
	  </dict>
	</array>
	<key>vhints</key>
	<array>
	  <dict>
	    <key>position</key>
	    <integer>116</integer>
	    <key>width</key>
	    <integer>84</integer>
	  </dict>
	  <dict>
	    <key>position</key>
	    <integer>321</integer>
	    <key>width</key>
	    <integer>71</integer>
	  </dict>
	  <dict>
	    <key>position</key>
	    <integer>769</integer>
	    <key>width</key>
	    <integer>40</integer>
	  </dict>
	</array>
      </dict>
    </dict>
  </lib>
</glyph>
