<?xml version="1.0" encoding="UTF-8"?>
<glyph name="atilde" format="1">
  <advance width="444"/>
  <unicode hex="00E3"/>
  <outline>
    <contour>
      <point x="442" y="66" type="curve"/>
      <point x="442" y="40" type="line"/>
      <point x="407" y="2"/>
      <point x="386" y="-10"/>
      <point x="352" y="-10" type="curve" smooth="yes"/>
      <point x="311" y="-10"/>
      <point x="293" y="11"/>
      <point x="288" y="63" type="curve"/>
      <point x="227" y="11"/>
      <point x="186" y="-10"/>
      <point x="142" y="-10" type="curve" smooth="yes"/>
      <point x="81" y="-10"/>
      <point x="37" y="34"/>
      <point x="37" y="97" type="curve" smooth="yes"/>
      <point x="37" y="130"/>
      <point x="51" y="164"/>
      <point x="73" y="184" type="curve" smooth="yes"/>
      <point x="116" y="222"/>
      <point x="133" y="230"/>
      <point x="287" y="292" type="curve"/>
      <point x="287" y="353" type="line" smooth="yes"/>
      <point x="287" y="407"/>
      <point x="260" y="436"/>
      <point x="211" y="436" type="curve" smooth="yes"/>
      <point x="171" y="436"/>
      <point x="139" y="414"/>
      <point x="139" y="387" type="curve" smooth="yes"/>
      <point x="139" y="380"/>
      <point x="140" y="372"/>
      <point x="142" y="363" type="curve" smooth="yes"/>
      <point x="143" y="356"/>
      <point x="144" y="351"/>
      <point x="144" y="347" type="curve" smooth="yes"/>
      <point x="144" y="325"/>
      <point x="123" y="305"/>
      <point x="99" y="305" type="curve" smooth="yes"/>
      <point x="76" y="305"/>
      <point x="56" y="325"/>
      <point x="56" y="348" type="curve" smooth="yes"/>
      <point x="56" y="411"/>
      <point x="130" y="460"/>
      <point x="224" y="460" type="curve" smooth="yes"/>
      <point x="283" y="460"/>
      <point x="326" y="441"/>
      <point x="348" y="405" type="curve" smooth="yes"/>
      <point x="363" y="381"/>
      <point x="368" y="352"/>
      <point x="368" y="300" type="curve" smooth="yes"/>
      <point x="368" y="105" type="line" smooth="yes"/>
      <point x="368" y="61"/>
      <point x="375" y="47"/>
      <point x="398" y="47" type="curve" smooth="yes"/>
      <point x="413" y="47"/>
      <point x="425" y="52"/>
    </contour>
    <contour>
      <point x="287" y="123" type="curve" smooth="yes"/>
      <point x="287" y="268" type="line"/>
      <point x="166" y="224"/>
      <point x="125" y="188"/>
      <point x="125" y="129" type="curve" smooth="yes"/>
      <point x="125" y="125" type="line" smooth="yes"/>
      <point x="125" y="82"/>
      <point x="153" y="48"/>
      <point x="188" y="48" type="curve" smooth="yes"/>
      <point x="209" y="48"/>
      <point x="237" y="57"/>
      <point x="261" y="71" type="curve" smooth="yes"/>
      <point x="282" y="83"/>
      <point x="287" y="92"/>
    </contour>
    <contour>
      <point x="358" y="638" type="curve"/>
      <point x="387" y="638" type="line"/>
      <point x="366" y="562"/>
      <point x="337" y="532"/>
      <point x="282" y="532" type="curve" smooth="yes"/>
      <point x="257" y="532"/>
      <point x="242" y="536"/>
      <point x="201" y="556" type="curve" smooth="yes"/>
      <point x="178" y="567" type="line" smooth="yes"/>
      <point x="163" y="574"/>
      <point x="149" y="578"/>
      <point x="137" y="578" type="curve" smooth="yes"/>
      <point x="114" y="578"/>
      <point x="97" y="563"/>
      <point x="86" y="532" type="curve"/>
      <point x="57" y="532" type="line"/>
      <point x="72" y="597"/>
      <point x="108" y="633"/>
      <point x="158" y="633" type="curve" smooth="yes"/>
      <point x="180" y="633"/>
      <point x="205" y="627"/>
      <point x="228" y="615" type="curve" smooth="yes"/>
      <point x="252" y="603" type="line" smooth="yes"/>
      <point x="271" y="594"/>
      <point x="290" y="588"/>
      <point x="305" y="588" type="curve" smooth="yes"/>
      <point x="328" y="588"/>
      <point x="341" y="600"/>
    </contour>
  </outline>
  <lib>
    <dict>
      <key>com.fontlab.hintData</key>
      <dict>
	<key>hhints</key>
	<array>
	  <dict>
	    <key>position</key>	    <integer>-10</integer>
	    <key>width</key>	    <integer>57</integer>
	  </dict>
	  <dict>
	    <key>position</key>	    <integer>-10</integer>
	    <key>width</key>	    <integer>58</integer>
	  </dict>
	  <dict>
	    <key>position</key>	    <integer>436</integer>
	    <key>width</key>	    <integer>24</integer>
	  </dict>
	  <dict>
	    <key>position</key>	    <integer>532</integer>
	    <key>width</key>	    <integer>56</integer>
	  </dict>
	  <dict>
	    <key>position</key>	    <integer>578</integer>
	    <key>width</key>	    <integer>55</integer>
	  </dict>
	</array>
	<key>vhints</key>
	<array>
	  <dict>
	    <key>position</key>
	    <integer>56</integer>
	    <key>width</key>
	    <integer>83</integer>
	  </dict>
	  <dict>
	    <key>position</key>
	    <integer>287</integer>
	    <key>width</key>
	    <integer>81</integer>
	  </dict>
	</array>
      </dict>
    </dict>
  </lib>
</glyph>
