<?xml version="1.0" encoding="UTF-8"?>
<glyph name="uni04B8" format="1">
  <advance width="722"/>
  <unicode hex="04B8"/>
  <outline>
    <contour>
      <point x="209" y="553" type="curve" smooth="yes"/>
      <point x="209" y="426" type="line" smooth="yes"/>
      <point x="209" y="351"/>
      <point x="263" y="287"/>
      <point x="338" y="280" type="curve"/>
      <point x="338" y="434" type="line"/>
      <point x="392" y="434" type="line"/>
      <point x="392" y="284" type="line"/>
      <point x="435" y="292"/>
      <point x="477" y="313"/>
      <point x="512" y="341" type="curve"/>
      <point x="512" y="554" type="line" smooth="yes"/>
      <point x="512" y="626"/>
      <point x="501" y="637"/>
      <point x="424" y="644" type="curve"/>
      <point x="424" y="663" type="line"/>
      <point x="702" y="663" type="line"/>
      <point x="702" y="644" type="line"/>
      <point x="625" y="637"/>
      <point x="614" y="626"/>
      <point x="614" y="554" type="curve" smooth="yes"/>
      <point x="614" y="110" type="line" smooth="yes"/>
      <point x="614" y="39"/>
      <point x="627" y="26"/>
      <point x="702" y="20" type="curve"/>
      <point x="702" y="1" type="line"/>
      <point x="424" y="1" type="line"/>
      <point x="424" y="20" type="line"/>
      <point x="502" y="25"/>
      <point x="512" y="37"/>
      <point x="512" y="121" type="curve" smooth="yes"/>
      <point x="512" y="297" type="line"/>
      <point x="480" y="270"/>
      <point x="439" y="247"/>
      <point x="392" y="239" type="curve"/>
      <point x="392" y="123" type="line"/>
      <point x="338" y="123" type="line"/>
      <point x="338" y="235" type="line"/>
      <point x="208" y="242"/>
      <point x="107" y="317"/>
      <point x="107" y="427" type="curve" smooth="yes"/>
      <point x="107" y="553" type="line" smooth="yes"/>
      <point x="107" y="625"/>
      <point x="96" y="636"/>
      <point x="19" y="643" type="curve"/>
      <point x="19" y="662" type="line"/>
      <point x="297" y="662" type="line"/>
      <point x="297" y="643" type="line"/>
      <point x="220" y="636"/>
      <point x="209" y="625"/>
    </contour>
  </outline>
  <lib>
    <dict>
      <key>com.fontlab.hintData</key>
      <dict>
	<key>hhints</key>
	<array>
	  <dict>
	    <key>position</key>	    <integer>1</integer>
	    <key>width</key>	    <integer>19</integer>
	  </dict>
	  <dict>
	    <key>position</key>	    <integer>643</integer>
	    <key>width</key>	    <integer>19</integer>
	  </dict>
	  <dict>
	    <key>position</key>	    <integer>644</integer>
	    <key>width</key>	    <integer>19</integer>
	  </dict>
	</array>
	<key>vhints</key>
	<array>
	  <dict>
	    <key>position</key>
	    <integer>107</integer>
	    <key>width</key>
	    <integer>102</integer>
	  </dict>
	  <dict>
	    <key>position</key>
	    <integer>338</integer>
	    <key>width</key>
	    <integer>54</integer>
	  </dict>
	  <dict>
	    <key>position</key>
	    <integer>512</integer>
	    <key>width</key>
	    <integer>102</integer>
	  </dict>
	</array>
      </dict>
    </dict>
  </lib>
</glyph>
