<?xml version="1.0" encoding="UTF-8"?>
<glyph name="uni045D" format="1">
  <advance width="512"/>
  <unicode hex="045D"/>
  <outline>
    <contour>
      <point x="162" y="167" type="line"/>
      <point x="352" y="343" type="line"/>
      <point x="352" y="351" type="line" smooth="yes"/>
      <point x="352" y="414"/>
      <point x="339" y="431"/>
      <point x="289" y="435" type="curve"/>
      <point x="289" y="450" type="line"/>
      <point x="497" y="450" type="line"/>
      <point x="497" y="435" type="line"/>
      <point x="448" y="430"/>
      <point x="436" y="418"/>
      <point x="436" y="369" type="curve" smooth="yes"/>
      <point x="436" y="81" type="line" smooth="yes"/>
      <point x="436" y="32"/>
      <point x="448" y="20"/>
      <point x="497" y="15" type="curve"/>
      <point x="497" y="0" type="line"/>
      <point x="289" y="0" type="line"/>
      <point x="289" y="15" type="line"/>
      <point x="339" y="19"/>
      <point x="352" y="36"/>
      <point x="352" y="99" type="curve" smooth="yes"/>
      <point x="352" y="287" type="line"/>
      <point x="162" y="111" type="line"/>
      <point x="162" y="81" type="line" smooth="yes"/>
      <point x="162" y="32"/>
      <point x="174" y="20"/>
      <point x="223" y="15" type="curve"/>
      <point x="223" y="0" type="line"/>
      <point x="15" y="0" type="line"/>
      <point x="15" y="15" type="line"/>
      <point x="65" y="19"/>
      <point x="78" y="36"/>
      <point x="78" y="99" type="curve" smooth="yes"/>
      <point x="78" y="351" type="line" smooth="yes"/>
      <point x="78" y="414"/>
      <point x="65" y="431"/>
      <point x="15" y="435" type="curve"/>
      <point x="15" y="450" type="line"/>
      <point x="223" y="450" type="line"/>
      <point x="223" y="435" type="line"/>
      <point x="174" y="430"/>
      <point x="162" y="418"/>
      <point x="162" y="369" type="curve" smooth="yes"/>
    </contour>
    <contour>
      <point x="368" y="510" type="line"/>
      <point x="328" y="510" type="line"/>
      <point x="174" y="607" type="line" smooth="yes"/>
      <point x="156" y="619"/>
      <point x="145" y="634"/>
      <point x="145" y="650" type="curve" smooth="yes"/>
      <point x="145" y="669"/>
      <point x="158" y="681"/>
      <point x="179" y="681" type="curve" smooth="yes"/>
      <point x="194" y="681"/>
      <point x="203" y="676"/>
      <point x="221" y="658" type="curve" smooth="yes"/>
    </contour>
  </outline>
  <lib>
    <dict>
      <key>com.fontlab.hintData</key>
      <dict>
	<key>hhints</key>
	<array>
	  <dict>
	    <key>position</key>	    <integer>0</integer>
	    <key>width</key>	    <integer>15</integer>
	  </dict>
	  <dict>
	    <key>position</key>	    <integer>435</integer>
	    <key>width</key>	    <integer>15</integer>
	  </dict>
	  <dict>
	    <key>position</key>	    <integer>661</integer>
	    <key>width</key>	    <integer>20</integer>
	  </dict>
	</array>
	<key>vhints</key>
	<array>
	  <dict>
	    <key>position</key>
	    <integer>78</integer>
	    <key>width</key>
	    <integer>84</integer>
	  </dict>
	  <dict>
	    <key>position</key>
	    <integer>352</integer>
	    <key>width</key>
	    <integer>84</integer>
	  </dict>
	</array>
      </dict>
    </dict>
  </lib>
</glyph>
