<?xml version="1.0" encoding="UTF-8"?>
<glyph name="a146" format="1">
  <advance width="788"/>
  <unicode hex="2786"/>
  <outline>
    <contour>
      <point x="238" y="584" type="line"/>
      <point x="550" y="584" type="line"/>
      <point x="550" y="542" type="line"/>
      <point x="439" y="380"/>
      <point x="384" y="256"/>
      <point x="360" y="117" type="curve"/>
      <point x="292" y="117" type="line"/>
      <point x="311" y="247"/>
      <point x="389" y="411"/>
      <point x="492" y="534" type="curve"/>
      <point x="238" y="534" type="line"/>
    </contour>
    <contour>
      <point x="400" y="706" type="curve" smooth="yes"/>
      <point x="593" y="706"/>
      <point x="754" y="542"/>
      <point x="754" y="347" type="curve" smooth="yes"/>
      <point x="754" y="148"/>
      <point x="593" y="-13"/>
      <point x="395" y="-13" type="curve" smooth="yes"/>
      <point x="195" y="-13"/>
      <point x="35" y="148"/>
      <point x="35" y="349" type="curve" smooth="yes"/>
      <point x="35" y="547"/>
      <point x="198" y="706"/>
    </contour>
    <contour>
      <point x="400" y="673" type="curve" smooth="yes"/>
      <point x="300" y="673"/>
      <point x="217" y="637"/>
      <point x="152" y="565" type="curve" smooth="yes"/>
      <point x="98" y="506"/>
      <point x="68" y="428"/>
      <point x="68" y="349" type="curve" smooth="yes"/>
      <point x="68" y="166"/>
      <point x="213" y="20"/>
      <point x="395" y="20" type="curve" smooth="yes"/>
      <point x="575" y="20"/>
      <point x="721" y="166"/>
      <point x="721" y="347" type="curve" smooth="yes"/>
      <point x="721" y="441"/>
      <point x="684" y="524"/>
      <point x="613" y="589" type="curve" smooth="yes"/>
      <point x="556" y="641"/>
      <point x="474" y="673"/>
    </contour>
  </outline>
  <lib>
    <dict>
      <key>com.fontlab.hintData</key>
      <dict>
	<key>hhints</key>
	<array>
	  <dict>
	    <key>position</key>	    <integer>-13</integer>
	    <key>width</key>	    <integer>33</integer>
	  </dict>
	  <dict>
	    <key>position</key>	    <integer>534</integer>
	    <key>width</key>	    <integer>50</integer>
	  </dict>
	  <dict>
	    <key>position</key>	    <integer>673</integer>
	    <key>width</key>	    <integer>33</integer>
	  </dict>
	</array>
	<key>vhints</key>
	<array>
	  <dict>
	    <key>position</key>
	    <integer>35</integer>
	    <key>width</key>
	    <integer>33</integer>
	  </dict>
	  <dict>
	    <key>position</key>
	    <integer>721</integer>
	    <key>width</key>
	    <integer>33</integer>
	  </dict>
	</array>
      </dict>
    </dict>
  </lib>
</glyph>
