<?xml version="1.0" encoding="UTF-8"?>
<glyph name="a190" format="1">
  <advance width="970"/>
  <unicode hex="27BD"/>
  <outline>
    <contour>
      <point x="128" y="615" type="curve" smooth="yes"/>
      <point x="350" y="615" type="line" smooth="yes"/>
      <point x="428" y="615"/>
      <point x="449" y="603"/>
      <point x="485" y="537" type="curve" smooth="yes"/>
      <point x="528" y="459" type="line" smooth="yes"/>
      <point x="551" y="417"/>
      <point x="567" y="404"/>
      <point x="597" y="404" type="curve" smooth="yes"/>
      <point x="622" y="404"/>
      <point x="636" y="413"/>
      <point x="636" y="431" type="curve" smooth="yes"/>
      <point x="636" y="439"/>
      <point x="634" y="450"/>
      <point x="631" y="460" type="curve" smooth="yes"/>
      <point x="617" y="513"/>
      <point x="616" y="517"/>
      <point x="616" y="536" type="curve" smooth="yes"/>
      <point x="616" y="574"/>
      <point x="639" y="600"/>
      <point x="674" y="600" type="curve" smooth="yes"/>
      <point x="696" y="600"/>
      <point x="712" y="591"/>
      <point x="741" y="561" type="curve" smooth="yes"/>
      <point x="889" y="410" type="line" smooth="yes"/>
      <point x="930" y="369"/>
      <point x="931" y="367"/>
      <point x="931" y="346" type="curve" smooth="yes"/>
      <point x="931" y="325"/>
      <point x="931" y="325"/>
      <point x="883" y="274" type="curve"/>
      <point x="739" y="129" type="line" smooth="yes"/>
      <point x="709" y="99"/>
      <point x="694" y="90"/>
      <point x="674" y="90" type="curve" smooth="yes"/>
      <point x="643" y="90"/>
      <point x="614" y="117"/>
      <point x="614" y="147" type="curve" smooth="yes"/>
      <point x="614" y="160"/>
      <point x="621" y="195"/>
      <point x="630" y="224" type="curve" smooth="yes"/>
      <point x="634" y="238"/>
      <point x="636" y="251"/>
      <point x="636" y="259" type="curve" smooth="yes"/>
      <point x="636" y="276"/>
      <point x="623" y="287"/>
      <point x="602" y="287" type="curve" smooth="yes"/>
      <point x="577" y="287"/>
      <point x="558" y="279"/>
      <point x="546" y="262" type="curve" smooth="yes"/>
      <point x="538" y="252"/>
      <point x="538" y="252"/>
      <point x="520" y="220" type="curve" smooth="yes"/>
      <point x="481" y="150" type="line" smooth="yes"/>
      <point x="445" y="86"/>
      <point x="426" y="75"/>
      <point x="350" y="75" type="curve" smooth="yes"/>
      <point x="130" y="75" type="line" smooth="yes"/>
      <point x="89" y="75"/>
      <point x="73" y="78"/>
      <point x="59" y="89" type="curve" smooth="yes"/>
      <point x="44" y="101"/>
      <point x="35" y="122"/>
      <point x="35" y="147" type="curve" smooth="yes"/>
      <point x="35" y="161"/>
      <point x="37" y="176"/>
      <point x="42" y="191" type="curve" smooth="yes"/>
      <point x="69" y="281" type="line" smooth="yes"/>
      <point x="72" y="290"/>
      <point x="75" y="300"/>
      <point x="79" y="309" type="curve"/>
      <point x="84" y="325"/>
      <point x="87" y="337"/>
      <point x="87" y="344" type="curve" smooth="yes"/>
      <point x="87" y="351"/>
      <point x="86" y="356"/>
      <point x="76" y="392" type="curve"/>
      <point x="46" y="486" type="line" smooth="yes"/>
      <point x="37" y="513"/>
      <point x="35" y="525"/>
      <point x="35" y="541" type="curve" smooth="yes"/>
      <point x="35" y="593"/>
      <point x="62" y="615"/>
    </contour>
  </outline>
  <lib>
    <dict>
      <key>com.fontlab.hintData</key>
      <dict>
	<key>hhints</key>
	<array>
	  <dict>
	    <key>position</key>	    <integer>287</integer>
	    <key>width</key>	    <integer>117</integer>
	  </dict>
	</array>
      </dict>
    </dict>
  </lib>
</glyph>
