<?xml version="1.0" encoding="UTF-8"?>
<glyph name="agrave" format="1">
  <advance width="600"/>
  <unicode hex="00E0"/>
  <outline>
    <contour>
      <point x="419" y="0" type="line"/>
      <point x="433" y="67" type="line"/>
      <point x="360" y="10"/>
      <point x="295" y="-16"/>
      <point x="225" y="-16" type="curve" smooth="yes"/>
      <point x="143" y="-16"/>
      <point x="93" y="23"/>
      <point x="93" y="87" type="curve" smooth="yes"/>
      <point x="93" y="184"/>
      <point x="200" y="258"/>
      <point x="338" y="258" type="curve" smooth="yes"/>
      <point x="384" y="258"/>
      <point x="414" y="253"/>
      <point x="470" y="237" type="curve"/>
      <point x="485" y="308" type="line" smooth="yes"/>
      <point x="486" y="313"/>
      <point x="486" y="316"/>
      <point x="486" y="322" type="curve" smooth="yes"/>
      <point x="486" y="363"/>
      <point x="444" y="390"/>
      <point x="379" y="390" type="curve" smooth="yes"/>
      <point x="345" y="390"/>
      <point x="304" y="382"/>
      <point x="231" y="360" type="curve" smooth="yes"/>
      <point x="226" y="359"/>
      <point x="223" y="358"/>
      <point x="220" y="358" type="curve" smooth="yes"/>
      <point x="212" y="358"/>
      <point x="205" y="365"/>
      <point x="205" y="374" type="curve" smooth="yes"/>
      <point x="205" y="384"/>
      <point x="211" y="392"/>
      <point x="223" y="397" type="curve" smooth="yes"/>
      <point x="259" y="412"/>
      <point x="353" y="431"/>
      <point x="391" y="431" type="curve" smooth="yes"/>
      <point x="472" y="431"/>
      <point x="528" y="390"/>
      <point x="528" y="331" type="curve" smooth="yes"/>
      <point x="528" y="322"/>
      <point x="527" y="316"/>
      <point x="526" y="308" type="curve" smooth="yes"/>
      <point x="469" y="41" type="line"/>
      <point x="523" y="41" type="line" smooth="yes"/>
      <point x="540" y="41"/>
      <point x="546" y="37"/>
      <point x="546" y="25" type="curve" smooth="yes"/>
      <point x="546" y="10"/>
      <point x="534" y="0"/>
      <point x="514" y="0" type="curve" smooth="yes"/>
    </contour>
    <contour>
      <point x="443" y="112" type="curve"/>
      <point x="462" y="202" type="line"/>
      <point x="427" y="211"/>
      <point x="382" y="217"/>
      <point x="337" y="217" type="curve" smooth="yes"/>
      <point x="222" y="217"/>
      <point x="135" y="165"/>
      <point x="135" y="96" type="curve" smooth="yes"/>
      <point x="135" y="51"/>
      <point x="170" y="25"/>
      <point x="231" y="25" type="curve" smooth="yes"/>
      <point x="304" y="25"/>
      <point x="361" y="49"/>
    </contour>
    <contour>
      <point x="347" y="630" type="curve" smooth="yes"/>
      <point x="439" y="530" type="line" smooth="yes"/>
      <point x="442" y="528"/>
      <point x="448" y="516"/>
      <point x="448" y="514" type="curve" smooth="yes"/>
      <point x="448" y="502"/>
      <point x="434" y="490"/>
      <point x="422" y="490" type="curve" smooth="yes"/>
      <point x="417" y="490"/>
      <point x="412" y="493"/>
      <point x="406" y="499" type="curve" smooth="yes"/>
      <point x="313" y="599" type="line" smooth="yes"/>
      <point x="308" y="605"/>
      <point x="305" y="610"/>
      <point x="305" y="614" type="curve" smooth="yes"/>
      <point x="305" y="627"/>
      <point x="317" y="639"/>
      <point x="331" y="639" type="curve" smooth="yes"/>
      <point x="336" y="639"/>
      <point x="340" y="637"/>
    </contour>
  </outline>
  <lib>
    <dict>
      <key>com.fontlab.hintData</key>
      <dict>
	<key>hhints</key>
	<array>
	  <dict>
	    <key>position</key>	    <integer>-16</integer>
	    <key>width</key>	    <integer>41</integer>
	  </dict>
	  <dict>
	    <key>position</key>	    <integer>0</integer>
	    <key>width</key>	    <integer>41</integer>
	  </dict>
	  <dict>
	    <key>position</key>	    <integer>217</integer>
	    <key>width</key>	    <integer>41</integer>
	  </dict>
	  <dict>
	    <key>position</key>	    <integer>390</integer>
	    <key>width</key>	    <integer>41</integer>
	  </dict>
	</array>
	<key>vhints</key>
	<array>
	  <dict>
	    <key>position</key>
	    <integer>93</integer>
	    <key>width</key>
	    <integer>42</integer>
	  </dict>
	  <dict>
	    <key>position</key>
	    <integer>486</integer>
	    <key>width</key>
	    <integer>42</integer>
	  </dict>
	</array>
      </dict>
    </dict>
  </lib>
</glyph>
