<?xml version="1.0" encoding="UTF-8"?>
<glyph name="ring" format="1">
  <advance width="600"/>
  <unicode hex="02DA"/>
  <outline>
    <contour>
      <point x="440" y="661" type="curve" smooth="yes"/>
      <point x="484" y="661"/>
      <point x="516" y="631"/>
      <point x="516" y="589" type="curve" smooth="yes"/>
      <point x="516" y="533"/>
      <point x="461" y="480"/>
      <point x="402" y="480" type="curve" smooth="yes"/>
      <point x="358" y="480"/>
      <point x="326" y="511"/>
      <point x="326" y="552" type="curve" smooth="yes"/>
      <point x="326" y="608"/>
      <point x="382" y="661"/>
    </contour>
    <contour>
      <point x="433" y="628" type="curve" smooth="yes"/>
      <point x="396" y="628"/>
      <point x="360" y="594"/>
      <point x="360" y="559" type="curve" smooth="yes"/>
      <point x="360" y="533"/>
      <point x="381" y="513"/>
      <point x="409" y="513" type="curve" smooth="yes"/>
      <point x="447" y="513"/>
      <point x="482" y="546"/>
      <point x="482" y="582" type="curve" smooth="yes"/>
      <point x="482" y="609"/>
      <point x="461" y="628"/>
    </contour>
  </outline>
  <lib>
    <dict>
      <key>com.fontlab.hintData</key>
      <dict>
	<key>hhints</key>
	<array>
	  <dict>
	    <key>position</key>	    <integer>480</integer>
	    <key>width</key>	    <integer>33</integer>
	  </dict>
	  <dict>
	    <key>position</key>	    <integer>628</integer>
	    <key>width</key>	    <integer>33</integer>
	  </dict>
	</array>
	<key>vhints</key>
	<array>
	  <dict>
	    <key>position</key>
	    <integer>326</integer>
	    <key>width</key>
	    <integer>34</integer>
	  </dict>
	  <dict>
	    <key>position</key>
	    <integer>482</integer>
	    <key>width</key>
	    <integer>34</integer>
	  </dict>
	</array>
      </dict>
    </dict>
  </lib>
</glyph>
