<?xml version="1.0" encoding="UTF-8"?>
<glyph name="scedilla" format="1">
  <advance width="600"/>
  <unicode hex="015F"/>
  <outline>
    <contour>
      <point x="309" y="-16" type="curve"/>
      <point x="302" y="-47" type="line"/>
      <point x="338" y="-48"/>
      <point x="356" y="-63"/>
      <point x="356" y="-93" type="curve" smooth="yes"/>
      <point x="356" y="-138"/>
      <point x="315" y="-173"/>
      <point x="262" y="-173" type="curve" smooth="yes"/>
      <point x="225" y="-173"/>
      <point x="181" y="-154"/>
      <point x="181" y="-138" type="curve" smooth="yes"/>
      <point x="181" y="-125"/>
      <point x="192" y="-114"/>
      <point x="205" y="-114" type="curve" smooth="yes"/>
      <point x="210" y="-114"/>
      <point x="213" y="-115"/>
      <point x="220" y="-119" type="curve" smooth="yes"/>
      <point x="240" y="-131"/>
      <point x="253" y="-135"/>
      <point x="268" y="-135" type="curve" smooth="yes"/>
      <point x="297" y="-135"/>
      <point x="319" y="-121"/>
      <point x="319" y="-101" type="curve" smooth="yes"/>
      <point x="319" y="-88"/>
      <point x="305" y="-81"/>
      <point x="278" y="-81" type="curve" smooth="yes"/>
      <point x="257" y="-81" type="line"/>
      <point x="271" y="-15" type="line"/>
      <point x="214" y="-8"/>
      <point x="178" y="8"/>
      <point x="153" y="38" type="curve"/>
      <point x="150" y="27" type="line" smooth="yes"/>
      <point x="146" y="9"/>
      <point x="138" y="0"/>
      <point x="124" y="0" type="curve" smooth="yes"/>
      <point x="116" y="0"/>
      <point x="108" y="7"/>
      <point x="108" y="15" type="curve" smooth="yes"/>
      <point x="108" y="17"/>
      <point x="109" y="24"/>
      <point x="110" y="27" type="curve" smooth="yes"/>
      <point x="127" y="110" type="line" smooth="yes"/>
      <point x="131" y="128"/>
      <point x="140" y="137"/>
      <point x="154" y="137" type="curve" smooth="yes"/>
      <point x="163" y="137"/>
      <point x="170" y="130"/>
      <point x="170" y="122" type="curve" smooth="yes"/>
      <point x="170" y="120"/>
      <point x="170" y="117"/>
      <point x="169" y="115" type="curve" smooth="yes"/>
      <point x="168" y="108"/>
      <point x="167" y="102"/>
      <point x="167" y="99" type="curve" smooth="yes"/>
      <point x="167" y="56"/>
      <point x="225" y="25"/>
      <point x="304" y="25" type="curve" smooth="yes"/>
      <point x="401" y="25"/>
      <point x="478" y="72"/>
      <point x="478" y="130" type="curve" smooth="yes"/>
      <point x="478" y="147"/>
      <point x="464" y="168"/>
      <point x="446" y="180" type="curve" smooth="yes"/>
      <point x="423" y="194"/>
      <point x="398" y="201"/>
      <point x="344" y="207" type="curve" smooth="yes"/>
      <point x="272" y="215"/>
      <point x="245" y="222"/>
      <point x="221" y="239" type="curve" smooth="yes"/>
      <point x="202" y="252"/>
      <point x="190" y="276"/>
      <point x="190" y="298" type="curve" smooth="yes"/>
      <point x="190" y="372"/>
      <point x="277" y="431"/>
      <point x="386" y="431" type="curve" smooth="yes"/>
      <point x="444" y="431"/>
      <point x="486" y="416"/>
      <point x="515" y="385" type="curve"/>
      <point x="519" y="406"/>
      <point x="529" y="417"/>
      <point x="542" y="417" type="curve" smooth="yes"/>
      <point x="551" y="417"/>
      <point x="558" y="410"/>
      <point x="558" y="402" type="curve" smooth="yes"/>
      <point x="558" y="399"/>
      <point x="557" y="394"/>
      <point x="556" y="389" type="curve" smooth="yes"/>
      <point x="542" y="320" type="line" smooth="yes"/>
      <point x="538" y="302"/>
      <point x="528" y="292"/>
      <point x="515" y="292" type="curve" smooth="yes"/>
      <point x="509" y="292"/>
      <point x="504" y="296"/>
      <point x="499" y="304" type="curve"/>
      <point x="502" y="335" type="line" smooth="yes"/>
      <point x="502" y="339"/>
      <point x="482" y="363"/>
      <point x="472" y="370" type="curve" smooth="yes"/>
      <point x="453" y="382"/>
      <point x="416" y="391"/>
      <point x="382" y="391" type="curve" smooth="yes"/>
      <point x="305" y="391"/>
      <point x="235" y="351"/>
      <point x="235" y="307" type="curve" smooth="yes"/>
      <point x="235" y="291"/>
      <point x="252" y="271"/>
      <point x="273" y="262" type="curve" smooth="yes"/>
      <point x="293" y="254"/>
      <point x="293" y="254"/>
      <point x="370" y="245" type="curve" smooth="yes"/>
      <point x="430" y="238"/>
      <point x="465" y="227"/>
      <point x="491" y="206" type="curve" smooth="yes"/>
      <point x="511" y="190"/>
      <point x="525" y="162"/>
      <point x="525" y="138" type="curve" smooth="yes"/>
      <point x="525" y="55"/>
      <point x="432" y="-11"/>
    </contour>
  </outline>
  <lib>
    <dict>
      <key>com.fontlab.hintData</key>
      <dict>
	<key>hhints</key>
	<array>
	  <dict>
	    <key>position</key>	    <integer>-173</integer>
	    <key>width</key>	    <integer>38</integer>
	  </dict>
	  <dict>
	    <key>position</key>	    <integer>0</integer>
	    <key>width</key>	    <integer>21</integer>
	  </dict>
	  <dict>
	    <key>position</key>	    <integer>391</integer>
	    <key>width</key>	    <integer>40</integer>
	  </dict>
	</array>
	<key>vhints</key>
	<array>
	  <dict>
	    <key>position</key>
	    <integer>190</integer>
	    <key>width</key>
	    <integer>45</integer>
	  </dict>
	  <dict>
	    <key>position</key>
	    <integer>319</integer>
	    <key>width</key>
	    <integer>37</integer>
	  </dict>
	  <dict>
	    <key>position</key>
	    <integer>478</integer>
	    <key>width</key>
	    <integer>47</integer>
	  </dict>
	</array>
      </dict>
    </dict>
  </lib>
</glyph>
