<?xml version="1.0" encoding="UTF-8"?>
<glyph name="four" format="1">
  <advance width="500"/>
  <unicode hex="0034"/>
  <outline>
    <contour>
      <point x="249" y="176" type="line"/>
      <point x="3" y="176" type="line"/>
      <point x="8" y="214" type="line"/>
      <point x="103" y="370"/>
      <point x="197" y="503"/>
      <point x="318" y="652" type="curve"/>
      <point x="364" y="656"/>
      <point x="394" y="664"/>
      <point x="440" y="683" type="curve"/>
      <point x="453" y="673" type="line"/>
      <point x="376" y="252" type="line"/>
      <point x="483" y="255" type="line"/>
      <point x="487" y="253" type="line"/>
      <point x="469" y="176" type="line"/>
      <point x="362" y="176" type="line"/>
      <point x="349" y="93" type="line" smooth="yes"/>
      <point x="347" y="80"/>
      <point x="346" y="70"/>
      <point x="346" y="61" type="curve" smooth="yes"/>
      <point x="346" y="46"/>
      <point x="360" y="34"/>
      <point x="378" y="33" type="curve" smooth="yes"/>
      <point x="459" y="30" type="line"/>
      <point x="454" y="-3" type="line"/>
      <point x="307" y="0"/>
      <point x="307" y="0"/>
      <point x="276" y="0" type="curve" smooth="yes"/>
      <point x="245" y="0"/>
      <point x="245" y="0"/>
      <point x="98" y="-3" type="curve"/>
      <point x="103" y="30" type="line"/>
      <point x="166" y="33" type="line" smooth="yes"/>
      <point x="220" y="36"/>
      <point x="225" y="41"/>
      <point x="235" y="95" type="curve" smooth="yes"/>
    </contour>
    <contour>
      <point x="86" y="252" type="curve"/>
      <point x="264" y="252" type="line"/>
      <point x="325" y="597" type="line"/>
      <point x="220" y="463"/>
      <point x="153" y="367"/>
    </contour>
  </outline>
  <lib>
    <dict>
      <key>com.fontlab.hintData</key>
      <dict>
	<key>hhints</key>
	<array>
	  <dict>
	    <key>position</key>	    <integer>-3</integer>
	    <key>width</key>	    <integer>20</integer>
	  </dict>
	  <dict>
	    <key>position</key>	    <integer>176</integer>
	    <key>width</key>	    <integer>76</integer>
	  </dict>
	  <dict>
	    <key>position</key>	    <integer>663</integer>
	    <key>width</key>	    <integer>20</integer>
	  </dict>
	</array>
      </dict>
    </dict>
  </lib>
</glyph>
