<?xml version="1.0" encoding="UTF-8"?>
<glyph name="Ldot" format="1">
  <advance width="611"/>
  <unicode hex="013F"/>
  <outline>
    <contour>
      <point x="430" y="415" type="curve" smooth="yes"/>
      <point x="468" y="415"/>
      <point x="492" y="390"/>
      <point x="492" y="351" type="curve" smooth="yes"/>
      <point x="492" y="300"/>
      <point x="461" y="263"/>
      <point x="418" y="263" type="curve" smooth="yes"/>
      <point x="379" y="263"/>
      <point x="353" y="289"/>
      <point x="353" y="329" type="curve" smooth="yes"/>
      <point x="353" y="379"/>
      <point x="385" y="415"/>
    </contour>
    <contour>
      <point x="416" y="646" type="line"/>
      <point x="371" y="643" type="line" smooth="yes"/>
      <point x="338" y="641"/>
      <point x="332" y="635"/>
      <point x="325" y="599" type="curve" smooth="yes"/>
      <point x="226" y="56" type="line"/>
      <point x="251" y="51"/>
      <point x="263" y="50"/>
      <point x="294" y="50" type="curve" smooth="yes"/>
      <point x="334" y="50"/>
      <point x="426" y="53"/>
      <point x="462" y="56" type="curve" smooth="yes"/>
      <point x="496" y="59"/>
      <point x="510" y="70"/>
      <point x="519" y="98" type="curve" smooth="yes"/>
      <point x="542" y="174" type="line"/>
      <point x="578" y="174" type="line"/>
      <point x="559" y="81"/>
      <point x="552" y="50"/>
      <point x="544" y="0" type="curve"/>
      <point x="402" y="-3"/>
      <point x="402" y="-3"/>
      <point x="372" y="-3" type="curve" smooth="yes"/>
      <point x="360" y="-3"/>
      <point x="357" y="-3"/>
      <point x="258" y="-1" type="curve" smooth="yes"/>
      <point x="171" y="0" type="line" smooth="yes"/>
      <point x="128" y="0"/>
      <point x="126" y="0"/>
      <point x="26" y="-3" type="curve"/>
      <point x="30" y="29" type="line"/>
      <point x="58" y="32" type="line" smooth="yes"/>
      <point x="87" y="35"/>
      <point x="95" y="46"/>
      <point x="104" y="92" type="curve" smooth="yes"/>
      <point x="186" y="541" type="line" smooth="yes"/>
      <point x="192" y="573"/>
      <point x="195" y="599"/>
      <point x="195" y="615" type="curve" smooth="yes"/>
      <point x="195" y="632"/>
      <point x="183" y="642"/>
      <point x="157" y="643" type="curve" smooth="yes"/>
      <point x="105" y="646" type="line"/>
      <point x="109" y="681" type="line"/>
      <point x="239" y="678"/>
      <point x="239" y="678"/>
      <point x="261" y="678" type="curve" smooth="yes"/>
      <point x="283" y="678"/>
      <point x="283" y="678"/>
      <point x="420" y="681" type="curve"/>
    </contour>
  </outline>
  <lib>
    <dict>
      <key>com.fontlab.hintData</key>
      <dict>
	<key>hhints</key>
	<array>
	  <dict>
	    <key>position</key>	    <integer>-3</integer>
	    <key>width</key>	    <integer>32</integer>
	  </dict>
	  <dict>
	    <key>position</key>	    <integer>-1</integer>
	    <key>width</key>	    <integer>51</integer>
	  </dict>
	  <dict>
	    <key>position</key>	    <integer>263</integer>
	    <key>width</key>	    <integer>152</integer>
	  </dict>
	  <dict>
	    <key>position</key>	    <integer>643</integer>
	    <key>width</key>	    <integer>38</integer>
	  </dict>
	  <dict>
	    <key>position</key>	    <integer>646</integer>
	    <key>width</key>	    <integer>35</integer>
	  </dict>
	</array>
	<key>vhints</key>
	<array>
	  <dict>
	    <key>position</key>
	    <integer>353</integer>
	    <key>width</key>
	    <integer>139</integer>
	  </dict>
	</array>
      </dict>
    </dict>
  </lib>
</glyph>
