<?xml version="1.0" encoding="UTF-8"?>
<glyph name="quotedblbase" format="1">
  <advance width="500"/>
  <unicode hex="201E"/>
  <outline>
    <contour>
      <point x="205" y="132" type="line"/>
      <point x="153" y="36" type="line" smooth="yes"/>
      <point x="124" y="-18"/>
      <point x="66" y="-103"/>
      <point x="53" y="-110" type="curve" smooth="yes"/>
      <point x="-3" y="-144" type="line"/>
      <point x="-18" y="-126" type="line"/>
      <point x="27" y="-55"/>
      <point x="63" y="45"/>
      <point x="70" y="115" type="curve"/>
      <point x="98" y="121"/>
      <point x="124" y="128"/>
      <point x="133" y="130" type="curve" smooth="yes"/>
      <point x="143" y="133"/>
      <point x="152" y="135"/>
      <point x="163" y="138" type="curve" smooth="yes"/>
      <point x="192" y="145" type="line"/>
    </contour>
    <contour>
      <point x="424" y="132" type="line"/>
      <point x="372" y="36" type="line" smooth="yes"/>
      <point x="343" y="-18"/>
      <point x="285" y="-103"/>
      <point x="272" y="-110" type="curve" smooth="yes"/>
      <point x="216" y="-144" type="line"/>
      <point x="201" y="-126" type="line"/>
      <point x="246" y="-55"/>
      <point x="282" y="45"/>
      <point x="289" y="115" type="curve"/>
      <point x="317" y="121"/>
      <point x="343" y="128"/>
      <point x="352" y="130" type="curve" smooth="yes"/>
      <point x="362" y="133"/>
      <point x="371" y="135"/>
      <point x="382" y="138" type="curve" smooth="yes"/>
      <point x="411" y="145" type="line"/>
    </contour>
  </outline>
</glyph>
