<?xml version="1.0" encoding="UTF-8"?>
<glyph name="uni04AE" format="1">
  <advance width="611"/>
  <unicode hex="04AE"/>
  <outline>
    <contour>
      <point x="675" y="681" type="curve"/>
      <point x="669" y="593" type="line"/>
      <point x="635" y="589"/>
      <point x="588" y="558"/>
      <point x="553" y="517" type="curve"/>
      <point x="486" y="443"/>
      <point x="401" y="283"/>
      <point x="392" y="217" type="curve"/>
      <point x="391" y="211" type="line"/>
      <point x="390" y="206" type="line"/>
      <point x="370" y="100" type="line" smooth="yes"/>
      <point x="368" y="89"/>
      <point x="367" y="78"/>
      <point x="367" y="67" type="curve" smooth="yes"/>
      <point x="367" y="44"/>
      <point x="376" y="36"/>
      <point x="404" y="35" type="curve" smooth="yes"/>
      <point x="463" y="32" type="line"/>
      <point x="459" y="-3" type="line"/>
      <point x="311" y="0"/>
      <point x="311" y="0"/>
      <point x="296" y="0" type="curve" smooth="yes"/>
      <point x="279" y="0"/>
      <point x="279" y="0"/>
      <point x="139" y="-3" type="curve"/>
      <point x="143" y="32" type="line"/>
      <point x="192" y="35" type="line"/>
      <point x="226" y="39"/>
      <point x="226" y="39"/>
      <point x="246" y="132" type="curve" smooth="yes"/>
      <point x="262" y="205" type="line" smooth="yes"/>
      <point x="264" y="213"/>
      <point x="266" y="235"/>
      <point x="266" y="245" type="curve" smooth="yes"/>
      <point x="266" y="263"/>
      <point x="257" y="305"/>
      <point x="243" y="351" type="curve" smooth="yes"/>
      <point x="211" y="456" type="line" smooth="yes"/>
      <point x="185" y="541"/>
      <point x="142" y="597"/>
      <point x="102" y="597" type="curve" smooth="yes"/>
      <point x="85" y="597"/>
      <point x="67" y="593"/>
      <point x="57" y="587" type="curve"/>
      <point x="54" y="620" type="line"/>
      <point x="79" y="637"/>
      <point x="91" y="646"/>
      <point x="144" y="690" type="curve"/>
      <point x="159" y="694"/>
      <point x="164" y="695"/>
      <point x="172" y="695" type="curve" smooth="yes"/>
      <point x="197" y="695"/>
      <point x="225" y="684"/>
      <point x="245" y="666" type="curve" smooth="yes"/>
      <point x="281" y="634"/>
      <point x="315" y="557"/>
      <point x="334" y="466" type="curve" smooth="yes"/>
      <point x="370" y="297" type="line"/>
      <point x="460" y="518"/>
      <point x="593" y="686"/>
    </contour>
  </outline>
  <lib>
    <dict>
      <key>com.fontlab.hintData</key>
      <dict>
	<key>hhints</key>
	<array>
	  <dict>
	    <key>position</key>	    <integer>-3</integer>
	    <key>width</key>	    <integer>35</integer>
	  </dict>
	  <dict>
	    <key>position</key>	    <integer>-3</integer>
	    <key>width</key>	    <integer>38</integer>
	  </dict>
	  <dict>
	    <key>position</key>	    <integer>597</integer>
	    <key>width</key>	    <integer>98</integer>
	  </dict>
	</array>
      </dict>
    </dict>
  </lib>
</glyph>
