<?xml version="1.0" encoding="UTF-8"?>
<glyph name="uni04D5" format="1">
  <advance width="738"/>
  <unicode hex="04D5"/>
  <outline>
    <contour>
      <point x="670" y="114" type="curve"/>
      <point x="680" y="86" type="line"/>
      <point x="668" y="78"/>
      <point x="663" y="75"/>
      <point x="651" y="68" type="curve" smooth="yes"/>
      <point x="552" y="3"/>
      <point x="502" y="-17"/>
      <point x="443" y="-17" type="curve" smooth="yes"/>
      <point x="379" y="-17"/>
      <point x="342" y="9"/>
      <point x="322" y="69" type="curve"/>
      <point x="237" y="-1"/>
      <point x="204" y="-17"/>
      <point x="149" y="-17" type="curve" smooth="yes"/>
      <point x="85" y="-17"/>
      <point x="44" y="21"/>
      <point x="44" y="80" type="curve" smooth="yes"/>
      <point x="44" y="131"/>
      <point x="71" y="184"/>
      <point x="109" y="210" type="curve" smooth="yes"/>
      <point x="145" y="234"/>
      <point x="206" y="251"/>
      <point x="259" y="251" type="curve" smooth="yes"/>
      <point x="339" y="251" type="line"/>
      <point x="339" y="295" type="line" smooth="yes"/>
      <point x="339" y="369"/>
      <point x="300" y="408"/>
      <point x="226" y="408" type="curve" smooth="yes"/>
      <point x="219" y="408"/>
      <point x="213" y="407"/>
      <point x="197" y="405" type="curve" smooth="yes"/>
      <point x="185" y="404"/>
      <point x="179" y="403"/>
      <point x="166" y="402" type="curve"/>
      <point x="142" y="335" type="line"/>
      <point x="123" y="339" type="line"/>
      <point x="116" y="413" type="line"/>
      <point x="172" y="455"/>
      <point x="208" y="469"/>
      <point x="266" y="469" type="curve" smooth="yes"/>
      <point x="343" y="469"/>
      <point x="386" y="440"/>
      <point x="409" y="372" type="curve"/>
      <point x="501" y="443"/>
      <point x="557" y="469"/>
      <point x="617" y="469" type="curve" smooth="yes"/>
      <point x="674" y="469"/>
      <point x="711" y="435"/>
      <point x="711" y="383" type="curve" smooth="yes"/>
      <point x="711" y="291"/>
      <point x="627" y="240"/>
      <point x="439" y="218" type="curve"/>
      <point x="436" y="193"/>
      <point x="435" y="170"/>
      <point x="435" y="141" type="curve" smooth="yes"/>
      <point x="435" y="77"/>
      <point x="458" y="47"/>
      <point x="508" y="47" type="curve" smooth="yes"/>
      <point x="549" y="47"/>
      <point x="595" y="66"/>
    </contour>
    <contour>
      <point x="335" y="222" type="curve"/>
      <point x="291" y="222" type="line" smooth="yes"/>
      <point x="207" y="222"/>
      <point x="149" y="177"/>
      <point x="149" y="113" type="curve" smooth="yes"/>
      <point x="149" y="75"/>
      <point x="169" y="56"/>
      <point x="208" y="56" type="curve" smooth="yes"/>
      <point x="282" y="56"/>
      <point x="330" y="118"/>
    </contour>
    <contour>
      <point x="443" y="248" type="curve"/>
      <point x="468" y="251"/>
      <point x="481" y="252"/>
      <point x="492" y="255" type="curve" smooth="yes"/>
      <point x="538" y="265"/>
      <point x="573" y="285"/>
      <point x="593" y="311" type="curve" smooth="yes"/>
      <point x="608" y="332"/>
      <point x="617" y="354"/>
      <point x="617" y="373" type="curve" smooth="yes"/>
      <point x="617" y="403"/>
      <point x="600" y="421"/>
      <point x="571" y="421" type="curve" smooth="yes"/>
      <point x="536" y="421"/>
      <point x="508" y="400"/>
      <point x="486" y="358" type="curve" smooth="yes"/>
      <point x="474" y="335"/>
      <point x="469" y="322"/>
    </contour>
  </outline>
  <lib>
    <dict>
      <key>com.fontlab.hintData</key>
      <dict>
	<key>hhints</key>
	<array>
	  <dict>
	    <key>position</key>	    <integer>-17</integer>
	    <key>width</key>	    <integer>64</integer>
	  </dict>
	  <dict>
	    <key>position</key>	    <integer>-17</integer>
	    <key>width</key>	    <integer>73</integer>
	  </dict>
	  <dict>
	    <key>position</key>	    <integer>222</integer>
	    <key>width</key>	    <integer>29</integer>
	  </dict>
	  <dict>
	    <key>position</key>	    <integer>408</integer>
	    <key>width</key>	    <integer>61</integer>
	  </dict>
	  <dict>
	    <key>position</key>	    <integer>421</integer>
	    <key>width</key>	    <integer>48</integer>
	  </dict>
	</array>
	<key>vhints</key>
	<array>
	  <dict>
	    <key>position</key>
	    <integer>44</integer>
	    <key>width</key>
	    <integer>105</integer>
	  </dict>
	  <dict>
	    <key>position</key>
	    <integer>335</integer>
	    <key>width</key>
	    <integer>100</integer>
	  </dict>
	  <dict>
	    <key>position</key>
	    <integer>617</integer>
	    <key>width</key>
	    <integer>94</integer>
	  </dict>
	</array>
      </dict>
    </dict>
  </lib>
</glyph>
