<?xml version="1.0" encoding="UTF-8"?>
<glyph name="afii10101" format="1">
  <advance width="444"/>
  <unicode hex="0454"/>
  <outline>
    <contour>
      <point x="277" y="216" type="line"/>
      <point x="102" y="216" type="line"/>
      <point x="89" y="123"/>
      <point x="132" y="62"/>
      <point x="212" y="62" type="curve" smooth="yes"/>
      <point x="269" y="62"/>
      <point x="311" y="86"/>
      <point x="379" y="156" type="curve"/>
      <point x="390" y="147" type="line"/>
      <point x="344" y="88"/>
      <point x="318" y="61"/>
      <point x="284" y="37" type="curve" smooth="yes"/>
      <point x="239" y="6"/>
      <point x="195" y="-10"/>
      <point x="150" y="-10" type="curve" smooth="yes"/>
      <point x="39" y="-10"/>
      <point x="-14" y="83"/>
      <point x="22" y="213" type="curve" smooth="yes"/>
      <point x="44" y="292"/>
      <point x="90" y="360"/>
      <point x="153" y="404" type="curve" smooth="yes"/>
      <point x="204" y="440"/>
      <point x="260" y="460"/>
      <point x="309" y="460" type="curve" smooth="yes"/>
      <point x="393" y="460"/>
      <point x="450" y="413"/>
      <point x="435" y="357" type="curve" smooth="yes"/>
      <point x="428" y="334"/>
      <point x="401" y="315"/>
      <point x="375" y="315" type="curve" smooth="yes"/>
      <point x="354" y="315"/>
      <point x="341" y="333"/>
      <point x="341" y="361" type="curve" smooth="yes"/>
      <point x="341" y="383" type="line" smooth="yes"/>
      <point x="341" y="420"/>
      <point x="331" y="431"/>
      <point x="295" y="431" type="curve" smooth="yes"/>
      <point x="213" y="431"/>
      <point x="138" y="358"/>
      <point x="110" y="253" type="curve"/>
      <point x="287" y="253" type="line"/>
    </contour>
  </outline>
  <lib>
    <dict>
      <key>com.fontlab.hintData</key>
      <dict>
	<key>hhints</key>
	<array>
	  <dict>
	    <key>position</key>	    <integer>-10</integer>
	    <key>width</key>	    <integer>72</integer>
	  </dict>
	  <dict>
	    <key>position</key>	    <integer>216</integer>
	    <key>width</key>	    <integer>37</integer>
	  </dict>
	  <dict>
	    <key>position</key>	    <integer>431</integer>
	    <key>width</key>	    <integer>29</integer>
	  </dict>
	</array>
	<key>vhints</key>
	<array>
	  <dict>
	    <key>position</key>
	    <integer>22</integer>
	    <key>width</key>
	    <integer>413</integer>
	  </dict>
	</array>
      </dict>
    </dict>
  </lib>
</glyph>
