<?xml version="1.0" encoding="UTF-8"?>
<glyph name="Ncaron" format="1">
  <advance width="667"/>
  <unicode hex="0147"/>
  <outline>
    <contour>
      <point x="727" y="653" type="line"/>
      <point x="727" y="637" type="line"/>
      <point x="664" y="623"/>
      <point x="660" y="617"/>
      <point x="623" y="488" type="curve" smooth="yes"/>
      <point x="479" y="-15" type="line"/>
      <point x="461" y="-15" type="line"/>
      <point x="231" y="535" type="line"/>
      <point x="117" y="113" type="line" smooth="yes"/>
      <point x="111" y="92"/>
      <point x="108" y="72"/>
      <point x="108" y="59" type="curve" smooth="yes"/>
      <point x="108" y="31"/>
      <point x="127" y="20"/>
      <point x="178" y="16" type="curve"/>
      <point x="178" y="0" type="line"/>
      <point x="-20" y="0" type="line"/>
      <point x="-20" y="16" type="line"/>
      <point x="37" y="24"/>
      <point x="45" y="36"/>
      <point x="83" y="164" type="curve"/>
      <point x="202" y="581" type="line"/>
      <point x="184" y="620"/>
      <point x="163" y="633"/>
      <point x="116" y="637" type="curve"/>
      <point x="116" y="653" type="line"/>
      <point x="277" y="653" type="line"/>
      <point x="485" y="154" type="line"/>
      <point x="587" y="534" type="line" smooth="yes"/>
      <point x="587" y="535"/>
      <point x="588" y="539"/>
      <point x="589" y="542" type="curve" smooth="yes"/>
      <point x="596" y="562"/>
      <point x="598" y="574"/>
      <point x="598" y="586" type="curve" smooth="yes"/>
      <point x="598" y="622"/>
      <point x="585" y="632"/>
      <point x="528" y="637" type="curve"/>
      <point x="528" y="653" type="line"/>
    </contour>
    <contour>
      <point x="633" y="873" type="line"/>
      <point x="470" y="704" type="line"/>
      <point x="424" y="704" type="line"/>
      <point x="328" y="873" type="line"/>
      <point x="365" y="873" type="line"/>
      <point x="455" y="768" type="line"/>
      <point x="597" y="873" type="line"/>
    </contour>
  </outline>
  <lib>
    <dict>
      <key>com.fontlab.hintData</key>
      <dict>
	<key>hhints</key>
	<array>
	  <dict>
	    <key>position</key>	    <integer>-15</integer>
	    <key>width</key>	    <integer>20</integer>
	  </dict>
	  <dict>
	    <key>position</key>	    <integer>633</integer>
	    <key>width</key>	    <integer>20</integer>
	  </dict>
	</array>
      </dict>
    </dict>
  </lib>
</glyph>
