<?xml version="1.0" encoding="UTF-8"?>
<glyph name="questiondown" format="1">
  <advance width="500"/>
  <unicode hex="00BF"/>
  <outline>
    <contour>
      <point x="284" y="285" type="line"/>
      <point x="301" y="283" type="line"/>
      <point x="283" y="184"/>
      <point x="272" y="162"/>
      <point x="189" y="67" type="curve"/>
      <point x="124" y="-4"/>
      <point x="102" y="-46"/>
      <point x="102" y="-99" type="curve" smooth="yes"/>
      <point x="102" y="-153"/>
      <point x="131" y="-183"/>
      <point x="182" y="-183" type="curve" smooth="yes"/>
      <point x="225" y="-183"/>
      <point x="252" y="-165"/>
      <point x="252" y="-135" type="curve" smooth="yes"/>
      <point x="252" y="-127"/>
      <point x="250" y="-121"/>
      <point x="244" y="-108" type="curve" smooth="yes"/>
      <point x="239" y="-96"/>
      <point x="237" y="-91"/>
      <point x="237" y="-83" type="curve" smooth="yes"/>
      <point x="237" y="-63"/>
      <point x="253" y="-48"/>
      <point x="277" y="-48" type="curve" smooth="yes"/>
      <point x="301" y="-48"/>
      <point x="316" y="-66"/>
      <point x="316" y="-96" type="curve" smooth="yes"/>
      <point x="316" y="-160"/>
      <point x="258" y="-205"/>
      <point x="175" y="-205" type="curve" smooth="yes"/>
      <point x="86" y="-205"/>
      <point x="28" y="-154"/>
      <point x="28" y="-76" type="curve" smooth="yes"/>
      <point x="28" y="-15"/>
      <point x="48" y="12"/>
      <point x="162" y="105" type="curve" smooth="yes"/>
      <point x="233" y="162"/>
      <point x="263" y="200"/>
      <point x="277" y="256" type="curve" smooth="yes"/>
    </contour>
    <contour>
      <point x="314" y="473" type="curve" smooth="yes"/>
      <point x="344" y="473"/>
      <point x="367" y="450"/>
      <point x="367" y="421" type="curve" smooth="yes"/>
      <point x="367" y="391"/>
      <point x="344" y="368"/>
      <point x="315" y="368" type="curve" smooth="yes"/>
      <point x="286" y="368"/>
      <point x="262" y="392"/>
      <point x="262" y="421" type="curve" smooth="yes"/>
      <point x="262" y="448"/>
      <point x="286" y="473"/>
    </contour>
  </outline>
  <lib>
    <dict>
      <key>com.fontlab.hintData</key>
      <dict>
	<key>hhints</key>
	<array>
	  <dict>
	    <key>position</key>	    <integer>-205</integer>
	    <key>width</key>	    <integer>22</integer>
	  </dict>
	  <dict>
	    <key>position</key>	    <integer>368</integer>
	    <key>width</key>	    <integer>105</integer>
	  </dict>
	</array>
	<key>vhints</key>
	<array>
	  <dict>
	    <key>position</key>
	    <integer>28</integer>
	    <key>width</key>
	    <integer>74</integer>
	  </dict>
	  <dict>
	    <key>position</key>
	    <integer>252</integer>
	    <key>width</key>
	    <integer>64</integer>
	  </dict>
	  <dict>
	    <key>position</key>
	    <integer>262</integer>
	    <key>width</key>
	    <integer>105</integer>
	  </dict>
	</array>
      </dict>
    </dict>
  </lib>
</glyph>
