<?xml version="1.0" encoding="UTF-8"?>
<glyph name="Uogonek" format="1">
  <advance width="722"/>
  <unicode hex="0172"/>
  <outline>
    <contour>
      <point x="566" y="653" type="line"/>
      <point x="765" y="653" type="line"/>
      <point x="765" y="637" type="line"/>
      <point x="703" y="623"/>
      <point x="699" y="618"/>
      <point x="661" y="488" type="curve" smooth="yes"/>
      <point x="578" y="203" type="line" smooth="yes"/>
      <point x="563" y="153"/>
      <point x="549" y="121"/>
      <point x="518" y="69" type="curve" smooth="yes"/>
      <point x="478" y="2"/>
      <point x="469" y="-21"/>
      <point x="469" y="-52" type="curve" smooth="yes"/>
      <point x="469" y="-85"/>
      <point x="492" y="-106"/>
      <point x="528" y="-106" type="curve" smooth="yes"/>
      <point x="559" y="-106"/>
      <point x="584" y="-96"/>
      <point x="611" y="-74" type="curve"/>
      <point x="628" y="-92" type="line"/>
      <point x="593" y="-143"/>
      <point x="551" y="-169"/>
      <point x="503" y="-169" type="curve" smooth="yes"/>
      <point x="451" y="-169"/>
      <point x="408" y="-126"/>
      <point x="408" y="-75" type="curve" smooth="yes"/>
      <point x="408" y="-44"/>
      <point x="418" y="-19"/>
      <point x="443" y="10" type="curve"/>
      <point x="404" y="-10"/>
      <point x="366" y="-18"/>
      <point x="319" y="-18" type="curve" smooth="yes"/>
      <point x="194" y="-18"/>
      <point x="102" y="51"/>
      <point x="102" y="147" type="curve" smooth="yes"/>
      <point x="102" y="187"/>
      <point x="115" y="251"/>
      <point x="145" y="359" type="curve" smooth="yes"/>
      <point x="198" y="551" type="line" smooth="yes"/>
      <point x="202" y="568"/>
      <point x="205" y="584"/>
      <point x="205" y="596" type="curve" smooth="yes"/>
      <point x="205" y="625"/>
      <point x="194" y="631"/>
      <point x="127" y="637" type="curve"/>
      <point x="127" y="653" type="line"/>
      <point x="400" y="653" type="line"/>
      <point x="400" y="637" type="line"/>
      <point x="332" y="630"/>
      <point x="316" y="616"/>
      <point x="295" y="546" type="curve" smooth="yes"/>
      <point x="294" y="541"/>
      <point x="292" y="534"/>
      <point x="290" y="527" type="curve" smooth="yes"/>
      <point x="223" y="296"/>
      <point x="192" y="175"/>
      <point x="192" y="141" type="curve" smooth="yes"/>
      <point x="192" y="71"/>
      <point x="249" y="23"/>
      <point x="332" y="23" type="curve" smooth="yes"/>
      <point x="402" y="23"/>
      <point x="456" y="54"/>
      <point x="495" y="116" type="curve" smooth="yes"/>
      <point x="517" y="150"/>
      <point x="532" y="190"/>
      <point x="550" y="255" type="curve" smooth="yes"/>
      <point x="555" y="274"/>
      <point x="559" y="291"/>
      <point x="563" y="304" type="curve" smooth="yes"/>
      <point x="611" y="473"/>
      <point x="637" y="575"/>
      <point x="637" y="591" type="curve" smooth="yes"/>
      <point x="637" y="604"/>
      <point x="630" y="618"/>
      <point x="620" y="624" type="curve" smooth="yes"/>
      <point x="608" y="632"/>
      <point x="598" y="634"/>
      <point x="566" y="637" type="curve"/>
    </contour>
  </outline>
  <lib>
    <dict>
      <key>com.fontlab.hintData</key>
      <dict>
	<key>hhints</key>
	<array>
	  <dict>
	    <key>position</key>	    <integer>-169</integer>
	    <key>width</key>	    <integer>63</integer>
	  </dict>
	  <dict>
	    <key>position</key>	    <integer>-18</integer>
	    <key>width</key>	    <integer>41</integer>
	  </dict>
	  <dict>
	    <key>position</key>	    <integer>633</integer>
	    <key>width</key>	    <integer>20</integer>
	  </dict>
	</array>
	<key>vhints</key>
	<array>
	  <dict>
	    <key>position</key>
	    <integer>102</integer>
	    <key>width</key>
	    <integer>90</integer>
	  </dict>
	  <dict>
	    <key>position</key>
	    <integer>408</integer>
	    <key>width</key>
	    <integer>61</integer>
	  </dict>
	</array>
      </dict>
    </dict>
  </lib>
</glyph>
