<?xml version="1.0" encoding="UTF-8"?>
<glyph name="uni04AD" format="1">
  <advance width="484"/>
  <unicode hex="04AD"/>
  <outline>
    <contour>
      <point x="76" y="0" type="line"/>
      <point x="80" y="15" type="line"/>
      <point x="131" y="19"/>
      <point x="144" y="18"/>
      <point x="161" y="81" type="curve" smooth="yes"/>
      <point x="253" y="413" type="line"/>
      <point x="185" y="413" type="line" smooth="yes"/>
      <point x="125" y="413"/>
      <point x="106" y="398"/>
      <point x="77" y="325" type="curve"/>
      <point x="59" y="325" type="line"/>
      <point x="97" y="450" type="line"/>
      <point x="513" y="450" type="line"/>
      <point x="483" y="325" type="line"/>
      <point x="465" y="325" type="line"/>
      <point x="476" y="398"/>
      <point x="465" y="413"/>
      <point x="405" y="413" type="curve" smooth="yes"/>
      <point x="337" y="413" type="line"/>
      <point x="245" y="81" type="line" smooth="yes"/>
      <point x="231" y="32"/>
      <point x="240" y="20"/>
      <point x="288" y="15" type="curve"/>
      <point x="255" y="-119" type="line"/>
      <point x="230" y="-119" type="line"/>
      <point x="238" y="-29"/>
      <point x="259" y="0"/>
      <point x="146" y="0" type="curve" smooth="yes"/>
    </contour>
  </outline>
  <lib>
    <dict>
      <key>com.fontlab.hintData</key>
      <dict>
	<key>hhints</key>
	<array>
	  <dict>
	    <key>position</key>	    <integer>0</integer>
	    <key>width</key>	    <integer>15</integer>
	  </dict>
	  <dict>
	    <key>position</key>	    <integer>413</integer>
	    <key>width</key>	    <integer>37</integer>
	  </dict>
	</array>
	<key>vhints</key>
	<array>
	  <dict>
	    <key>position</key>
	    <integer>59</integer>
	    <key>width</key>
	    <integer>454</integer>
	  </dict>
	</array>
      </dict>
    </dict>
  </lib>
</glyph>
