<?xml version="1.0" encoding="UTF-8"?>
<glyph name="uni04D2" format="1">
  <advance width="611"/>
  <unicode hex="04D2"/>
  <outline>
    <contour>
      <point x="296" y="818" type="curve" smooth="yes"/>
      <point x="321" y="818"/>
      <point x="344" y="794"/>
      <point x="344" y="769" type="curve" smooth="yes"/>
      <point x="344" y="742"/>
      <point x="322" y="720"/>
      <point x="295" y="720" type="curve" smooth="yes"/>
      <point x="268" y="720"/>
      <point x="246" y="742"/>
      <point x="246" y="770" type="curve" smooth="yes"/>
      <point x="246" y="796"/>
      <point x="268" y="818"/>
    </contour>
    <contour>
      <point x="496" y="818" type="curve" smooth="yes"/>
      <point x="521" y="818"/>
      <point x="544" y="794"/>
      <point x="544" y="769" type="curve" smooth="yes"/>
      <point x="544" y="742"/>
      <point x="522" y="720"/>
      <point x="495" y="720" type="curve" smooth="yes"/>
      <point x="468" y="720"/>
      <point x="446" y="742"/>
      <point x="446" y="770" type="curve" smooth="yes"/>
      <point x="446" y="796"/>
      <point x="468" y="818"/>
    </contour>
    <contour>
      <point x="564" y="16" type="curve"/>
      <point x="564" y="0" type="line"/>
      <point x="318" y="0" type="line"/>
      <point x="318" y="16" type="line"/>
      <point x="382" y="22"/>
      <point x="396" y="31"/>
      <point x="396" y="69" type="curve" smooth="yes"/>
      <point x="396" y="77"/>
      <point x="395" y="86"/>
      <point x="394" y="95" type="curve" smooth="yes"/>
      <point x="374" y="226" type="line"/>
      <point x="154" y="226" type="line"/>
      <point x="97" y="113" type="line" smooth="yes"/>
      <point x="80" y="79"/>
      <point x="77" y="70"/>
      <point x="77" y="51" type="curve" smooth="yes"/>
      <point x="77" y="26"/>
      <point x="85" y="21"/>
      <point x="136" y="16" type="curve"/>
      <point x="136" y="0" type="line"/>
      <point x="-51" y="0" type="line"/>
      <point x="-51" y="16" type="line"/>
      <point x="-11" y="24"/>
      <point x="-1" y="35"/>
      <point x="78" y="168" type="curve"/>
      <point x="368" y="668" type="line"/>
      <point x="394" y="668" type="line"/>
      <point x="488" y="102" type="line" smooth="yes"/>
      <point x="501" y="29"/>
      <point x="507" y="21"/>
    </contour>
    <contour>
      <point x="175" y="262" type="line"/>
      <point x="369" y="262" type="line"/>
      <point x="325" y="522" type="line"/>
    </contour>
  </outline>
  <lib>
    <dict>
      <key>com.fontlab.hintData</key>
      <dict>
	<key>hhints</key>
	<array>
	  <dict>
	    <key>position</key>	    <integer>0</integer>
	    <key>width</key>	    <integer>16</integer>
	  </dict>
	  <dict>
	    <key>position</key>	    <integer>226</integer>
	    <key>width</key>	    <integer>36</integer>
	  </dict>
	  <dict>
	    <key>position</key>	    <integer>648</integer>
	    <key>width</key>	    <integer>20</integer>
	  </dict>
	  <dict>
	    <key>position</key>	    <integer>720</integer>
	    <key>width</key>	    <integer>98</integer>
	  </dict>
	</array>
	<key>vhints</key>
	<array>
	  <dict>
	    <key>position</key>
	    <integer>246</integer>
	    <key>width</key>
	    <integer>98</integer>
	  </dict>
	  <dict>
	    <key>position</key>
	    <integer>446</integer>
	    <key>width</key>
	    <integer>98</integer>
	  </dict>
	</array>
      </dict>
    </dict>
  </lib>
</glyph>
