<?xml version="1.0" encoding="UTF-8"?>
<glyph name="afii10145" format="1">
  <advance width="869"/>
  <unicode hex="040F"/>
  <outline>
    <contour>
      <point x="255" y="0" type="curve"/>
      <point x="-24" y="0" type="line"/>
      <point x="-24" y="25" type="line"/>
      <point x="46" y="30"/>
      <point x="70" y="46"/>
      <point x="84" y="96" type="curve" smooth="yes"/>
      <point x="214" y="573" type="line" smooth="yes"/>
      <point x="228" y="622"/>
      <point x="221" y="635"/>
      <point x="152" y="644" type="curve"/>
      <point x="152" y="669" type="line"/>
      <point x="492" y="669" type="line"/>
      <point x="492" y="644" type="line"/>
      <point x="416" y="636"/>
      <point x="390" y="622"/>
      <point x="376" y="573" type="curve" smooth="yes"/>
      <point x="232" y="47" type="line"/>
      <point x="473" y="47" type="line"/>
      <point x="617" y="573" type="line" smooth="yes"/>
      <point x="631" y="622"/>
      <point x="623" y="636"/>
      <point x="553" y="644" type="curve"/>
      <point x="553" y="669" type="line"/>
      <point x="890" y="669" type="line"/>
      <point x="890" y="644" type="line"/>
      <point x="817" y="635"/>
      <point x="793" y="622"/>
      <point x="779" y="573" type="curve" smooth="yes"/>
      <point x="649" y="96" type="line" smooth="yes"/>
      <point x="635" y="46"/>
      <point x="649" y="31"/>
      <point x="714" y="25" type="curve"/>
      <point x="714" y="0" type="line"/>
      <point x="433" y="0" type="line"/>
      <point x="389" y="-68"/>
      <point x="337" y="-228"/>
      <point x="337" y="-228" type="curve"/>
      <point x="231" y="-228" type="line"/>
      <point x="231" y="-228"/>
      <point x="267" y="-68"/>
    </contour>
  </outline>
  <lib>
    <dict>
      <key>com.fontlab.hintData</key>
      <dict>
	<key>hhints</key>
	<array>
	  <dict>
	    <key>position</key>	    <integer>0</integer>
	    <key>width</key>	    <integer>25</integer>
	  </dict>
	  <dict>
	    <key>position</key>	    <integer>0</integer>
	    <key>width</key>	    <integer>47</integer>
	  </dict>
	  <dict>
	    <key>position</key>	    <integer>644</integer>
	    <key>width</key>	    <integer>25</integer>
	  </dict>
	</array>
      </dict>
    </dict>
  </lib>
</glyph>
