<?xml version="1.0" encoding="UTF-8"?>
<glyph name="Idotaccent" format="1">
  <advance width="389"/>
  <unicode hex="0130"/>
  <outline>
    <contour>
      <point x="264" y="25" type="curve"/>
      <point x="264" y="0" type="line"/>
      <point x="-32" y="0" type="line"/>
      <point x="-32" y="25" type="line"/>
      <point x="17" y="31"/>
      <point x="32" y="45"/>
      <point x="48" y="97" type="curve"/>
      <point x="171" y="546" type="line" smooth="yes"/>
      <point x="176" y="564"/>
      <point x="181" y="595"/>
      <point x="181" y="607" type="curve" smooth="yes"/>
      <point x="181" y="627"/>
      <point x="171" y="635"/>
      <point x="140" y="639" type="curve" smooth="yes"/>
      <point x="135" y="640"/>
      <point x="122" y="642"/>
      <point x="108" y="644" type="curve"/>
      <point x="108" y="669" type="line"/>
      <point x="406" y="669" type="line"/>
      <point x="406" y="644" type="line"/>
      <point x="355" y="638"/>
      <point x="340" y="625"/>
      <point x="324" y="572" type="curve"/>
      <point x="210" y="152" type="line" smooth="yes"/>
      <point x="197" y="103"/>
      <point x="192" y="80"/>
      <point x="192" y="65" type="curve" smooth="yes"/>
      <point x="192" y="37"/>
      <point x="207" y="28"/>
    </contour>
    <contour>
      <point x="255" y="865" type="curve" smooth="yes"/>
      <point x="291" y="865"/>
      <point x="321" y="835"/>
      <point x="321" y="799" type="curve" smooth="yes"/>
      <point x="321" y="765"/>
      <point x="290" y="735"/>
      <point x="255" y="735" type="curve" smooth="yes"/>
      <point x="221" y="735"/>
      <point x="191" y="765"/>
      <point x="191" y="799" type="curve" smooth="yes"/>
      <point x="191" y="835"/>
      <point x="220" y="865"/>
    </contour>
  </outline>
  <lib>
    <dict>
      <key>com.fontlab.hintData</key>
      <dict>
	<key>hhints</key>
	<array>
	  <dict>
	    <key>position</key>	    <integer>0</integer>
	    <key>width</key>	    <integer>20</integer>
	  </dict>
	  <dict>
	    <key>position</key>	    <integer>649</integer>
	    <key>width</key>	    <integer>20</integer>
	  </dict>
	</array>
      </dict>
    </dict>
  </lib>
</glyph>
