<?xml version="1.0" encoding="UTF-8"?>
<glyph name="onehalf" format="1">
  <advance width="750"/>
  <unicode hex="00BD"/>
  <outline>
    <contour>
      <point x="614" y="683" type="line"/>
      <point x="179" y="-14" type="line"/>
      <point x="121" y="-14" type="line"/>
      <point x="556" y="683" type="line"/>
    </contour>
    <contour>
      <point x="701" y="114" type="line"/>
      <point x="650" y="0" type="line"/>
      <point x="412" y="0" type="line"/>
      <point x="412" y="16" type="line"/>
      <point x="516" y="115"/>
      <point x="531" y="129"/>
      <point x="560" y="161" type="curve" smooth="yes"/>
      <point x="611" y="217"/>
      <point x="630" y="251"/>
      <point x="630" y="282" type="curve" smooth="yes"/>
      <point x="630" y="323"/>
      <point x="607" y="348"/>
      <point x="571" y="348" type="curve" smooth="yes"/>
      <point x="542" y="348"/>
      <point x="521" y="336"/>
      <point x="489" y="300" type="curve"/>
      <point x="471" y="311" type="line"/>
      <point x="507" y="377"/>
      <point x="554" y="409"/>
      <point x="615" y="409" type="curve" smooth="yes"/>
      <point x="675" y="409"/>
      <point x="723" y="365"/>
      <point x="723" y="310" type="curve" smooth="yes"/>
      <point x="723" y="262"/>
      <point x="697" y="223"/>
      <point x="631" y="170" type="curve" smooth="yes"/>
      <point x="506" y="69" type="line"/>
      <point x="595" y="69" type="line" smooth="yes"/>
      <point x="645" y="69"/>
      <point x="660" y="77"/>
      <point x="685" y="114" type="curve"/>
    </contour>
    <contour>
      <point x="-9" y="274" type="line"/>
      <point x="-9" y="293" type="line"/>
      <point x="47" y="293"/>
      <point x="62" y="307"/>
      <point x="79" y="373" type="curve" smooth="yes"/>
      <point x="81" y="380"/>
      <point x="86" y="396"/>
      <point x="92" y="414" type="curve" smooth="yes"/>
      <point x="121" y="498"/>
      <point x="152" y="602"/>
      <point x="152" y="613" type="curve" smooth="yes"/>
      <point x="152" y="624"/>
      <point x="140" y="634"/>
      <point x="126" y="634" type="curve" smooth="yes"/>
      <point x="119" y="634"/>
      <point x="108" y="633"/>
      <point x="94" y="632" type="curve" smooth="yes"/>
      <point x="83" y="631" type="line"/>
      <point x="85" y="652" type="line"/>
      <point x="157" y="663"/>
      <point x="199" y="670"/>
      <point x="262" y="683" type="curve"/>
      <point x="162" y="353" type="line" smooth="yes"/>
      <point x="158" y="341"/>
      <point x="156" y="328"/>
      <point x="156" y="319" type="curve" smooth="yes"/>
      <point x="156" y="297"/>
      <point x="166" y="293"/>
      <point x="215" y="293" type="curve"/>
      <point x="215" y="274" type="line"/>
    </contour>
  </outline>
  <lib>
    <dict>
      <key>com.fontlab.hintData</key>
      <dict>
	<key>hhints</key>
	<array>
	  <dict>
	    <key>position</key>	    <integer>-14</integer>
	    <key>width</key>	    <integer>20</integer>
	  </dict>
	  <dict>
	    <key>position</key>	    <integer>0</integer>
	    <key>width</key>	    <integer>69</integer>
	  </dict>
	  <dict>
	    <key>position</key>	    <integer>348</integer>
	    <key>width</key>	    <integer>61</integer>
	  </dict>
	  <dict>
	    <key>position</key>	    <integer>663</integer>
	    <key>width</key>	    <integer>20</integer>
	  </dict>
	</array>
	<key>vhints</key>
	<array>
	  <dict>
	    <key>position</key>
	    <integer>-9</integer>
	    <key>width</key>
	    <integer>224</integer>
	  </dict>
	  <dict>
	    <key>position</key>
	    <integer>630</integer>
	    <key>width</key>
	    <integer>93</integer>
	  </dict>
	</array>
      </dict>
    </dict>
  </lib>
</glyph>
