<?xml version="1.0" encoding="UTF-8"?>
<glyph name="otilde" format="1">
  <advance width="500"/>
  <unicode hex="00F5"/>
  <outline>
    <contour>
      <point x="284" y="462" type="curve" smooth="yes"/>
      <point x="375" y="462"/>
      <point x="441" y="399"/>
      <point x="441" y="311" type="curve" smooth="yes"/>
      <point x="441" y="142"/>
      <point x="305" y="-13"/>
      <point x="156" y="-13" type="curve" smooth="yes"/>
      <point x="64" y="-13"/>
      <point x="-3" y="50"/>
      <point x="-3" y="135" type="curve" smooth="yes"/>
      <point x="-3" y="303"/>
      <point x="137" y="462"/>
    </contour>
    <contour>
      <point x="275" y="433" type="curve" smooth="yes"/>
      <point x="243" y="433"/>
      <point x="214" y="410"/>
      <point x="188" y="364" type="curve" smooth="yes"/>
      <point x="153" y="302"/>
      <point x="116" y="156"/>
      <point x="116" y="78" type="curve" smooth="yes"/>
      <point x="116" y="40"/>
      <point x="135" y="16"/>
      <point x="165" y="16" type="curve" smooth="yes"/>
      <point x="200" y="16"/>
      <point x="230" y="45"/>
      <point x="259" y="107" type="curve" smooth="yes"/>
      <point x="291" y="177"/>
      <point x="322" y="307"/>
      <point x="322" y="375" type="curve" smooth="yes"/>
      <point x="322" y="411"/>
      <point x="304" y="433"/>
    </contour>
    <contour>
      <point x="450" y="655" type="curve"/>
      <point x="491" y="655" type="line"/>
      <point x="469" y="572"/>
      <point x="434" y="536"/>
      <point x="374" y="536" type="curve" smooth="yes"/>
      <point x="355" y="536"/>
      <point x="343" y="539"/>
      <point x="317" y="549" type="curve" smooth="yes"/>
      <point x="258" y="572" type="line" smooth="yes"/>
      <point x="245" y="577"/>
      <point x="231" y="580"/>
      <point x="220" y="580" type="curve" smooth="yes"/>
      <point x="198" y="580"/>
      <point x="185" y="569"/>
      <point x="172" y="537" type="curve"/>
      <point x="132" y="537" type="line"/>
      <point x="145" y="609"/>
      <point x="191" y="655"/>
      <point x="248" y="655" type="curve" smooth="yes"/>
      <point x="272" y="655"/>
      <point x="304" y="647"/>
      <point x="345" y="629" type="curve" smooth="yes"/>
      <point x="371" y="618"/>
      <point x="388" y="613"/>
      <point x="399" y="613" type="curve" smooth="yes"/>
      <point x="422" y="613"/>
      <point x="435" y="624"/>
    </contour>
  </outline>
  <lib>
    <dict>
      <key>com.fontlab.hintData</key>
      <dict>
	<key>hhints</key>
	<array>
	  <dict>
	    <key>position</key>	    <integer>-13</integer>
	    <key>width</key>	    <integer>29</integer>
	  </dict>
	  <dict>
	    <key>position</key>	    <integer>433</integer>
	    <key>width</key>	    <integer>29</integer>
	  </dict>
	  <dict>
	    <key>position</key>	    <integer>536</integer>
	    <key>width</key>	    <integer>77</integer>
	  </dict>
	  <dict>
	    <key>position</key>	    <integer>580</integer>
	    <key>width</key>	    <integer>75</integer>
	  </dict>
	</array>
	<key>vhints</key>
	<array>
	  <dict>
	    <key>position</key>
	    <integer>-3</integer>
	    <key>width</key>
	    <integer>119</integer>
	  </dict>
	  <dict>
	    <key>position</key>
	    <integer>322</integer>
	    <key>width</key>
	    <integer>119</integer>
	  </dict>
	</array>
      </dict>
    </dict>
  </lib>
</glyph>
