<?xml version="1.0" encoding="UTF-8"?>
<glyph name="percent" format="1">
  <advance width="833"/>
  <unicode hex="0025"/>
  <outline>
    <contour>
      <point x="676" y="376" type="curve" smooth="yes"/>
      <point x="746" y="376"/>
      <point x="793" y="329"/>
      <point x="793" y="260" type="curve" smooth="yes"/>
      <point x="793" y="184"/>
      <point x="760" y="101"/>
      <point x="706" y="44" type="curve" smooth="yes"/>
      <point x="674" y="10"/>
      <point x="628" y="-10"/>
      <point x="583" y="-10" type="curve" smooth="yes"/>
      <point x="503" y="-10"/>
      <point x="450" y="45"/>
      <point x="450" y="128" type="curve" smooth="yes"/>
      <point x="450" y="192"/>
      <point x="485" y="265"/>
      <point x="539" y="316" type="curve" smooth="yes"/>
      <point x="582" y="356"/>
      <point x="627" y="376"/>
    </contour>
    <contour>
      <point x="708" y="325" type="curve" smooth="yes"/>
      <point x="684" y="326"/>
      <point x="658" y="308"/>
      <point x="635" y="273" type="curve"/>
      <point x="605" y="230"/>
      <point x="570" y="137"/>
      <point x="567" y="93" type="curve" smooth="yes"/>
      <point x="565" y="61"/>
      <point x="587" y="36"/>
      <point x="617" y="36" type="curve" smooth="yes"/>
      <point x="653" y="36"/>
      <point x="688" y="65"/>
      <point x="718" y="119" type="curve" smooth="yes"/>
      <point x="745" y="168"/>
      <point x="759" y="214"/>
      <point x="759" y="257" type="curve" smooth="yes"/>
      <point x="759" y="295"/>
      <point x="738" y="323"/>
    </contour>
    <contour>
      <point x="194" y="-8" type="line"/>
      <point x="543" y="612" type="line"/>
      <point x="500" y="594"/>
      <point x="461" y="585"/>
      <point x="424" y="585" type="curve" smooth="yes"/>
      <point x="414" y="585"/>
      <point x="401" y="587"/>
      <point x="381" y="590" type="curve"/>
      <point x="380" y="501"/>
      <point x="363" y="444"/>
      <point x="320" y="382" type="curve" smooth="yes"/>
      <point x="281" y="325"/>
      <point x="228" y="294"/>
      <point x="168" y="294" type="curve" smooth="yes"/>
      <point x="93" y="294"/>
      <point x="39" y="351"/>
      <point x="39" y="431" type="curve" smooth="yes"/>
      <point x="39" y="555"/>
      <point x="151" y="679"/>
      <point x="263" y="679" type="curve" smooth="yes"/>
      <point x="292" y="679"/>
      <point x="311" y="672"/>
      <point x="340" y="651" type="curve" smooth="yes"/>
      <point x="368" y="631"/>
      <point x="394" y="623"/>
      <point x="436" y="623" type="curve" smooth="yes"/>
      <point x="499" y="623"/>
      <point x="549" y="643"/>
      <point x="605" y="692" type="curve"/>
      <point x="644" y="692" type="line"/>
      <point x="250" y="-8" type="line"/>
    </contour>
    <contour>
      <point x="287" y="631" type="curve" smooth="yes"/>
      <point x="270" y="633"/>
      <point x="246" y="613"/>
      <point x="224" y="581" type="curve" smooth="yes"/>
      <point x="191" y="531"/>
      <point x="157" y="441"/>
      <point x="154" y="394" type="curve" smooth="yes"/>
      <point x="152" y="363"/>
      <point x="173" y="340"/>
      <point x="202" y="340" type="curve" smooth="yes"/>
      <point x="272" y="340"/>
      <point x="347" y="463"/>
      <point x="347" y="577" type="curve" smooth="yes"/>
      <point x="347" y="599"/>
      <point x="346" y="601"/>
      <point x="318" y="612" type="curve" smooth="yes"/>
      <point x="311" y="615"/>
      <point x="310" y="615"/>
      <point x="302" y="623" type="curve" smooth="yes"/>
      <point x="295" y="629"/>
      <point x="292" y="630"/>
    </contour>
  </outline>
  <lib>
    <dict>
      <key>com.fontlab.hintData</key>
      <dict>
	<key>hhints</key>
	<array>
	  <dict>
	    <key>position</key>	    <integer>-10</integer>
	    <key>width</key>	    <integer>46</integer>
	  </dict>
	  <dict>
	    <key>position</key>	    <integer>294</integer>
	    <key>width</key>	    <integer>46</integer>
	  </dict>
	  <dict>
	    <key>position</key>	    <integer>585</integer>
	    <key>width</key>	    <integer>38</integer>
	  </dict>
	  <dict>
	    <key>position</key>	    <integer>659</integer>
	    <key>width</key>	    <integer>20</integer>
	  </dict>
	</array>
	<key>vhints</key>
	<array>
	  <dict>
	    <key>position</key>
	    <integer>759</integer>
	    <key>width</key>
	    <integer>34</integer>
	  </dict>
	</array>
      </dict>
    </dict>
  </lib>
</glyph>
