<?xml version="1.0" encoding="UTF-8"?>
<glyph name="registered" format="1">
  <advance width="747"/>
  <unicode hex="00AE"/>
  <outline>
    <contour>
      <point x="210" y="511" type="curve"/>
      <point x="210" y="527" type="line"/>
      <point x="393" y="527" type="line" smooth="yes"/>
      <point x="465" y="527"/>
      <point x="510" y="490"/>
      <point x="510" y="432" type="curve" smooth="yes"/>
      <point x="510" y="384"/>
      <point x="483" y="348"/>
      <point x="429" y="328" type="curve"/>
      <point x="488" y="246" type="line" smooth="yes"/>
      <point x="519" y="204"/>
      <point x="542" y="178"/>
      <point x="562" y="162" type="curve"/>
      <point x="562" y="151" type="line"/>
      <point x="492" y="151" type="line" smooth="yes"/>
      <point x="474" y="151"/>
      <point x="458" y="171"/>
      <point x="424" y="232" type="curve" smooth="yes"/>
      <point x="406" y="263"/>
      <point x="395" y="282"/>
      <point x="372" y="317" type="curve"/>
      <point x="328" y="317" type="line"/>
      <point x="328" y="215" type="line" smooth="yes"/>
      <point x="328" y="172"/>
      <point x="328" y="172"/>
      <point x="376" y="167" type="curve"/>
      <point x="376" y="151" type="line"/>
      <point x="210" y="151" type="line"/>
      <point x="210" y="167" type="line"/>
      <point x="257" y="172"/>
      <point x="257" y="172"/>
      <point x="257" y="215" type="curve" smooth="yes"/>
      <point x="257" y="464" type="line" smooth="yes"/>
      <point x="257" y="506"/>
      <point x="257" y="506"/>
    </contour>
    <contour>
      <point x="328" y="506" type="line"/>
      <point x="328" y="337" type="line"/>
      <point x="369" y="337" type="line" smooth="yes"/>
      <point x="412" y="337"/>
      <point x="437" y="370"/>
      <point x="437" y="428" type="curve" smooth="yes"/>
      <point x="437" y="480"/>
      <point x="414" y="506"/>
      <point x="368" y="506" type="curve" smooth="yes"/>
    </contour>
    <contour>
      <point x="374" y="685" type="curve" smooth="yes"/>
      <point x="566" y="685"/>
      <point x="718" y="530"/>
      <point x="718" y="334" type="curve" smooth="yes"/>
      <point x="718" y="134"/>
      <point x="568" y="-18"/>
      <point x="369" y="-18" type="curve" smooth="yes"/>
      <point x="182" y="-18"/>
      <point x="30" y="139"/>
      <point x="30" y="332" type="curve" smooth="yes"/>
      <point x="30" y="529"/>
      <point x="182" y="685"/>
    </contour>
    <contour>
      <point x="374" y="639" type="curve" smooth="yes"/>
      <point x="219" y="639"/>
      <point x="91" y="501"/>
      <point x="91" y="333" type="curve" smooth="yes"/>
      <point x="91" y="168"/>
      <point x="220" y="28"/>
      <point x="370" y="28" type="curve" smooth="yes"/>
      <point x="530" y="28"/>
      <point x="657" y="164"/>
      <point x="657" y="334" type="curve" smooth="yes"/>
      <point x="657" y="500"/>
      <point x="528" y="639"/>
    </contour>
  </outline>
  <lib>
    <dict>
      <key>com.fontlab.hintData</key>
      <dict>
	<key>hhints</key>
	<array>
	  <dict>
	    <key>position</key>	    <integer>-18</integer>
	    <key>width</key>	    <integer>46</integer>
	  </dict>
	  <dict>
	    <key>position</key>	    <integer>317</integer>
	    <key>width</key>	    <integer>20</integer>
	  </dict>
	  <dict>
	    <key>position</key>	    <integer>506</integer>
	    <key>width</key>	    <integer>21</integer>
	  </dict>
	  <dict>
	    <key>position</key>	    <integer>639</integer>
	    <key>width</key>	    <integer>46</integer>
	  </dict>
	</array>
	<key>vhints</key>
	<array>
	  <dict>
	    <key>position</key>
	    <integer>30</integer>
	    <key>width</key>
	    <integer>61</integer>
	  </dict>
	  <dict>
	    <key>position</key>
	    <integer>257</integer>
	    <key>width</key>
	    <integer>71</integer>
	  </dict>
	  <dict>
	    <key>position</key>
	    <integer>437</integer>
	    <key>width</key>
	    <integer>73</integer>
	  </dict>
	  <dict>
	    <key>position</key>
	    <integer>657</integer>
	    <key>width</key>
	    <integer>61</integer>
	  </dict>
	</array>
      </dict>
    </dict>
  </lib>
</glyph>
