<?xml version="1.0" encoding="UTF-8"?>
<glyph name="section" format="1">
  <advance width="500"/>
  <unicode hex="00A7"/>
  <outline>
    <contour>
      <point x="288" y="125" type="curve"/>
      <point x="286" y="121" type="line"/>
      <point x="329" y="67"/>
      <point x="345" y="33"/>
      <point x="345" y="-9" type="curve" smooth="yes"/>
      <point x="345" y="-84"/>
      <point x="273" y="-143"/>
      <point x="181" y="-143" type="curve" smooth="yes"/>
      <point x="99" y="-143"/>
      <point x="36" y="-97"/>
      <point x="36" y="-38" type="curve" smooth="yes"/>
      <point x="36" y="-3"/>
      <point x="61" y="22"/>
      <point x="94" y="22" type="curve" smooth="yes"/>
      <point x="126" y="22"/>
      <point x="150" y="1"/>
      <point x="150" y="-28" type="curve" smooth="yes"/>
      <point x="150" y="-48"/>
      <point x="144" y="-59"/>
      <point x="128" y="-73" type="curve" smooth="yes"/>
      <point x="118" y="-81"/>
      <point x="115" y="-86"/>
      <point x="115" y="-91" type="curve" smooth="yes"/>
      <point x="115" y="-106"/>
      <point x="148" y="-120"/>
      <point x="182" y="-120" type="curve" smooth="yes"/>
      <point x="232" y="-120"/>
      <point x="268" y="-88"/>
      <point x="268" y="-44" type="curve" smooth="yes"/>
      <point x="268" y="-11"/>
      <point x="256" y="9"/>
      <point x="185" y="95" type="curve" smooth="yes"/>
      <point x="119" y="175" type="line" smooth="yes"/>
      <point x="84" y="217"/>
      <point x="68" y="256"/>
      <point x="68" y="299" type="curve" smooth="yes"/>
      <point x="68" y="368"/>
      <point x="115" y="425"/>
      <point x="172" y="425" type="curve" smooth="yes"/>
      <point x="184" y="425"/>
      <point x="209" y="422"/>
      <point x="221" y="419" type="curve"/>
      <point x="223" y="422" type="line"/>
      <point x="188" y="461"/>
      <point x="168" y="507"/>
      <point x="168" y="551" type="curve" smooth="yes"/>
      <point x="168" y="630"/>
      <point x="232" y="685"/>
      <point x="323" y="685" type="curve" smooth="yes"/>
      <point x="402" y="685"/>
      <point x="459" y="644"/>
      <point x="459" y="587" type="curve" smooth="yes"/>
      <point x="459" y="552"/>
      <point x="434" y="526"/>
      <point x="401" y="526" type="curve" smooth="yes"/>
      <point x="371" y="526"/>
      <point x="346" y="551"/>
      <point x="346" y="580" type="curve" smooth="yes"/>
      <point x="346" y="595"/>
      <point x="352" y="605"/>
      <point x="368" y="618" type="curve" smooth="yes"/>
      <point x="378" y="625"/>
      <point x="382" y="630"/>
      <point x="382" y="635" type="curve" smooth="yes"/>
      <point x="382" y="650"/>
      <point x="354" y="663"/>
      <point x="323" y="663" type="curve" smooth="yes"/>
      <point x="274" y="663"/>
      <point x="238" y="633"/>
      <point x="238" y="590" type="curve" smooth="yes"/>
      <point x="238" y="558"/>
      <point x="256" y="526"/>
      <point x="306" y="467" type="curve" smooth="yes"/>
      <point x="375" y="386" type="line" smooth="yes"/>
      <point x="413" y="341"/>
      <point x="435" y="290"/>
      <point x="435" y="243" type="curve" smooth="yes"/>
      <point x="435" y="177"/>
      <point x="382" y="121"/>
      <point x="318" y="121" type="curve" smooth="yes"/>
      <point x="308" y="121"/>
      <point x="300" y="122"/>
    </contour>
    <contour>
      <point x="195" y="400" type="curve" smooth="yes"/>
      <point x="164" y="400"/>
      <point x="139" y="374"/>
      <point x="139" y="342" type="curve" smooth="yes"/>
      <point x="139" y="321"/>
      <point x="151" y="291"/>
      <point x="168" y="266" type="curve" smooth="yes"/>
      <point x="192" y="233"/>
      <point x="220" y="200"/>
      <point x="243" y="179" type="curve" smooth="yes"/>
      <point x="267" y="156"/>
      <point x="283" y="148"/>
      <point x="305" y="148" type="curve" smooth="yes"/>
      <point x="336" y="148"/>
      <point x="364" y="175"/>
      <point x="364" y="206" type="curve" smooth="yes"/>
      <point x="364" y="273"/>
      <point x="253" y="400"/>
    </contour>
  </outline>
  <lib>
    <dict>
      <key>com.fontlab.hintData</key>
      <dict>
	<key>hhints</key>
	<array>
	  <dict>
	    <key>position</key>	    <integer>-143</integer>
	    <key>width</key>	    <integer>23</integer>
	  </dict>
	  <dict>
	    <key>position</key>	    <integer>121</integer>
	    <key>width</key>	    <integer>27</integer>
	  </dict>
	  <dict>
	    <key>position</key>	    <integer>400</integer>
	    <key>width</key>	    <integer>25</integer>
	  </dict>
	  <dict>
	    <key>position</key>	    <integer>663</integer>
	    <key>width</key>	    <integer>22</integer>
	  </dict>
	</array>
	<key>vhints</key>
	<array>
	  <dict>
	    <key>position</key>
	    <integer>68</integer>
	    <key>width</key>
	    <integer>71</integer>
	  </dict>
	  <dict>
	    <key>position</key>
	    <integer>168</integer>
	    <key>width</key>
	    <integer>70</integer>
	  </dict>
	  <dict>
	    <key>position</key>
	    <integer>268</integer>
	    <key>width</key>
	    <integer>77</integer>
	  </dict>
	  <dict>
	    <key>position</key>
	    <integer>364</integer>
	    <key>width</key>
	    <integer>71</integer>
	  </dict>
	</array>
      </dict>
    </dict>
  </lib>
</glyph>
