<?xml version="1.0" encoding="UTF-8"?>
<glyph name="uni04E8" format="1">
  <advance width="722"/>
  <unicode hex="04E8"/>
  <outline>
    <contour>
      <point x="445" y="651" type="curve" smooth="yes"/>
      <point x="381" y="651"/>
      <point x="328" y="610"/>
      <point x="277" y="520" type="curve" smooth="yes"/>
      <point x="254" y="480"/>
      <point x="232" y="424"/>
      <point x="214" y="365" type="curve"/>
      <point x="522" y="365" type="line"/>
      <point x="538" y="425"/>
      <point x="547" y="484"/>
      <point x="547" y="531" type="curve" smooth="yes"/>
      <point x="547" y="603"/>
      <point x="506" y="651"/>
    </contour>
    <contour>
      <point x="449" y="685" type="curve" smooth="yes"/>
      <point x="588" y="685"/>
      <point x="691" y="587"/>
      <point x="691" y="454" type="curve" smooth="yes"/>
      <point x="691" y="308"/>
      <point x="609" y="149"/>
      <point x="485" y="58" type="curve" smooth="yes"/>
      <point x="418" y="8"/>
      <point x="342" y="-18"/>
      <point x="263" y="-18" type="curve" smooth="yes"/>
      <point x="122" y="-18"/>
      <point x="27" y="78"/>
      <point x="27" y="221" type="curve" smooth="yes"/>
      <point x="27" y="360"/>
      <point x="113" y="521"/>
      <point x="234" y="609" type="curve" smooth="yes"/>
      <point x="302" y="659"/>
      <point x="376" y="685"/>
    </contour>
    <contour>
      <point x="504" y="302" type="curve"/>
      <point x="196" y="302" type="line"/>
      <point x="181" y="241"/>
      <point x="171" y="181"/>
      <point x="171" y="137" type="curve" smooth="yes"/>
      <point x="171" y="63"/>
      <point x="210" y="16"/>
      <point x="273" y="16" type="curve" smooth="yes"/>
      <point x="327" y="16"/>
      <point x="372" y="46"/>
      <point x="418" y="113" type="curve" smooth="yes"/>
      <point x="450" y="160"/>
      <point x="480" y="229"/>
    </contour>
  </outline>
  <lib>
    <dict>
      <key>com.fontlab.hintData</key>
      <dict>
	<key>hhints</key>
	<array>
	  <dict>
	    <key>position</key>	    <integer>-18</integer>
	    <key>width</key>	    <integer>34</integer>
	  </dict>
	  <dict>
	    <key>position</key>	    <integer>302</integer>
	    <key>width</key>	    <integer>63</integer>
	  </dict>
	  <dict>
	    <key>position</key>	    <integer>651</integer>
	    <key>width</key>	    <integer>34</integer>
	  </dict>
	</array>
	<key>vhints</key>
	<array>
	  <dict>
	    <key>position</key>
	    <integer>27</integer>
	    <key>width</key>
	    <integer>144</integer>
	  </dict>
	  <dict>
	    <key>position</key>
	    <integer>547</integer>
	    <key>width</key>
	    <integer>144</integer>
	  </dict>
	</array>
      </dict>
    </dict>
  </lib>
</glyph>
