<?xml version="1.0" encoding="UTF-8"?>
<glyph name="l" format="1">
  <advance width="222"/>
  <unicode hex="006C"/>
  <outline>
    <contour>
      <point x="152" y="729" type="line"/>
      <point x="152" y="0" type="line"/>
      <point x="68" y="0" type="line"/>
      <point x="68" y="729" type="line"/>
    </contour>
  </outline>
  <lib>
    <dict>
      <key>com.fontlab.hintData</key>
      <dict>
	<key>hhints</key>
	<array>
	  <dict>
	    <key>position</key>	    <integer>0</integer>
	    <key>width</key>	    <integer>21</integer>
	  </dict>
	  <dict>
	    <key>position</key>	    <integer>709</integer>
	    <key>width</key>	    <integer>20</integer>
	  </dict>
	</array>
	<key>vhints</key>
	<array>
	  <dict>
	    <key>position</key>
	    <integer>68</integer>
	    <key>width</key>
	    <integer>84</integer>
	  </dict>
	</array>
      </dict>
    </dict>
  </lib>
</glyph>
