<?xml version="1.0" encoding="UTF-8"?>
<glyph name="ntilde" format="1">
  <advance width="556"/>
  <unicode hex="00F1"/>
  <outline>
    <contour>
      <point x="70" y="524" type="line"/>
      <point x="147" y="524" type="line"/>
      <point x="147" y="436" type="line"/>
      <point x="193" y="509"/>
      <point x="243" y="539"/>
      <point x="321" y="539" type="curve" smooth="yes"/>
      <point x="422" y="539"/>
      <point x="487" y="483"/>
      <point x="487" y="396" type="curve" smooth="yes"/>
      <point x="487" y="0" type="line"/>
      <point x="404" y="0" type="line"/>
      <point x="404" y="363" type="line" smooth="yes"/>
      <point x="404" y="426"/>
      <point x="362" y="466"/>
      <point x="296" y="466" type="curve" smooth="yes"/>
      <point x="210" y="466"/>
      <point x="154" y="396"/>
      <point x="154" y="289" type="curve" smooth="yes"/>
      <point x="154" y="0" type="line"/>
      <point x="70" y="0" type="line"/>
    </contour>
    <contour>
      <point x="378" y="717" type="curve"/>
      <point x="436" y="717" type="line"/>
      <point x="426" y="648"/>
      <point x="396" y="613"/>
      <point x="347" y="613" type="curve" smooth="yes"/>
      <point x="328" y="613"/>
      <point x="316" y="617"/>
      <point x="262" y="638" type="curve" smooth="yes"/>
      <point x="238" y="647"/>
      <point x="224" y="651"/>
      <point x="213" y="651" type="curve" smooth="yes"/>
      <point x="198" y="651"/>
      <point x="186" y="637"/>
      <point x="180" y="614" type="curve"/>
      <point x="122" y="614" type="line"/>
      <point x="133" y="680"/>
      <point x="164" y="717"/>
      <point x="208" y="717" type="curve" smooth="yes"/>
      <point x="229" y="717"/>
      <point x="236" y="715"/>
      <point x="278" y="698" type="curve"/>
      <point x="302" y="687"/>
      <point x="329" y="680"/>
      <point x="341" y="680" type="curve" smooth="yes"/>
      <point x="359" y="680"/>
      <point x="370" y="692"/>
    </contour>
  </outline>
  <lib>
    <dict>
      <key>com.fontlab.hintData</key>
      <dict>
	<key>hhints</key>
	<array>
	  <dict>
	    <key>position</key>	    <integer>0</integer>
	    <key>width</key>	    <integer>21</integer>
	  </dict>
	  <dict>
	    <key>position</key>	    <integer>466</integer>
	    <key>width</key>	    <integer>73</integer>
	  </dict>
	  <dict>
	    <key>position</key>	    <integer>613</integer>
	    <key>width</key>	    <integer>67</integer>
	  </dict>
	  <dict>
	    <key>position</key>	    <integer>651</integer>
	    <key>width</key>	    <integer>66</integer>
	  </dict>
	</array>
	<key>vhints</key>
	<array>
	  <dict>
	    <key>position</key>
	    <integer>70</integer>
	    <key>width</key>
	    <integer>77</integer>
	  </dict>
	  <dict>
	    <key>position</key>
	    <integer>70</integer>
	    <key>width</key>
	    <integer>84</integer>
	  </dict>
	  <dict>
	    <key>position</key>
	    <integer>404</integer>
	    <key>width</key>
	    <integer>83</integer>
	  </dict>
	</array>
      </dict>
    </dict>
  </lib>
</glyph>
