<?xml version="1.0" encoding="UTF-8"?>
<glyph name="ycircumflex" format="1">
  <advance width="500"/>
  <unicode hex="0177"/>
  <outline>
    <contour>
      <point x="202" y="714" type="line"/>
      <point x="297" y="714" type="line"/>
      <point x="393" y="564" type="line"/>
      <point x="330" y="564" type="line"/>
      <point x="249" y="660" type="line"/>
      <point x="170" y="564" type="line"/>
      <point x="106" y="564" type="line"/>
    </contour>
    <contour>
      <point x="388" y="524" type="line"/>
      <point x="478" y="524" type="line"/>
      <point x="245" y="-110" type="line" smooth="yes"/>
      <point x="229" y="-152"/>
      <point x="214" y="-174"/>
      <point x="188" y="-193" type="curve" smooth="yes"/>
      <point x="166" y="-209"/>
      <point x="137" y="-218"/>
      <point x="110" y="-218" type="curve" smooth="yes"/>
      <point x="88" y="-218"/>
      <point x="71" y="-214"/>
      <point x="54" y="-205" type="curve"/>
      <point x="54" y="-130" type="line"/>
      <point x="72" y="-134"/>
      <point x="86" y="-136"/>
      <point x="98" y="-136" type="curve" smooth="yes"/>
      <point x="133" y="-136"/>
      <point x="152" y="-122"/>
      <point x="165" y="-85" type="curve"/>
      <point x="197" y="-2" type="line"/>
      <point x="20" y="524" type="line"/>
      <point x="109" y="524" type="line"/>
      <point x="243" y="116" type="line"/>
    </contour>
  </outline>
  <lib>
    <dict>
      <key>com.fontlab.hintData</key>
      <dict>
	<key>hhints</key>
	<array>
	  <dict>
	    <key>position</key>	    <integer>-218</integer>
	    <key>width</key>	    <integer>82</integer>
	  </dict>
	  <dict>
	    <key>position</key>	    <integer>504</integer>
	    <key>width</key>	    <integer>20</integer>
	  </dict>
	</array>
	<key>vhints</key>
	<array>
	  <dict>
	    <key>position</key>
	    <integer>20</integer>
	    <key>width</key>
	    <integer>458</integer>
	  </dict>
	</array>
      </dict>
    </dict>
  </lib>
</glyph>
