<?xml version="1.0" encoding="UTF-8"?>
<glyph name="afii10101" format="1">
  <advance width="408"/>
  <unicode hex="0454"/>
  <outline>
    <contour>
      <point x="144" y="247" type="line"/>
      <point x="126" y="129"/>
      <point x="155" y="62"/>
      <point x="226" y="62" type="curve" smooth="yes"/>
      <point x="281" y="62"/>
      <point x="323" y="103"/>
      <point x="353" y="185" type="curve"/>
      <point x="423" y="185" type="line"/>
      <point x="382" y="52"/>
      <point x="311" y="-15"/>
      <point x="213" y="-15" type="curve" smooth="yes"/>
      <point x="96" y="-15"/>
      <point x="40" y="89"/>
      <point x="68" y="252" type="curve" smooth="yes"/>
      <point x="99" y="427"/>
      <point x="198" y="538"/>
      <point x="322" y="538" type="curve" smooth="yes"/>
      <point x="418" y="538"/>
      <point x="461" y="475"/>
      <point x="451" y="347" type="curve"/>
      <point x="381" y="347" type="line"/>
      <point x="383" y="426"/>
      <point x="358" y="460"/>
      <point x="301" y="460" type="curve" smooth="yes"/>
      <point x="238" y="460"/>
      <point x="189" y="409"/>
      <point x="161" y="317" type="curve"/>
      <point x="323" y="317" type="line"/>
      <point x="310" y="247" type="line"/>
    </contour>
  </outline>
  <lib>
    <dict>
      <key>com.fontlab.hintData</key>
      <dict>
	<key>hhints</key>
	<array>
	  <dict>
	    <key>position</key>	    <integer>-15</integer>
	    <key>width</key>	    <integer>77</integer>
	  </dict>
	  <dict>
	    <key>position</key>	    <integer>247</integer>
	    <key>width</key>	    <integer>70</integer>
	  </dict>
	  <dict>
	    <key>position</key>	    <integer>460</integer>
	    <key>width</key>	    <integer>78</integer>
	  </dict>
	</array>
	<key>vhints</key>
	<array>
	  <dict>
	    <key>position</key>
	    <integer>381</integer>
	    <key>width</key>
	    <integer>70</integer>
	  </dict>
	</array>
      </dict>
    </dict>
  </lib>
</glyph>
