<?xml version="1.0" encoding="UTF-8"?>
<glyph name="d" format="1">
  <advance width="456"/>
  <unicode hex="0064"/>
  <outline>
    <contour>
      <point x="534" y="718" type="line"/>
      <point x="409" y="0" type="line"/>
      <point x="341" y="0" type="line"/>
      <point x="354" y="75" type="line"/>
      <point x="311" y="10"/>
      <point x="272" y="-15"/>
      <point x="214" y="-15" type="curve" smooth="yes"/>
      <point x="121" y="-15"/>
      <point x="69" y="57"/>
      <point x="69" y="185" type="curve" smooth="yes"/>
      <point x="69" y="381"/>
      <point x="171" y="538"/>
      <point x="300" y="538" type="curve" smooth="yes"/>
      <point x="358" y="538"/>
      <point x="392" y="511"/>
      <point x="414" y="444" type="curve"/>
      <point x="462" y="718" type="line"/>
    </contour>
    <contour>
      <point x="299" y="459" type="curve" smooth="yes"/>
      <point x="251" y="459"/>
      <point x="209" y="430"/>
      <point x="185" y="380" type="curve" smooth="yes"/>
      <point x="159" y="328"/>
      <point x="143" y="253"/>
      <point x="143" y="186" type="curve" smooth="yes"/>
      <point x="143" y="107"/>
      <point x="174" y="61"/>
      <point x="228" y="61" type="curve" smooth="yes"/>
      <point x="269" y="61"/>
      <point x="309" y="85"/>
      <point x="337" y="128" type="curve"/>
      <point x="366" y="170"/>
      <point x="387" y="257"/>
      <point x="387" y="334" type="curve" smooth="yes"/>
      <point x="387" y="417"/>
      <point x="358" y="459"/>
    </contour>
  </outline>
  <lib>
    <dict>
      <key>com.fontlab.hintData</key>
      <dict>
	<key>hhints</key>
	<array>
	  <dict>
	    <key>position</key>	    <integer>-15</integer>
	    <key>width</key>	    <integer>76</integer>
	  </dict>
	  <dict>
	    <key>position</key>	    <integer>459</integer>
	    <key>width</key>	    <integer>79</integer>
	  </dict>
	  <dict>
	    <key>position</key>	    <integer>698</integer>
	    <key>width</key>	    <integer>20</integer>
	  </dict>
	</array>
	<key>vhints</key>
	<array>
	  <dict>
	    <key>position</key>
	    <integer>69</integer>
	    <key>width</key>
	    <integer>74</integer>
	  </dict>
	</array>
      </dict>
    </dict>
  </lib>
</glyph>
