<?xml version="1.0" encoding="UTF-8"?>
<glyph name="uni04BE" format="1">
  <advance width="777"/>
  <unicode hex="04BE"/>
  <outline>
    <contour>
      <point x="733" y="393" type="line"/>
      <point x="734" y="454" type="line"/>
      <point x="733" y="516"/>
      <point x="728" y="545"/>
      <point x="713" y="577" type="curve"/>
      <point x="688" y="626"/>
      <point x="651" y="650"/>
      <point x="596" y="650" type="curve" smooth="yes"/>
      <point x="482" y="650"/>
      <point x="397" y="556"/>
      <point x="361" y="393" type="curve"/>
    </contour>
    <contour>
      <point x="761" y="665" type="curve" smooth="yes"/>
      <point x="798" y="624"/>
      <point x="816" y="524"/>
      <point x="816" y="443" type="curve" smooth="yes"/>
      <point x="816" y="392"/>
      <point x="801" y="336"/>
      <point x="801" y="336" type="curve"/>
      <point x="348" y="336" type="line"/>
      <point x="347" y="321"/>
      <point x="346" y="277"/>
      <point x="346" y="264" type="curve" smooth="yes"/>
      <point x="346" y="140"/>
      <point x="400" y="68"/>
      <point x="498" y="68" type="curve" smooth="yes"/>
      <point x="539" y="68"/>
      <point x="579" y="82"/>
      <point x="612" y="106" type="curve"/>
      <point x="645" y="132"/>
      <point x="663" y="159"/>
      <point x="686" y="216" type="curve"/>
      <point x="763" y="216" type="line"/>
      <point x="746" y="160"/>
      <point x="732" y="132"/>
      <point x="704" y="95" type="curve" smooth="yes"/>
      <point x="656" y="31"/>
      <point x="588" y="-8"/>
      <point x="513" y="-17" type="curve"/>
      <point x="531" y="-31"/>
      <point x="548" y="-56"/>
      <point x="548" y="-100" type="curve" smooth="yes"/>
      <point x="548" y="-176"/>
      <point x="495" y="-225"/>
      <point x="430" y="-225" type="curve" smooth="yes"/>
      <point x="405" y="-225"/>
      <point x="382" y="-218"/>
      <point x="355" y="-203" type="curve"/>
      <point x="377" y="-163" type="line"/>
      <point x="400" y="-175"/>
      <point x="410" y="-178"/>
      <point x="426" y="-178" type="curve" smooth="yes"/>
      <point x="470" y="-178"/>
      <point x="488" y="-136"/>
      <point x="488" y="-95" type="curve" smooth="yes"/>
      <point x="488" y="-66"/>
      <point x="475" y="-45"/>
      <point x="443" y="-16" type="curve"/>
      <point x="327" y="1"/>
      <point x="262" y="98"/>
      <point x="262" y="250" type="curve" smooth="yes"/>
      <point x="262" y="278"/>
      <point x="264" y="307"/>
      <point x="268" y="335" type="curve"/>
      <point x="185" y="337"/>
      <point x="90" y="354"/>
      <point x="90" y="460" type="curve" smooth="yes"/>
      <point x="90" y="518"/>
      <point x="109" y="582"/>
      <point x="140" y="622" type="curve"/>
      <point x="168" y="660"/>
      <point x="205" y="679"/>
      <point x="247" y="679" type="curve" smooth="yes"/>
      <point x="295" y="679"/>
      <point x="325" y="646"/>
      <point x="325" y="591" type="curve" smooth="yes"/>
      <point x="325" y="584"/>
      <point x="325" y="575"/>
      <point x="324" y="565" type="curve"/>
      <point x="282" y="565" type="line"/>
      <point x="282" y="587"/>
      <point x="282" y="589"/>
      <point x="279" y="598" type="curve" smooth="yes"/>
      <point x="273" y="621"/>
      <point x="257" y="632"/>
      <point x="233" y="632" type="curve" smooth="yes"/>
      <point x="204" y="632"/>
      <point x="180" y="614"/>
      <point x="162" y="580" type="curve"/>
      <point x="147" y="549"/>
      <point x="136" y="504"/>
      <point x="136" y="465" type="curve" smooth="yes"/>
      <point x="136" y="418"/>
      <point x="155" y="393"/>
      <point x="189" y="393" type="curve" smooth="yes"/>
      <point x="278" y="393" type="line"/>
      <point x="321" y="584"/>
      <point x="448" y="737"/>
      <point x="604" y="737" type="curve" smooth="yes"/>
      <point x="669" y="737"/>
      <point x="722" y="709"/>
    </contour>
  </outline>
  <lib>
    <dict>
      <key>com.fontlab.hintData</key>
      <dict>
	<key>hhints</key>
	<array>
	  <dict>
	    <key>position</key>	    <integer>-225</integer>
	    <key>width</key>	    <integer>47</integer>
	  </dict>
	  <dict>
	    <key>position</key>	    <integer>336</integer>
	    <key>width</key>	    <integer>57</integer>
	  </dict>
	  <dict>
	    <key>position</key>	    <integer>632</integer>
	    <key>width</key>	    <integer>47</integer>
	  </dict>
	  <dict>
	    <key>position</key>	    <integer>650</integer>
	    <key>width</key>	    <integer>87</integer>
	  </dict>
	</array>
	<key>vhints</key>
	<array>
	  <dict>
	    <key>position</key>
	    <integer>90</integer>
	    <key>width</key>
	    <integer>46</integer>
	  </dict>
	  <dict>
	    <key>position</key>
	    <integer>262</integer>
	    <key>width</key>
	    <integer>84</integer>
	  </dict>
	  <dict>
	    <key>position</key>
	    <integer>282</integer>
	    <key>width</key>
	    <integer>43</integer>
	  </dict>
	  <dict>
	    <key>position</key>
	    <integer>488</integer>
	    <key>width</key>
	    <integer>60</integer>
	  </dict>
	  <dict>
	    <key>position</key>
	    <integer>733</integer>
	    <key>width</key>
	    <integer>83</integer>
	  </dict>
	</array>
      </dict>
    </dict>
  </lib>
</glyph>
