<?xml version="1.0" encoding="UTF-8"?>
<glyph name="afii10098" format="1">
  <advance width="600"/>
  <unicode hex="0491"/>
  <outline>
    <contour>
      <point x="444" y="418" type="line"/>
      <point x="444" y="508" type="line" smooth="yes"/>
      <point x="444" y="525"/>
      <point x="450" y="535"/>
      <point x="464" y="535" type="curve" smooth="yes"/>
      <point x="480" y="535"/>
      <point x="485" y="525"/>
      <point x="485" y="508" type="curve" smooth="yes"/>
      <point x="485" y="376" type="line"/>
      <point x="227" y="376" type="line"/>
      <point x="227" y="41" type="line"/>
      <point x="274" y="41" type="line" smooth="yes"/>
      <point x="290" y="41"/>
      <point x="300" y="35"/>
      <point x="300" y="20" type="curve" smooth="yes"/>
      <point x="300" y="8"/>
      <point x="290" y="0"/>
      <point x="274" y="0" type="curve" smooth="yes"/>
      <point x="142" y="0" type="line" smooth="yes"/>
      <point x="122" y="0"/>
      <point x="114" y="8"/>
      <point x="114" y="20" type="curve" smooth="yes"/>
      <point x="114" y="35"/>
      <point x="122" y="41"/>
      <point x="142" y="41" type="curve" smooth="yes"/>
      <point x="186" y="41" type="line"/>
      <point x="186" y="376" type="line"/>
      <point x="152" y="376" type="line" smooth="yes"/>
      <point x="134" y="376"/>
      <point x="126" y="384"/>
      <point x="126" y="396" type="curve" smooth="yes"/>
      <point x="126" y="410"/>
      <point x="134" y="418"/>
      <point x="152" y="418" type="curve" smooth="yes"/>
    </contour>
  </outline>
  <lib>
    <dict>
      <key>com.fontlab.hintData</key>
      <dict>
	<key>hhints</key>
	<array>
	  <dict>
	    <key>position</key>	    <integer>0</integer>
	    <key>width</key>	    <integer>41</integer>
	  </dict>
	  <dict>
	    <key>position</key>	    <integer>376</integer>
	    <key>width</key>	    <integer>42</integer>
	  </dict>
	</array>
	<key>vhints</key>
	<array>
	  <dict>
	    <key>position</key>
	    <integer>186</integer>
	    <key>width</key>
	    <integer>41</integer>
	  </dict>
	  <dict>
	    <key>position</key>
	    <integer>444</integer>
	    <key>width</key>
	    <integer>41</integer>
	  </dict>
	</array>
      </dict>
    </dict>
  </lib>
</glyph>
