<?xml version="1.0" encoding="UTF-8"?>
<glyph name="Delta" format="1">
  <advance width="600"/>
  <unicode hex="0394"/>
  <outline>
    <contour>
      <point x="43" y="0" type="line"/>
      <point x="278" y="563" type="line"/>
      <point x="322" y="563" type="line"/>
      <point x="557" y="0" type="line"/>
    </contour>
    <contour>
      <point x="103" y="40" type="line"/>
      <point x="497" y="40" type="line"/>
      <point x="300" y="513" type="line"/>
    </contour>
  </outline>
  <lib>
    <dict>
      <key>com.fontlab.hintData</key>
      <dict>
	<key>hhints</key>
	<array>
	  <dict>
	    <key>position</key>	    <integer>0</integer>
	    <key>width</key>	    <integer>40</integer>
	  </dict>
	  <dict>
	    <key>position</key>	    <integer>543</integer>
	    <key>width</key>	    <integer>20</integer>
	  </dict>
	</array>
      </dict>
    </dict>
  </lib>
</glyph>
