<?xml version="1.0" encoding="UTF-8"?>
<glyph name="five" format="1">
  <advance width="600"/>
  <unicode hex="0035"/>
  <outline>
    <contour>
      <point x="190" y="563" type="line"/>
      <point x="190" y="365" type="line"/>
      <point x="241" y="386"/>
      <point x="278" y="395"/>
      <point x="322" y="395" type="curve" smooth="yes"/>
      <point x="424" y="395"/>
      <point x="499" y="313"/>
      <point x="499" y="201" type="curve" smooth="yes"/>
      <point x="499" y="75"/>
      <point x="414" y="-15"/>
      <point x="295" y="-15" type="curve" smooth="yes"/>
      <point x="242" y="-15"/>
      <point x="192" y="1"/>
      <point x="142" y="34" type="curve" smooth="yes"/>
      <point x="110" y="55"/>
      <point x="96" y="70"/>
      <point x="96" y="82" type="curve" smooth="yes"/>
      <point x="96" y="93"/>
      <point x="105" y="102"/>
      <point x="116" y="102" type="curve" smooth="yes"/>
      <point x="122" y="102"/>
      <point x="126" y="100"/>
      <point x="133" y="93" type="curve" smooth="yes"/>
      <point x="181" y="49"/>
      <point x="235" y="26"/>
      <point x="293" y="26" type="curve" smooth="yes"/>
      <point x="391" y="26"/>
      <point x="458" y="98"/>
      <point x="458" y="203" type="curve" smooth="yes"/>
      <point x="458" y="292"/>
      <point x="400" y="354"/>
      <point x="316" y="354" type="curve" smooth="yes"/>
      <point x="276" y="354"/>
      <point x="232" y="343"/>
      <point x="190" y="321" type="curve" smooth="yes"/>
      <point x="178" y="315"/>
      <point x="173" y="313"/>
      <point x="168" y="313" type="curve" smooth="yes"/>
      <point x="157" y="313"/>
      <point x="149" y="322"/>
      <point x="149" y="335" type="curve" smooth="yes"/>
      <point x="149" y="604" type="line"/>
      <point x="431" y="604" type="line" smooth="yes"/>
      <point x="450" y="604"/>
      <point x="459" y="597"/>
      <point x="459" y="584" type="curve" smooth="yes"/>
      <point x="459" y="570"/>
      <point x="450" y="563"/>
      <point x="431" y="563" type="curve" smooth="yes"/>
    </contour>
  </outline>
  <lib>
    <dict>
      <key>com.fontlab.hintData</key>
      <dict>
	<key>hhints</key>
	<array>
	  <dict>
	    <key>position</key>	    <integer>-15</integer>
	    <key>width</key>	    <integer>41</integer>
	  </dict>
	  <dict>
	    <key>position</key>	    <integer>354</integer>
	    <key>width</key>	    <integer>41</integer>
	  </dict>
	  <dict>
	    <key>position</key>	    <integer>563</integer>
	    <key>width</key>	    <integer>41</integer>
	  </dict>
	</array>
	<key>vhints</key>
	<array>
	  <dict>
	    <key>position</key>
	    <integer>149</integer>
	    <key>width</key>
	    <integer>41</integer>
	  </dict>
	  <dict>
	    <key>position</key>
	    <integer>149</integer>
	    <key>width</key>
	    <integer>310</integer>
	  </dict>
	  <dict>
	    <key>position</key>
	    <integer>458</integer>
	    <key>width</key>
	    <integer>41</integer>
	  </dict>
	</array>
      </dict>
    </dict>
  </lib>
</glyph>
