<?xml version="1.0" encoding="UTF-8"?>
<glyph name="percent" format="1">
  <advance width="600"/>
  <unicode hex="0025"/>
  <outline>
    <contour>
      <point x="361" y="236" type="curve" smooth="yes"/>
      <point x="430" y="236"/>
      <point x="484" y="181"/>
      <point x="484" y="110" type="curve" smooth="yes"/>
      <point x="484" y="44"/>
      <point x="428" y="-12"/>
      <point x="362" y="-12" type="curve" smooth="yes"/>
      <point x="294" y="-12"/>
      <point x="239" y="44"/>
      <point x="239" y="112" type="curve" smooth="yes"/>
      <point x="239" y="180"/>
      <point x="294" y="236"/>
    </contour>
    <contour>
      <point x="361" y="198" type="curve" smooth="yes"/>
      <point x="315" y="198"/>
      <point x="277" y="160"/>
      <point x="277" y="112" type="curve" smooth="yes"/>
      <point x="277" y="65"/>
      <point x="315" y="26"/>
      <point x="362" y="26" type="curve" smooth="yes"/>
      <point x="408" y="26"/>
      <point x="446" y="65"/>
      <point x="446" y="111" type="curve" smooth="yes"/>
      <point x="446" y="160"/>
      <point x="409" y="198"/>
    </contour>
    <contour>
      <point x="237" y="611" type="curve" smooth="yes"/>
      <point x="306" y="611"/>
      <point x="360" y="556"/>
      <point x="360" y="486" type="curve" smooth="yes"/>
      <point x="360" y="419"/>
      <point x="304" y="363"/>
      <point x="238" y="363" type="curve" smooth="yes"/>
      <point x="170" y="363"/>
      <point x="115" y="419"/>
      <point x="115" y="487" type="curve" smooth="yes"/>
      <point x="115" y="555"/>
      <point x="170" y="611"/>
    </contour>
    <contour>
      <point x="237" y="573" type="curve" smooth="yes"/>
      <point x="191" y="573"/>
      <point x="153" y="534"/>
      <point x="153" y="487" type="curve" smooth="yes"/>
      <point x="153" y="440"/>
      <point x="191" y="401"/>
      <point x="238" y="401" type="curve" smooth="yes"/>
      <point x="283" y="401"/>
      <point x="322" y="440"/>
      <point x="322" y="486" type="curve" smooth="yes"/>
      <point x="322" y="535"/>
      <point x="285" y="573"/>
    </contour>
    <contour>
      <point x="495" y="344" type="curve" smooth="yes"/>
      <point x="116" y="222" type="line" smooth="yes"/>
      <point x="111" y="220"/>
      <point x="106" y="219"/>
      <point x="104" y="219" type="curve" smooth="yes"/>
      <point x="96" y="219"/>
      <point x="87" y="228"/>
      <point x="87" y="238" type="curve" smooth="yes"/>
      <point x="87" y="248"/>
      <point x="92" y="254"/>
      <point x="105" y="258" type="curve" smooth="yes"/>
      <point x="484" y="380" type="line" smooth="yes"/>
      <point x="488" y="381"/>
      <point x="492" y="382"/>
      <point x="496" y="382" type="curve" smooth="yes"/>
      <point x="505" y="382"/>
      <point x="513" y="373"/>
      <point x="513" y="363" type="curve" smooth="yes"/>
      <point x="513" y="354"/>
      <point x="508" y="348"/>
    </contour>
  </outline>
  <lib>
    <dict>
      <key>com.fontlab.hintData</key>
      <dict>
	<key>hhints</key>
	<array>
	  <dict>
	    <key>position</key>	    <integer>-12</integer>
	    <key>width</key>	    <integer>38</integer>
	  </dict>
	  <dict>
	    <key>position</key>	    <integer>198</integer>
	    <key>width</key>	    <integer>38</integer>
	  </dict>
	  <dict>
	    <key>position</key>	    <integer>363</integer>
	    <key>width</key>	    <integer>38</integer>
	  </dict>
	  <dict>
	    <key>position</key>	    <integer>573</integer>
	    <key>width</key>	    <integer>38</integer>
	  </dict>
	</array>
	<key>vhints</key>
	<array>
	  <dict>
	    <key>position</key>
	    <integer>115</integer>
	    <key>width</key>
	    <integer>38</integer>
	  </dict>
	  <dict>
	    <key>position</key>
	    <integer>239</integer>
	    <key>width</key>
	    <integer>38</integer>
	  </dict>
	  <dict>
	    <key>position</key>
	    <integer>322</integer>
	    <key>width</key>
	    <integer>38</integer>
	  </dict>
	  <dict>
	    <key>position</key>
	    <integer>446</integer>
	    <key>width</key>
	    <integer>38</integer>
	  </dict>
	</array>
      </dict>
    </dict>
  </lib>
</glyph>
