<?xml version="1.0" encoding="UTF-8"?>
<glyph name="uni04EB" format="1">
  <advance width="600"/>
  <unicode hex="04EB"/>
  <outline>
    <contour>
      <point x="300" y="431" type="curve" smooth="yes"/>
      <point x="428" y="431"/>
      <point x="528" y="332"/>
      <point x="528" y="204" type="curve" smooth="yes"/>
      <point x="528" y="82"/>
      <point x="426" y="-16"/>
      <point x="300" y="-16" type="curve" smooth="yes"/>
      <point x="172" y="-16"/>
      <point x="72" y="82"/>
      <point x="72" y="208" type="curve" smooth="yes"/>
      <point x="72" y="332"/>
      <point x="172" y="431"/>
    </contour>
    <contour>
      <point x="486" y="225" type="line"/>
      <point x="476" y="321"/>
      <point x="400" y="390"/>
      <point x="300" y="390" type="curve" smooth="yes"/>
      <point x="200" y="390"/>
      <point x="124" y="316"/>
      <point x="114" y="225" type="curve"/>
    </contour>
    <contour>
      <point x="486" y="184" type="curve"/>
      <point x="114" y="184" type="line"/>
      <point x="126" y="93"/>
      <point x="204" y="25"/>
      <point x="300" y="25" type="curve" smooth="yes"/>
      <point x="396" y="25"/>
      <point x="476" y="94"/>
    </contour>
    <contour>
      <point x="200" y="574" type="curve" smooth="yes"/>
      <point x="224" y="574" type="line" smooth="yes"/>
      <point x="236" y="574"/>
      <point x="241" y="566"/>
      <point x="241" y="547" type="curve" smooth="yes"/>
      <point x="241" y="491" type="line" smooth="yes"/>
      <point x="241" y="472"/>
      <point x="236" y="464"/>
      <point x="224" y="464" type="curve" smooth="yes"/>
      <point x="200" y="464" type="line" smooth="yes"/>
      <point x="186" y="464"/>
      <point x="178" y="472"/>
      <point x="178" y="491" type="curve" smooth="yes"/>
      <point x="178" y="547" type="line" smooth="yes"/>
      <point x="178" y="566"/>
      <point x="186" y="574"/>
    </contour>
    <contour>
      <point x="374" y="574" type="curve" smooth="yes"/>
      <point x="400" y="574" type="line" smooth="yes"/>
      <point x="412" y="574"/>
      <point x="418" y="566"/>
      <point x="418" y="547" type="curve" smooth="yes"/>
      <point x="418" y="491" type="line" smooth="yes"/>
      <point x="418" y="472"/>
      <point x="412" y="464"/>
      <point x="400" y="464" type="curve" smooth="yes"/>
      <point x="374" y="464" type="line" smooth="yes"/>
      <point x="362" y="464"/>
      <point x="356" y="472"/>
      <point x="356" y="491" type="curve" smooth="yes"/>
      <point x="356" y="547" type="line" smooth="yes"/>
      <point x="356" y="566"/>
      <point x="362" y="574"/>
    </contour>
  </outline>
  <lib>
    <dict>
      <key>com.fontlab.hintData</key>
      <dict>
	<key>hhints</key>
	<array>
	  <dict>
	    <key>position</key>	    <integer>-16</integer>
	    <key>width</key>	    <integer>41</integer>
	  </dict>
	  <dict>
	    <key>position</key>	    <integer>184</integer>
	    <key>width</key>	    <integer>41</integer>
	  </dict>
	  <dict>
	    <key>position</key>	    <integer>390</integer>
	    <key>width</key>	    <integer>41</integer>
	  </dict>
	  <dict>
	    <key>position</key>	    <integer>464</integer>
	    <key>width</key>	    <integer>110</integer>
	  </dict>
	</array>
	<key>vhints</key>
	<array>
	  <dict>
	    <key>position</key>
	    <integer>178</integer>
	    <key>width</key>
	    <integer>63</integer>
	  </dict>
	  <dict>
	    <key>position</key>
	    <integer>356</integer>
	    <key>width</key>
	    <integer>62</integer>
	  </dict>
	</array>
      </dict>
    </dict>
  </lib>
</glyph>
