<?xml version="1.0" encoding="UTF-8"?>
<glyph name="Y" format="1">
  <advance width="600"/>
  <unicode hex="0059"/>
  <outline>
    <contour>
      <point x="322" y="254" type="line"/>
      <point x="322" y="41" type="line"/>
      <point x="427" y="41" type="line" smooth="yes"/>
      <point x="445" y="41"/>
      <point x="454" y="34"/>
      <point x="454" y="21" type="curve" smooth="yes"/>
      <point x="454" y="7"/>
      <point x="445" y="0"/>
      <point x="427" y="0" type="curve" smooth="yes"/>
      <point x="176" y="0" type="line" smooth="yes"/>
      <point x="158" y="0"/>
      <point x="149" y="7"/>
      <point x="149" y="21" type="curve" smooth="yes"/>
      <point x="149" y="34"/>
      <point x="158" y="41"/>
      <point x="176" y="41" type="curve" smooth="yes"/>
      <point x="281" y="41" type="line"/>
      <point x="281" y="254" type="line"/>
      <point x="102" y="522" type="line"/>
      <point x="78" y="522" type="line" smooth="yes"/>
      <point x="60" y="522"/>
      <point x="51" y="529"/>
      <point x="51" y="543" type="curve" smooth="yes"/>
      <point x="51" y="556"/>
      <point x="60" y="563"/>
      <point x="78" y="563" type="curve" smooth="yes"/>
      <point x="189" y="563" type="line" smooth="yes"/>
      <point x="207" y="563"/>
      <point x="216" y="556"/>
      <point x="216" y="543" type="curve" smooth="yes"/>
      <point x="216" y="529"/>
      <point x="207" y="522"/>
      <point x="189" y="522" type="curve" smooth="yes"/>
      <point x="151" y="522" type="line"/>
      <point x="303" y="295" type="line"/>
      <point x="452" y="522" type="line"/>
      <point x="412" y="522" type="line" smooth="yes"/>
      <point x="393" y="522"/>
      <point x="384" y="529"/>
      <point x="384" y="543" type="curve" smooth="yes"/>
      <point x="384" y="556"/>
      <point x="393" y="563"/>
      <point x="412" y="563" type="curve" smooth="yes"/>
      <point x="522" y="563" type="line" smooth="yes"/>
      <point x="539" y="563"/>
      <point x="549" y="555"/>
      <point x="549" y="543" type="curve" smooth="yes"/>
      <point x="549" y="530"/>
      <point x="538" y="522"/>
      <point x="522" y="522" type="curve" smooth="yes"/>
      <point x="498" y="522" type="line"/>
    </contour>
  </outline>
  <lib>
    <dict>
      <key>com.fontlab.hintData</key>
      <dict>
	<key>hhints</key>
	<array>
	  <dict>
	    <key>position</key>	    <integer>0</integer>
	    <key>width</key>	    <integer>41</integer>
	  </dict>
	  <dict>
	    <key>position</key>	    <integer>522</integer>
	    <key>width</key>	    <integer>41</integer>
	  </dict>
	</array>
	<key>vhints</key>
	<array>
	  <dict>
	    <key>position</key>
	    <integer>51</integer>
	    <key>width</key>
	    <integer>165</integer>
	  </dict>
	  <dict>
	    <key>position</key>
	    <integer>281</integer>
	    <key>width</key>
	    <integer>41</integer>
	  </dict>
	  <dict>
	    <key>position</key>
	    <integer>384</integer>
	    <key>width</key>
	    <integer>165</integer>
	  </dict>
	</array>
      </dict>
    </dict>
  </lib>
</glyph>
