<?xml version="1.0" encoding="UTF-8"?>
<glyph name="dagger" format="1">
  <advance width="460"/>
  <unicode hex="2020"/>
  <outline>
    <contour>
      <point x="217" y="-105" type="curve"/>
      <point x="148" y="-138" type="line"/>
      <point x="286" y="362" type="line"/>
      <point x="98" y="350" type="line"/>
      <point x="110" y="367" type="line" smooth="yes"/>
      <point x="123" y="385"/>
      <point x="124" y="386"/>
      <point x="137" y="400" type="curve"/>
      <point x="296" y="400" type="line"/>
      <point x="320" y="493"/>
      <point x="326" y="515"/>
      <point x="340" y="578" type="curve"/>
      <point x="398" y="606" type="line"/>
      <point x="391" y="577"/>
      <point x="385" y="558"/>
      <point x="384" y="551" type="curve" smooth="yes"/>
      <point x="361" y="468" type="line" smooth="yes"/>
      <point x="355" y="447"/>
      <point x="347" y="417"/>
      <point x="343" y="400" type="curve"/>
      <point x="529" y="400" type="line"/>
      <point x="498" y="373" type="line"/>
      <point x="333" y="362" type="line"/>
      <point x="282" y="163"/>
      <point x="243" y="7"/>
    </contour>
  </outline>
  <lib>
    <dict>
      <key>com.fontlab.hintData</key>
      <dict>
	<key>hhints</key>
	<array>
	  <dict>
	    <key>position</key>	    <integer>380</integer>
	    <key>width</key>	    <integer>20</integer>
	  </dict>
	</array>
      </dict>
    </dict>
  </lib>
</glyph>
