<?xml version="1.0" encoding="UTF-8"?>
<glyph name="questiondown" format="1">
  <advance width="400"/>
  <unicode hex="00BF"/>
  <outline>
    <contour>
      <point x="365" y="284" type="line"/>
      <point x="351" y="273" type="line"/>
      <point x="345" y="283"/>
      <point x="338" y="294"/>
      <point x="332" y="305" type="curve" smooth="yes"/>
      <point x="315" y="331" type="line" smooth="yes"/>
      <point x="311" y="336"/>
      <point x="307" y="342"/>
      <point x="304" y="347" type="curve"/>
      <point x="332" y="375"/>
      <point x="342" y="383"/>
      <point x="378" y="409" type="curve"/>
      <point x="397" y="387"/>
      <point x="416" y="356"/>
      <point x="425" y="332" type="curve"/>
      <point x="398" y="311" type="line"/>
      <point x="389" y="304" type="line"/>
    </contour>
    <contour>
      <point x="335" y="226" type="curve"/>
      <point x="369" y="237" type="line"/>
      <point x="363" y="163"/>
      <point x="361" y="148"/>
      <point x="352" y="76" type="curve"/>
      <point x="334" y="61" type="line"/>
      <point x="312" y="66"/>
      <point x="301" y="67"/>
      <point x="287" y="67" type="curve" smooth="yes"/>
      <point x="241" y="67"/>
      <point x="208" y="52"/>
      <point x="179" y="19" type="curve"/>
      <point x="154" y="-11"/>
      <point x="139" y="-48"/>
      <point x="139" y="-83" type="curve" smooth="yes"/>
      <point x="139" y="-122"/>
      <point x="162" y="-149"/>
      <point x="195" y="-149" type="curve" smooth="yes"/>
      <point x="238" y="-149"/>
      <point x="277" y="-119"/>
      <point x="307" y="-63" type="curve"/>
      <point x="317" y="-91"/>
      <point x="321" y="-100"/>
      <point x="328" y="-124" type="curve"/>
      <point x="283" y="-165"/>
      <point x="239" y="-181"/>
      <point x="174" y="-181" type="curve" smooth="yes"/>
      <point x="102" y="-181"/>
      <point x="57" y="-145"/>
      <point x="57" y="-88" type="curve" smooth="yes"/>
      <point x="57" y="-22"/>
      <point x="95" y="43"/>
      <point x="153" y="76" type="curve" smooth="yes"/>
      <point x="190" y="98"/>
      <point x="209" y="103"/>
      <point x="279" y="109" type="curve"/>
      <point x="312" y="108"/>
      <point x="328" y="142"/>
    </contour>
  </outline>
  <lib>
    <dict>
      <key>com.fontlab.hintData</key>
      <dict>
	<key>hhints</key>
	<array>
	  <dict>
	    <key>position</key>	    <integer>-181</integer>
	    <key>width</key>	    <integer>32</integer>
	  </dict>
	</array>
	<key>vhints</key>
	<array>
	  <dict>
	    <key>position</key>
	    <integer>57</integer>
	    <key>width</key>
	    <integer>82</integer>
	  </dict>
	</array>
      </dict>
    </dict>
  </lib>
</glyph>
